{
   "library" : {
      "identifier" : {
         "id" : "MaternalDepressionScreening",
         "version" : "6.0.001"
      },
      "schemaIdentifier" : {
         "id" : "urn:hl7-org:elm",
         "version" : "r1"
      },
      "usings" : {
         "def" : [ {
            "localIdentifier" : "System",
            "uri" : "urn:hl7-org:elm-types:r1"
         }, {
            "localId" : "1",
            "locator" : "3:1-3:23",
            "localIdentifier" : "QDM",
            "uri" : "urn:healthit-gov:qdm:v5_3",
            "version" : "5.3"
         } ]
      },
      "includes" : {
         "def" : [ {
            "localId" : "2",
            "locator" : "5:1-5:64",
            "localIdentifier" : "Global",
            "path" : "MATGlobalCommonFunctions",
            "version" : "2.0.000"
         } ]
      },
      "parameters" : {
         "def" : [ {
            "localId" : "20",
            "locator" : "22:1-22:49",
            "name" : "Measurement Period",
            "accessLevel" : "Public",
            "parameterTypeSpecifier" : {
               "localId" : "19",
               "locator" : "22:32-22:49",
               "type" : "IntervalTypeSpecifier",
               "pointType" : {
                  "localId" : "18",
                  "locator" : "22:41-22:48",
                  "name" : "{urn:hl7-org:elm-types:r1}DateTime",
                  "type" : "NamedTypeSpecifier"
               }
            }
         } ]
      },
      "codeSystems" : {
         "def" : [ {
            "localId" : "3",
            "locator" : "7:1-7:87",
            "name" : "LOINC:2.46",
            "id" : "urn:oid:2.16.840.1.113883.6.1",
            "version" : "urn:hl7:version:2.46",
            "accessLevel" : "Public"
         }, {
            "localId" : "4",
            "locator" : "8:1-8:97",
            "name" : "SNOMEDCT:2017-09",
            "id" : "urn:oid:2.16.840.1.113883.6.96",
            "version" : "urn:hl7:version:2017-09",
            "accessLevel" : "Public"
         } ]
      },
      "valueSets" : {
         "def" : [ {
            "localId" : "5",
            "locator" : "10:1-10:68",
            "name" : "ONC Administrative Sex",
            "id" : "urn:oid:2.16.840.1.113762.1.4.1",
            "accessLevel" : "Public"
         }, {
            "localId" : "6",
            "locator" : "11:1-11:53",
            "name" : "Race",
            "id" : "urn:oid:2.16.840.1.114222.4.11.836",
            "accessLevel" : "Public"
         }, {
            "localId" : "7",
            "locator" : "12:1-12:58",
            "name" : "Ethnicity",
            "id" : "urn:oid:2.16.840.1.114222.4.11.837",
            "accessLevel" : "Public"
         }, {
            "localId" : "8",
            "locator" : "13:1-13:55",
            "name" : "Payer",
            "id" : "urn:oid:2.16.840.1.114222.4.11.3591",
            "accessLevel" : "Public"
         }, {
            "localId" : "9",
            "locator" : "14:1-14:75",
            "name" : "Office Visit",
            "id" : "urn:oid:2.16.840.1.113883.3.464.1003.101.12.1001",
            "accessLevel" : "Public"
         }, {
            "localId" : "10",
            "locator" : "15:1-15:114",
            "name" : "Preventive Care - Established Office Visit, 0 to 17",
            "id" : "urn:oid:2.16.840.1.113883.3.464.1003.101.11.1120",
            "accessLevel" : "Public"
         }, {
            "localId" : "11",
            "locator" : "16:1-16:110",
            "name" : "Preventive Care - Initial Office Visit, 0 to 17",
            "id" : "urn:oid:2.16.840.1.113883.3.464.1003.101.11.1110",
            "accessLevel" : "Public"
         } ]
      },
      "codes" : {
         "def" : [ {
            "localId" : "13",
            "locator" : "18:1-18:66",
            "name" : "Birthdate",
            "id" : "21112-8",
            "display" : "Birth date",
            "accessLevel" : "Public",
            "codeSystem" : {
               "localId" : "12",
               "locator" : "18:34-18:45",
               "name" : "LOINC:2.46"
            }
         }, {
            "localId" : "15",
            "locator" : "19:1-19:165",
            "name" : "Maternal postpartum depression care (regime/therapy)",
            "id" : "428231000124106",
            "display" : "Maternal postpartum depression care (regime/therapy)",
            "accessLevel" : "Public",
            "codeSystem" : {
               "localId" : "14",
               "locator" : "19:85-19:102",
               "name" : "SNOMEDCT:2017-09"
            }
         }, {
            "localId" : "17",
            "locator" : "20:1-20:165",
            "name" : "Maternal postpartum depression screening (procedure)",
            "id" : "428221000124108",
            "display" : "Maternal postpartum depression screening (procedure)",
            "accessLevel" : "Public",
            "codeSystem" : {
               "localId" : "16",
               "locator" : "20:85-20:102",
               "name" : "SNOMEDCT:2017-09"
            }
         } ]
      },
      "statements" : {
         "def" : [ {
            "locator" : "24:1-24:15",
            "name" : "Patient",
            "context" : "Patient",
            "expression" : {
               "type" : "SingletonFrom",
               "operand" : {
                  "locator" : "24:1-24:15",
                  "dataType" : "{urn:healthit-gov:qdm:v5_3}Patient",
                  "templateId" : "Patient",
                  "type" : "Retrieve"
               }
            }
         }, {
            "localId" : "22",
            "locator" : "26:1-27:50",
            "name" : "SDE Ethnicity",
            "context" : "Patient",
            "accessLevel" : "Public",
            "annotation" : [ {
               "type" : "Annotation",
               "s" : {
                  "r" : "22",
                  "s" : [ {
                     "value" : [ "define ","\"SDE Ethnicity\"",":\n\t" ]
                  }, {
                     "r" : "21",
                     "s" : [ {
                        "value" : [ "[","\"Patient Characteristic Ethnicity\"",": " ]
                     }, {
                        "s" : [ {
                           "value" : [ "\"Ethnicity\"" ]
                        } ]
                     }, {
                        "value" : [ "]" ]
                     } ]
                  } ]
               }
            } ],
            "expression" : {
               "localId" : "21",
               "locator" : "27:2-27:50",
               "dataType" : "{urn:healthit-gov:qdm:v5_3}PatientCharacteristicEthnicity",
               "codeProperty" : "code",
               "type" : "Retrieve",
               "codes" : {
                  "name" : "Ethnicity",
                  "type" : "ValueSetRef"
               }
            }
         }, {
            "localId" : "24",
            "locator" : "29:1-30:42",
            "name" : "SDE Payer",
            "context" : "Patient",
            "accessLevel" : "Public",
            "annotation" : [ {
               "type" : "Annotation",
               "s" : {
                  "r" : "24",
                  "s" : [ {
                     "value" : [ "define ","\"SDE Payer\"",":\n\t" ]
                  }, {
                     "r" : "23",
                     "s" : [ {
                        "value" : [ "[","\"Patient Characteristic Payer\"",": " ]
                     }, {
                        "s" : [ {
                           "value" : [ "\"Payer\"" ]
                        } ]
                     }, {
                        "value" : [ "]" ]
                     } ]
                  } ]
               }
            } ],
            "expression" : {
               "localId" : "23",
               "locator" : "30:2-30:42",
               "dataType" : "{urn:healthit-gov:qdm:v5_3}PatientCharacteristicPayer",
               "codeProperty" : "code",
               "type" : "Retrieve",
               "codes" : {
                  "name" : "Payer",
                  "type" : "ValueSetRef"
               }
            }
         }, {
            "localId" : "26",
            "locator" : "32:1-33:40",
            "name" : "SDE Race",
            "context" : "Patient",
            "accessLevel" : "Public",
            "annotation" : [ {
               "type" : "Annotation",
               "s" : {
                  "r" : "26",
                  "s" : [ {
                     "value" : [ "define ","\"SDE Race\"",":\n\t" ]
                  }, {
                     "r" : "25",
                     "s" : [ {
                        "value" : [ "[","\"Patient Characteristic Race\"",": " ]
                     }, {
                        "s" : [ {
                           "value" : [ "\"Race\"" ]
                        } ]
                     }, {
                        "value" : [ "]" ]
                     } ]
                  } ]
               }
            } ],
            "expression" : {
               "localId" : "25",
               "locator" : "33:2-33:40",
               "dataType" : "{urn:healthit-gov:qdm:v5_3}PatientCharacteristicRace",
               "codeProperty" : "code",
               "type" : "Retrieve",
               "codes" : {
                  "name" : "Race",
                  "type" : "ValueSetRef"
               }
            }
         }, {
            "localId" : "28",
            "locator" : "35:1-36:57",
            "name" : "SDE Sex",
            "context" : "Patient",
            "accessLevel" : "Public",
            "annotation" : [ {
               "type" : "Annotation",
               "s" : {
                  "r" : "28",
                  "s" : [ {
                     "value" : [ "define ","\"SDE Sex\"",":\n\t" ]
                  }, {
                     "r" : "27",
                     "s" : [ {
                        "value" : [ "[","\"Patient Characteristic Sex\"",": " ]
                     }, {
                        "s" : [ {
                           "value" : [ "\"ONC Administrative Sex\"" ]
                        } ]
                     }, {
                        "value" : [ "]" ]
                     } ]
                  } ]
               }
            } ],
            "expression" : {
               "localId" : "27",
               "locator" : "36:2-36:57",
               "dataType" : "{urn:healthit-gov:qdm:v5_3}PatientCharacteristicSex",
               "codeProperty" : "code",
               "type" : "Retrieve",
               "codes" : {
                  "name" : "ONC Administrative Sex",
                  "type" : "ValueSetRef"
               }
            }
         }, {
            "localId" : "34",
            "locator" : "41:1-45:2",
            "name" : "Qualifying Encounters",
            "context" : "Patient",
            "accessLevel" : "Public",
            "annotation" : [ {
               "type" : "Annotation",
               "s" : {
                  "r" : "34",
                  "s" : [ {
                     "value" : [ "define ","\"Qualifying Encounters\"",":\n\t" ]
                  }, {
                     "r" : "33",
                     "s" : [ {
                        "value" : [ "( " ]
                     }, {
                        "r" : "33",
                        "s" : [ {
                           "r" : "31",
                           "s" : [ {
                              "r" : "29",
                              "s" : [ {
                                 "value" : [ "[","\"Encounter, Performed\"",": " ]
                              }, {
                                 "s" : [ {
                                    "value" : [ "\"Office Visit\"" ]
                                 } ]
                              }, {
                                 "value" : [ "]" ]
                              } ]
                           }, {
                              "value" : [ "\n\t\t\tunion " ]
                           }, {
                              "r" : "30",
                              "s" : [ {
                                 "value" : [ "[","\"Encounter, Performed\"",": " ]
                              }, {
                                 "s" : [ {
                                    "value" : [ "\"Preventive Care - Established Office Visit, 0 to 17\"" ]
                                 } ]
                              }, {
                                 "value" : [ "]" ]
                              } ]
                           } ]
                        }, {
                           "value" : [ "\n\t\t\tunion " ]
                        }, {
                           "r" : "32",
                           "s" : [ {
                              "value" : [ "[","\"Encounter, Performed\"",": " ]
                           }, {
                              "s" : [ {
                                 "value" : [ "\"Preventive Care - Initial Office Visit, 0 to 17\"" ]
                              } ]
                           }, {
                              "value" : [ "]" ]
                           } ]
                        } ]
                     }, {
                        "value" : [ "\n\t)" ]
                     } ]
                  } ]
               }
            } ],
            "expression" : {
               "localId" : "33",
               "locator" : "42:2-45:2",
               "type" : "Union",
               "operand" : [ {
                  "localId" : "31",
                  "locator" : "42:4-43:88",
                  "type" : "Union",
                  "operand" : [ {
                     "localId" : "29",
                     "locator" : "42:4-42:43",
                     "dataType" : "{urn:healthit-gov:qdm:v5_3}PositiveEncounterPerformed",
                     "templateId" : "PositiveEncounterPerformed",
                     "codeProperty" : "code",
                     "type" : "Retrieve",
                     "codes" : {
                        "name" : "Office Visit",
                        "type" : "ValueSetRef"
                     }
                  }, {
                     "localId" : "30",
                     "locator" : "43:10-43:88",
                     "dataType" : "{urn:healthit-gov:qdm:v5_3}PositiveEncounterPerformed",
                     "templateId" : "PositiveEncounterPerformed",
                     "codeProperty" : "code",
                     "type" : "Retrieve",
                     "codes" : {
                        "name" : "Preventive Care - Established Office Visit, 0 to 17",
                        "type" : "ValueSetRef"
                     }
                  } ]
               }, {
                  "localId" : "32",
                  "locator" : "44:10-44:84",
                  "dataType" : "{urn:healthit-gov:qdm:v5_3}PositiveEncounterPerformed",
                  "templateId" : "PositiveEncounterPerformed",
                  "codeProperty" : "code",
                  "type" : "Retrieve",
                  "codes" : {
                     "name" : "Preventive Care - Initial Office Visit, 0 to 17",
                     "type" : "ValueSetRef"
                  }
               } ]
            }
         }, {
            "localId" : "50",
            "locator" : "51:1-54:113",
            "name" : "Qualifying Encounters Before 6 Months of Age",
            "context" : "Patient",
            "accessLevel" : "Public",
            "annotation" : [ {
               "type" : "Annotation",
               "s" : {
                  "r" : "50",
                  "s" : [ {
                     "value" : [ "define ","\"Qualifying Encounters Before 6 Months of Age\"",":\n\t" ]
                  }, {
                     "r" : "49",
                     "s" : [ {
                        "s" : [ {
                           "r" : "36",
                           "s" : [ {
                              "r" : "35",
                              "s" : [ {
                                 "s" : [ {
                                    "value" : [ "\"Qualifying Encounters\"" ]
                                 } ]
                              } ]
                           }, {
                              "value" : [ " ","ValidEncounters" ]
                           } ]
                        } ]
                     }, {
                        "value" : [ "\n\t\t" ]
                     }, {
                        "r" : "48",
                        "s" : [ {
                           "value" : [ "with " ]
                        }, {
                           "r" : "38",
                           "s" : [ {
                              "r" : "37",
                              "s" : [ {
                                 "r" : "37",
                                 "s" : [ {
                                    "value" : [ "[","\"Patient Characteristic Birthdate\"",": " ]
                                 }, {
                                    "s" : [ {
                                       "value" : [ "\"Birthdate\"" ]
                                    } ]
                                 }, {
                                    "value" : [ "]" ]
                                 } ]
                              } ]
                           }, {
                              "value" : [ " ","BirthDate" ]
                           } ]
                        }, {
                           "value" : [ "\n\t\t\tsuch that " ]
                        }, {
                           "r" : "47",
                           "s" : [ {
                              "r" : "45",
                              "s" : [ {
                                 "r" : "39",
                                 "s" : [ {
                                    "value" : [ "Global" ]
                                 } ]
                              }, {
                                 "value" : [ "." ]
                              }, {
                                 "r" : "45",
                                 "s" : [ {
                                    "value" : [ "\"CalendarAgeInMonthsAt\"","(" ]
                                 }, {
                                    "r" : "41",
                                    "s" : [ {
                                       "r" : "40",
                                       "s" : [ {
                                          "value" : [ "BirthDate" ]
                                       } ]
                                    }, {
                                       "value" : [ "." ]
                                    }, {
                                       "r" : "41",
                                       "s" : [ {
                                          "value" : [ "birthDatetime" ]
                                       } ]
                                    } ]
                                 }, {
                                    "value" : [ ", " ]
                                 }, {
                                    "r" : "44",
                                    "s" : [ {
                                       "value" : [ "start of " ]
                                    }, {
                                       "r" : "43",
                                       "s" : [ {
                                          "r" : "42",
                                          "s" : [ {
                                             "value" : [ "ValidEncounters" ]
                                          } ]
                                       }, {
                                          "value" : [ "." ]
                                       }, {
                                          "r" : "43",
                                          "s" : [ {
                                             "value" : [ "relevantPeriod" ]
                                          } ]
                                       } ]
                                    } ]
                                 }, {
                                    "value" : [ ")" ]
                                 } ]
                              } ]
                           }, {
                              "value" : [ "<="," ","6" ]
                           } ]
                        } ]
                     } ]
                  } ]
               }
            } ],
            "expression" : {
               "localId" : "49",
               "locator" : "52:2-54:113",
               "type" : "Query",
               "source" : [ {
                  "localId" : "36",
                  "locator" : "52:2-52:40",
                  "alias" : "ValidEncounters",
                  "expression" : {
                     "localId" : "35",
                     "locator" : "52:2-52:24",
                     "name" : "Qualifying Encounters",
                     "type" : "ExpressionRef"
                  }
               } ],
               "relationship" : [ {
                  "localId" : "48",
                  "locator" : "53:3-54:113",
                  "alias" : "BirthDate",
                  "type" : "With",
                  "expression" : {
                     "localId" : "37",
                     "locator" : "53:8-53:56",
                     "dataType" : "{urn:healthit-gov:qdm:v5_3}PatientCharacteristicBirthdate",
                     "codeProperty" : "code",
                     "type" : "Retrieve",
                     "codes" : {
                        "type" : "ToList",
                        "operand" : {
                           "name" : "Birthdate",
                           "type" : "CodeRef"
                        }
                     }
                  },
                  "suchThat" : {
                     "localId" : "47",
                     "locator" : "54:14-54:113",
                     "type" : "LessOrEqual",
                     "operand" : [ {
                        "localId" : "45",
                        "locator" : "54:14-54:109",
                        "name" : "CalendarAgeInMonthsAt",
                        "libraryName" : "Global",
                        "type" : "FunctionRef",
                        "operand" : [ {
                           "localId" : "41",
                           "locator" : "54:45-54:67",
                           "path" : "birthDatetime",
                           "scope" : "BirthDate",
                           "type" : "Property"
                        }, {
                           "localId" : "44",
                           "locator" : "54:70-54:108",
                           "type" : "Start",
                           "operand" : {
                              "localId" : "43",
                              "locator" : "54:79-54:108",
                              "path" : "relevantPeriod",
                              "scope" : "ValidEncounters",
                              "type" : "Property"
                           }
                        } ]
                     }, {
                        "localId" : "46",
                        "locator" : "54:113",
                        "valueType" : "{urn:hl7-org:elm-types:r1}Integer",
                        "value" : "6",
                        "type" : "Literal"
                     } ]
                  }
               } ]
            }
         }, {
            "localId" : "76",
            "locator" : "68:1-69:93",
            "name" : "ToDate",
            "context" : "Patient",
            "accessLevel" : "Public",
            "type" : "FunctionDef",
            "annotation" : [ {
               "type" : "Annotation",
               "s" : {
                  "r" : "76",
                  "s" : [ {
                     "value" : [ "define function ","\"ToDate\"","(","Value"," " ]
                  }, {
                     "r" : "62",
                     "s" : [ {
                        "value" : [ "DateTime" ]
                     } ]
                  }, {
                     "value" : [ " ):\n\t" ]
                  }, {
                     "r" : "75",
                     "s" : [ {
                        "r" : "75",
                        "s" : [ {
                           "value" : [ "DateTime","(" ]
                        }, {
                           "r" : "64",
                           "s" : [ {
                              "value" : [ "year from " ]
                           }, {
                              "r" : "63",
                              "s" : [ {
                                 "value" : [ "Value" ]
                              } ]
                           } ]
                        }, {
                           "value" : [ ", " ]
                        }, {
                           "r" : "66",
                           "s" : [ {
                              "value" : [ "month from " ]
                           }, {
                              "r" : "65",
                              "s" : [ {
                                 "value" : [ "Value" ]
                              } ]
                           } ]
                        }, {
                           "value" : [ ", " ]
                        }, {
                           "r" : "68",
                           "s" : [ {
                              "value" : [ "day from " ]
                           }, {
                              "r" : "67",
                              "s" : [ {
                                 "value" : [ "Value" ]
                              } ]
                           } ]
                        }, {
                           "value" : [ ", ","0",", ","0",", ","0",", ","0",", " ]
                        }, {
                           "r" : "74",
                           "s" : [ {
                              "value" : [ "timezone from " ]
                           }, {
                              "r" : "73",
                              "s" : [ {
                                 "value" : [ "Value" ]
                              } ]
                           } ]
                        }, {
                           "value" : [ ")" ]
                        } ]
                     } ]
                  } ]
               }
            } ],
            "expression" : {
               "localId" : "75",
               "locator" : "69:2-69:93",
               "type" : "DateTime",
               "year" : {
                  "localId" : "64",
                  "locator" : "69:11-69:25",
                  "precision" : "Year",
                  "type" : "DateTimeComponentFrom",
                  "operand" : {
                     "localId" : "63",
                     "locator" : "69:21-69:25",
                     "name" : "Value",
                     "type" : "OperandRef"
                  }
               },
               "month" : {
                  "localId" : "66",
                  "locator" : "69:28-69:43",
                  "precision" : "Month",
                  "type" : "DateTimeComponentFrom",
                  "operand" : {
                     "localId" : "65",
                     "locator" : "69:39-69:43",
                     "name" : "Value",
                     "type" : "OperandRef"
                  }
               },
               "day" : {
                  "localId" : "68",
                  "locator" : "69:46-69:59",
                  "precision" : "Day",
                  "type" : "DateTimeComponentFrom",
                  "operand" : {
                     "localId" : "67",
                     "locator" : "69:55-69:59",
                     "name" : "Value",
                     "type" : "OperandRef"
                  }
               },
               "hour" : {
                  "localId" : "69",
                  "locator" : "69:62",
                  "valueType" : "{urn:hl7-org:elm-types:r1}Integer",
                  "value" : "0",
                  "type" : "Literal"
               },
               "minute" : {
                  "localId" : "70",
                  "locator" : "69:65",
                  "valueType" : "{urn:hl7-org:elm-types:r1}Integer",
                  "value" : "0",
                  "type" : "Literal"
               },
               "second" : {
                  "localId" : "71",
                  "locator" : "69:68",
                  "valueType" : "{urn:hl7-org:elm-types:r1}Integer",
                  "value" : "0",
                  "type" : "Literal"
               },
               "millisecond" : {
                  "localId" : "72",
                  "locator" : "69:71",
                  "valueType" : "{urn:hl7-org:elm-types:r1}Integer",
                  "value" : "0",
                  "type" : "Literal"
               },
               "timezoneOffset" : {
                  "localId" : "74",
                  "locator" : "69:74-69:92",
                  "type" : "TimezoneFrom",
                  "operand" : {
                     "localId" : "73",
                     "locator" : "69:88-69:92",
                     "name" : "Value",
                     "type" : "OperandRef"
                  }
               }
            },
            "operand" : [ {
               "name" : "Value",
               "operandTypeSpecifier" : {
                  "localId" : "62",
                  "locator" : "68:32-68:39",
                  "name" : "{urn:hl7-org:elm-types:r1}DateTime",
                  "type" : "NamedTypeSpecifier"
               }
            } ]
         }, {
            "localId" : "81",
            "locator" : "71:1-72:53",
            "name" : "CalendarAgeInMonthsAt",
            "context" : "Patient",
            "accessLevel" : "Public",
            "type" : "FunctionDef",
            "annotation" : [ {
               "type" : "Annotation",
               "s" : {
                  "r" : "81",
                  "s" : [ {
                     "value" : [ "define function ","\"CalendarAgeInMonthsAt\"","(","BirthDateTime"," " ]
                  }, {
                     "r" : "59",
                     "s" : [ {
                        "value" : [ "DateTime" ]
                     } ]
                  }, {
                     "value" : [ ", ","AsOf"," " ]
                  }, {
                     "r" : "60",
                     "s" : [ {
                        "value" : [ "DateTime" ]
                     } ]
                  }, {
                     "value" : [ " ):\n\t" ]
                  }, {
                     "r" : "80",
                     "s" : [ {
                        "r" : "80",
                        "s" : [ {
                           "value" : [ "months between " ]
                        }, {
                           "r" : "77",
                           "s" : [ {
                              "value" : [ "ToDate","(" ]
                           }, {
                              "r" : "61",
                              "s" : [ {
                                 "value" : [ "BirthDateTime" ]
                              } ]
                           }, {
                              "value" : [ ")" ]
                           } ]
                        }, {
                           "value" : [ "and " ]
                        }, {
                           "r" : "79",
                           "s" : [ {
                              "value" : [ "ToDate","(" ]
                           }, {
                              "r" : "78",
                              "s" : [ {
                                 "value" : [ "AsOf" ]
                              } ]
                           }, {
                              "value" : [ ")" ]
                           } ]
                        } ]
                     } ]
                  } ]
               }
            } ],
            "expression" : {
               "localId" : "80",
               "locator" : "72:2-72:53",
               "precision" : "Month",
               "type" : "DurationBetween",
               "operand" : [ {
                  "localId" : "77",
                  "locator" : "72:17-72:37",
                  "name" : "ToDate",
                  "type" : "FunctionRef",
                  "operand" : [ {
                     "localId" : "61",
                     "locator" : "72:24-72:36",
                     "name" : "BirthDateTime",
                     "type" : "OperandRef"
                  } ]
               }, {
                  "localId" : "79",
                  "locator" : "72:42-72:53",
                  "name" : "ToDate",
                  "type" : "FunctionRef",
                  "operand" : [ {
                     "localId" : "78",
                     "locator" : "72:49-72:52",
                     "name" : "AsOf",
                     "type" : "OperandRef"
                  } ]
               } ]
            },
            "operand" : [ {
               "name" : "BirthDateTime",
               "operandTypeSpecifier" : {
                  "localId" : "59",
                  "locator" : "71:55-71:62",
                  "name" : "{urn:hl7-org:elm-types:r1}DateTime",
                  "type" : "NamedTypeSpecifier"
               }
            }, {
               "name" : "AsOf",
               "operandTypeSpecifier" : {
                  "localId" : "60",
                  "locator" : "71:70-71:77",
                  "name" : "{urn:hl7-org:elm-types:r1}DateTime",
                  "type" : "NamedTypeSpecifier"
               }
            } ]
         }, {
            "localId" : "94",
            "locator" : "56:1-59:88",
            "name" : "Turns 6 Months of Age During Measurement Period",
            "context" : "Patient",
            "accessLevel" : "Public",
            "annotation" : [ {
               "type" : "Annotation",
               "s" : {
                  "r" : "94",
                  "s" : [ {
                     "value" : [ "define ","\"Turns 6 Months of Age During Measurement Period\"",":\n\t" ]
                  }, {
                     "r" : "93",
                     "s" : [ {
                        "s" : [ {
                           "r" : "54",
                           "s" : [ {
                              "r" : "53",
                              "s" : [ {
                                 "r" : "53",
                                 "s" : [ {
                                    "value" : [ "[","\"Patient Characteristic Birthdate\"",": " ]
                                 }, {
                                    "s" : [ {
                                       "value" : [ "\"Birthdate\"" ]
                                    } ]
                                 }, {
                                    "value" : [ "]" ]
                                 } ]
                              } ]
                           }, {
                              "value" : [ " ","BirthDate" ]
                           } ]
                        } ]
                     }, {
                        "value" : [ "\n\t\t" ]
                     }, {
                        "r" : "92",
                        "s" : [ {
                           "value" : [ "where " ]
                        }, {
                           "r" : "92",
                           "s" : [ {
                              "r" : "84",
                              "s" : [ {
                                 "r" : "82",
                                 "s" : [ {
                                    "value" : [ "\"CalendarAgeInMonthsAt\"","(" ]
                                 }, {
                                    "r" : "56",
                                    "s" : [ {
                                       "r" : "55",
                                       "s" : [ {
                                          "value" : [ "BirthDate" ]
                                       } ]
                                    }, {
                                       "value" : [ "." ]
                                    }, {
                                       "r" : "56",
                                       "s" : [ {
                                          "value" : [ "birthDatetime" ]
                                       } ]
                                    } ]
                                 }, {
                                    "value" : [ ", " ]
                                 }, {
                                    "r" : "58",
                                    "s" : [ {
                                       "value" : [ "start of " ]
                                    }, {
                                       "r" : "57",
                                       "s" : [ {
                                          "value" : [ "\"Measurement Period\"" ]
                                       } ]
                                    } ]
                                 }, {
                                    "value" : [ ")" ]
                                 } ]
                              }, {
                                 "value" : [ "<"," ","6" ]
                              } ]
                           }, {
                              "value" : [ "\n\t\t\tand " ]
                           }, {
                              "r" : "91",
                              "s" : [ {
                                 "r" : "89",
                                 "s" : [ {
                                    "value" : [ "\"CalendarAgeInMonthsAt\"","(" ]
                                 }, {
                                    "r" : "86",
                                    "s" : [ {
                                       "r" : "85",
                                       "s" : [ {
                                          "value" : [ "BirthDate" ]
                                       } ]
                                    }, {
                                       "value" : [ "." ]
                                    }, {
                                       "r" : "86",
                                       "s" : [ {
                                          "value" : [ "birthDatetime" ]
                                       } ]
                                    } ]
                                 }, {
                                    "value" : [ ", " ]
                                 }, {
                                    "r" : "88",
                                    "s" : [ {
                                       "value" : [ "end of " ]
                                    }, {
                                       "r" : "87",
                                       "s" : [ {
                                          "value" : [ "\"Measurement Period\"" ]
                                       } ]
                                    } ]
                                 }, {
                                    "value" : [ ")" ]
                                 } ]
                              }, {
                                 "value" : [ ">="," ","6" ]
                              } ]
                           } ]
                        } ]
                     } ]
                  } ]
               }
            } ],
            "expression" : {
               "localId" : "93",
               "locator" : "57:2-59:88",
               "type" : "Query",
               "source" : [ {
                  "localId" : "54",
                  "locator" : "57:2-57:60",
                  "alias" : "BirthDate",
                  "expression" : {
                     "localId" : "53",
                     "locator" : "57:2-57:50",
                     "dataType" : "{urn:healthit-gov:qdm:v5_3}PatientCharacteristicBirthdate",
                     "codeProperty" : "code",
                     "type" : "Retrieve",
                     "codes" : {
                        "type" : "ToList",
                        "operand" : {
                           "name" : "Birthdate",
                           "type" : "CodeRef"
                        }
                     }
                  }
               } ],
               "relationship" : [ ],
               "where" : {
                  "localId" : "92",
                  "locator" : "58:3-59:88",
                  "type" : "And",
                  "operand" : [ {
                     "localId" : "84",
                     "locator" : "58:9-58:90",
                     "type" : "Less",
                     "operand" : [ {
                        "localId" : "82",
                        "locator" : "58:9-58:87",
                        "name" : "CalendarAgeInMonthsAt",
                        "type" : "FunctionRef",
                        "operand" : [ {
                           "localId" : "56",
                           "locator" : "58:33-58:55",
                           "path" : "birthDatetime",
                           "scope" : "BirthDate",
                           "type" : "Property"
                        }, {
                           "localId" : "58",
                           "locator" : "58:58-58:86",
                           "type" : "Start",
                           "operand" : {
                              "localId" : "57",
                              "locator" : "58:67-58:86",
                              "name" : "Measurement Period",
                              "type" : "ParameterRef"
                           }
                        } ]
                     }, {
                        "localId" : "83",
                        "locator" : "58:90",
                        "valueType" : "{urn:hl7-org:elm-types:r1}Integer",
                        "value" : "6",
                        "type" : "Literal"
                     } ]
                  }, {
                     "localId" : "91",
                     "locator" : "59:8-59:88",
                     "type" : "GreaterOrEqual",
                     "operand" : [ {
                        "localId" : "89",
                        "locator" : "59:8-59:84",
                        "name" : "CalendarAgeInMonthsAt",
                        "type" : "FunctionRef",
                        "operand" : [ {
                           "localId" : "86",
                           "locator" : "59:32-59:54",
                           "path" : "birthDatetime",
                           "scope" : "BirthDate",
                           "type" : "Property"
                        }, {
                           "localId" : "88",
                           "locator" : "59:57-59:83",
                           "type" : "End",
                           "operand" : {
                              "localId" : "87",
                              "locator" : "59:64-59:83",
                              "name" : "Measurement Period",
                              "type" : "ParameterRef"
                           }
                        } ]
                     }, {
                        "localId" : "90",
                        "locator" : "59:88",
                        "valueType" : "{urn:hl7-org:elm-types:r1}Integer",
                        "value" : "6",
                        "type" : "Literal"
                     } ]
                  } ]
               }
            }
         }, {
            "localId" : "98",
            "locator" : "47:1-49:62",
            "name" : "Initial Population",
            "context" : "Patient",
            "accessLevel" : "Public",
            "annotation" : [ {
               "type" : "Annotation",
               "s" : {
                  "r" : "98",
                  "s" : [ {
                     "value" : [ "define ","\"Initial Population\"",":\n\t" ]
                  }, {
                     "r" : "97",
                     "s" : [ {
                        "r" : "52",
                        "s" : [ {
                           "value" : [ "exists " ]
                        }, {
                           "r" : "51",
                           "s" : [ {
                              "value" : [ "\"Qualifying Encounters Before 6 Months of Age\"" ]
                           } ]
                        } ]
                     }, {
                        "value" : [ "\n\t\tand " ]
                     }, {
                        "r" : "96",
                        "s" : [ {
                           "value" : [ "exists " ]
                        }, {
                           "r" : "95",
                           "s" : [ {
                              "value" : [ "\"Turns 6 Months of Age During Measurement Period\"" ]
                           } ]
                        } ]
                     } ]
                  } ]
               }
            } ],
            "expression" : {
               "localId" : "97",
               "locator" : "48:2-49:62",
               "type" : "And",
               "operand" : [ {
                  "localId" : "52",
                  "locator" : "48:2-48:54",
                  "type" : "Exists",
                  "operand" : {
                     "localId" : "51",
                     "locator" : "48:9-48:54",
                     "name" : "Qualifying Encounters Before 6 Months of Age",
                     "type" : "ExpressionRef"
                  }
               }, {
                  "localId" : "96",
                  "locator" : "49:7-49:62",
                  "type" : "Exists",
                  "operand" : {
                     "localId" : "95",
                     "locator" : "49:14-49:62",
                     "name" : "Turns 6 Months of Age During Measurement Period",
                     "type" : "ExpressionRef"
                  }
               } ]
            }
         }, {
            "localId" : "100",
            "locator" : "38:1-39:21",
            "name" : "Denominator",
            "context" : "Patient",
            "accessLevel" : "Public",
            "annotation" : [ {
               "type" : "Annotation",
               "s" : {
                  "r" : "100",
                  "s" : [ {
                     "value" : [ "define ","\"Denominator\"",":\n\t" ]
                  }, {
                     "r" : "99",
                     "s" : [ {
                        "value" : [ "\"Initial Population\"" ]
                     } ]
                  } ]
               }
            } ],
            "expression" : {
               "localId" : "99",
               "locator" : "39:2-39:21",
               "name" : "Initial Population",
               "type" : "ExpressionRef"
            }
         }, {
            "localId" : "118",
            "locator" : "61:1-66:2",
            "name" : "Numerator",
            "context" : "Patient",
            "accessLevel" : "Public",
            "annotation" : [ {
               "type" : "Annotation",
               "s" : {
                  "r" : "118",
                  "s" : [ {
                     "value" : [ "define ","\"Numerator\"",":\n\t" ]
                  }, {
                     "r" : "117",
                     "s" : [ {
                        "value" : [ "exists " ]
                     }, {
                        "r" : "116",
                        "s" : [ {
                           "value" : [ "( " ]
                        }, {
                           "r" : "116",
                           "s" : [ {
                              "s" : [ {
                                 "r" : "104",
                                 "s" : [ {
                                    "r" : "103",
                                    "s" : [ {
                                       "value" : [ "( " ]
                                    }, {
                                       "r" : "103",
                                       "s" : [ {
                                          "r" : "101",
                                          "s" : [ {
                                             "value" : [ "[","\"Intervention, Performed\"",": " ]
                                          }, {
                                             "s" : [ {
                                                "value" : [ "\"Maternal postpartum depression care (regime/therapy)\"" ]
                                             } ]
                                          }, {
                                             "value" : [ "]" ]
                                          } ]
                                       }, {
                                          "value" : [ "\n\t\t\tunion " ]
                                       }, {
                                          "r" : "102",
                                          "s" : [ {
                                             "value" : [ "[","\"Assessment, Performed\"",": " ]
                                          }, {
                                             "s" : [ {
                                                "value" : [ "\"Maternal postpartum depression screening (procedure)\"" ]
                                             } ]
                                          }, {
                                             "value" : [ "]" ]
                                          } ]
                                       } ]
                                    }, {
                                       "value" : [ " )" ]
                                    } ]
                                 }, {
                                    "value" : [ " ","DepressionScreening" ]
                                 } ]
                              } ]
                           }, {
                              "value" : [ "\n\t\t\t" ]
                           }, {
                              "r" : "115",
                              "s" : [ {
                                 "value" : [ "with " ]
                              }, {
                                 "r" : "106",
                                 "s" : [ {
                                    "r" : "105",
                                    "s" : [ {
                                       "r" : "105",
                                       "s" : [ {
                                          "value" : [ "[","\"Patient Characteristic Birthdate\"",": " ]
                                       }, {
                                          "s" : [ {
                                             "value" : [ "\"Birthdate\"" ]
                                          } ]
                                       }, {
                                          "value" : [ "]" ]
                                       } ]
                                    } ]
                                 }, {
                                    "value" : [ " ","BirthDate" ]
                                 } ]
                              }, {
                                 "value" : [ "\n\t\t\t\tsuch that " ]
                              }, {
                                 "r" : "114",
                                 "s" : [ {
                                    "r" : "112",
                                    "s" : [ {
                                       "r" : "107",
                                       "s" : [ {
                                          "value" : [ "Global" ]
                                       } ]
                                    }, {
                                       "value" : [ "." ]
                                    }, {
                                       "r" : "112",
                                       "s" : [ {
                                          "value" : [ "\"CalendarAgeInMonthsAt\"","(" ]
                                       }, {
                                          "r" : "109",
                                          "s" : [ {
                                             "r" : "108",
                                             "s" : [ {
                                                "value" : [ "BirthDate" ]
                                             } ]
                                          }, {
                                             "value" : [ "." ]
                                          }, {
                                             "r" : "109",
                                             "s" : [ {
                                                "value" : [ "birthDatetime" ]
                                             } ]
                                          } ]
                                       }, {
                                          "value" : [ ", " ]
                                       }, {
                                          "r" : "111",
                                          "s" : [ {
                                             "r" : "110",
                                             "s" : [ {
                                                "value" : [ "DepressionScreening" ]
                                             } ]
                                          }, {
                                             "value" : [ "." ]
                                          }, {
                                             "r" : "111",
                                             "s" : [ {
                                                "value" : [ "authorDatetime" ]
                                             } ]
                                          } ]
                                       }, {
                                          "value" : [ ")" ]
                                       } ]
                                    } ]
                                 }, {
                                    "value" : [ "<="," ","6" ]
                                 } ]
                              } ]
                           } ]
                        }, {
                           "value" : [ "\n\t)" ]
                        } ]
                     } ]
                  } ]
               }
            } ],
            "expression" : {
               "localId" : "117",
               "locator" : "62:2-66:2",
               "type" : "Exists",
               "operand" : {
                  "localId" : "116",
                  "locator" : "62:9-66:2",
                  "type" : "Query",
                  "source" : [ {
                     "localId" : "104",
                     "locator" : "62:11-63:112",
                     "alias" : "DepressionScreening",
                     "expression" : {
                        "localId" : "103",
                        "locator" : "62:11-63:92",
                        "type" : "Union",
                        "operand" : [ {
                           "locator" : "62:13-62:95",
                           "type" : "As",
                           "operand" : {
                              "localId" : "101",
                              "locator" : "62:13-62:95",
                              "dataType" : "{urn:healthit-gov:qdm:v5_3}PositiveInterventionPerformed",
                              "templateId" : "PositiveInterventionPerformed",
                              "codeProperty" : "code",
                              "type" : "Retrieve",
                              "codes" : {
                                 "type" : "ToList",
                                 "operand" : {
                                    "name" : "Maternal postpartum depression care (regime/therapy)",
                                    "type" : "CodeRef"
                                 }
                              }
                           },
                           "asTypeSpecifier" : {
                              "type" : "ListTypeSpecifier",
                              "elementType" : {
                                 "type" : "ChoiceTypeSpecifier",
                                 "type" : [ {
                                    "name" : "{urn:healthit-gov:qdm:v5_3}PositiveInterventionPerformed",
                                    "type" : "NamedTypeSpecifier"
                                 }, {
                                    "name" : "{urn:healthit-gov:qdm:v5_3}PositiveAssessmentPerformed",
                                    "type" : "NamedTypeSpecifier"
                                 } ]
                              }
                           }
                        }, {
                           "locator" : "63:10-63:90",
                           "type" : "As",
                           "operand" : {
                              "localId" : "102",
                              "locator" : "63:10-63:90",
                              "dataType" : "{urn:healthit-gov:qdm:v5_3}PositiveAssessmentPerformed",
                              "templateId" : "PositiveAssessmentPerformed",
                              "codeProperty" : "code",
                              "type" : "Retrieve",
                              "codes" : {
                                 "type" : "ToList",
                                 "operand" : {
                                    "name" : "Maternal postpartum depression screening (procedure)",
                                    "type" : "CodeRef"
                                 }
                              }
                           },
                           "asTypeSpecifier" : {
                              "type" : "ListTypeSpecifier",
                              "elementType" : {
                                 "type" : "ChoiceTypeSpecifier",
                                 "type" : [ {
                                    "name" : "{urn:healthit-gov:qdm:v5_3}PositiveInterventionPerformed",
                                    "type" : "NamedTypeSpecifier"
                                 }, {
                                    "name" : "{urn:healthit-gov:qdm:v5_3}PositiveAssessmentPerformed",
                                    "type" : "NamedTypeSpecifier"
                                 } ]
                              }
                           }
                        } ]
                     }
                  } ],
                  "relationship" : [ {
                     "localId" : "115",
                     "locator" : "64:4-65:109",
                     "alias" : "BirthDate",
                     "type" : "With",
                     "expression" : {
                        "localId" : "105",
                        "locator" : "64:9-64:57",
                        "dataType" : "{urn:healthit-gov:qdm:v5_3}PatientCharacteristicBirthdate",
                        "codeProperty" : "code",
                        "type" : "Retrieve",
                        "codes" : {
                           "type" : "ToList",
                           "operand" : {
                              "name" : "Birthdate",
                              "type" : "CodeRef"
                           }
                        }
                     },
                     "suchThat" : {
                        "localId" : "114",
                        "locator" : "65:15-65:109",
                        "type" : "LessOrEqual",
                        "operand" : [ {
                           "localId" : "112",
                           "locator" : "65:15-65:105",
                           "name" : "CalendarAgeInMonthsAt",
                           "libraryName" : "Global",
                           "type" : "FunctionRef",
                           "operand" : [ {
                              "localId" : "109",
                              "locator" : "65:46-65:68",
                              "path" : "birthDatetime",
                              "scope" : "BirthDate",
                              "type" : "Property"
                           }, {
                              "localId" : "111",
                              "locator" : "65:71-65:104",
                              "path" : "authorDatetime",
                              "scope" : "DepressionScreening",
                              "type" : "Property"
                           } ]
                        }, {
                           "localId" : "113",
                           "locator" : "65:109",
                           "valueType" : "{urn:hl7-org:elm-types:r1}Integer",
                           "value" : "6",
                           "type" : "Literal"
                        } ]
                     }
                  } ]
               }
            }
         } ]
      }
   }
}