{
   "library" : {
      "identifier" : {
         "id" : "CervicalCancerScreening",
         "version" : "7.0.002"
      },
      "schemaIdentifier" : {
         "id" : "urn:hl7-org:elm",
         "version" : "r1"
      },
      "usings" : {
         "def" : [ {
            "localIdentifier" : "System",
            "uri" : "urn:hl7-org:elm-types:r1"
         }, {
            "localId" : "1",
            "locator" : "3:1-3:23",
            "localIdentifier" : "QDM",
            "uri" : "urn:healthit-gov:qdm:v5_3",
            "version" : "5.3"
         } ]
      },
      "includes" : {
         "def" : [ {
            "localId" : "2",
            "locator" : "5:1-5:64",
            "localIdentifier" : "Global",
            "path" : "MATGlobalCommonFunctions",
            "version" : "2.0.000"
         }, {
            "localId" : "3",
            "locator" : "7:1-7:48",
            "localIdentifier" : "Hospice",
            "path" : "Hospice",
            "version" : "1.0.000"
         } ]
      },
      "parameters" : {
         "def" : [ {
            "localId" : "21",
            "locator" : "26:1-26:49",
            "name" : "Measurement Period",
            "accessLevel" : "Public",
            "parameterTypeSpecifier" : {
               "localId" : "20",
               "locator" : "26:32-26:49",
               "type" : "IntervalTypeSpecifier",
               "pointType" : {
                  "localId" : "19",
                  "locator" : "26:41-26:48",
                  "name" : "{urn:hl7-org:elm-types:r1}DateTime",
                  "type" : "NamedTypeSpecifier"
               }
            }
         } ]
      },
      "codeSystems" : {
         "def" : [ {
            "localId" : "4",
            "locator" : "9:1-9:97",
            "name" : "SNOMEDCT:2017-09",
            "id" : "urn:oid:2.16.840.1.113883.6.96",
            "version" : "urn:hl7:version:2017-09",
            "accessLevel" : "Public"
         } ]
      },
      "valueSets" : {
         "def" : [ {
            "localId" : "5",
            "locator" : "11:1-11:68",
            "name" : "ONC Administrative Sex",
            "id" : "urn:oid:2.16.840.1.113762.1.4.1",
            "accessLevel" : "Public"
         }, {
            "localId" : "6",
            "locator" : "12:1-12:53",
            "name" : "Race",
            "id" : "urn:oid:2.16.840.1.114222.4.11.836",
            "accessLevel" : "Public"
         }, {
            "localId" : "7",
            "locator" : "13:1-13:58",
            "name" : "Ethnicity",
            "id" : "urn:oid:2.16.840.1.114222.4.11.837",
            "accessLevel" : "Public"
         }, {
            "localId" : "8",
            "locator" : "14:1-14:55",
            "name" : "Payer",
            "id" : "urn:oid:2.16.840.1.114222.4.11.3591",
            "accessLevel" : "Public"
         }, {
            "localId" : "9",
            "locator" : "15:1-15:58",
            "name" : "Female",
            "id" : "urn:oid:2.16.840.1.113883.3.560.100.2",
            "accessLevel" : "Public"
         }, {
            "localId" : "10",
            "locator" : "16:1-16:87",
            "name" : "Home Healthcare Services",
            "id" : "urn:oid:2.16.840.1.113883.3.464.1003.101.12.1016",
            "accessLevel" : "Public"
         }, {
            "localId" : "11",
            "locator" : "17:1-17:99",
            "name" : "Hysterectomy with No Residual Cervix",
            "id" : "urn:oid:2.16.840.1.113883.3.464.1003.198.12.1014",
            "accessLevel" : "Public"
         }, {
            "localId" : "12",
            "locator" : "18:1-18:75",
            "name" : "Office Visit",
            "id" : "urn:oid:2.16.840.1.113883.3.464.1003.101.12.1001",
            "accessLevel" : "Public"
         }, {
            "localId" : "13",
            "locator" : "19:1-19:71",
            "name" : "Pap Test",
            "id" : "urn:oid:2.16.840.1.113883.3.464.1003.108.12.1017",
            "accessLevel" : "Public"
         }, {
            "localId" : "14",
            "locator" : "20:1-20:125",
            "name" : "Preventive Care Services - Established Office Visit, 18 and Up",
            "id" : "urn:oid:2.16.840.1.113883.3.464.1003.101.12.1025",
            "accessLevel" : "Public"
         }, {
            "localId" : "15",
            "locator" : "21:1-21:119",
            "name" : "Preventive Care Services-Initial Office Visit, 18 and Up",
            "id" : "urn:oid:2.16.840.1.113883.3.464.1003.101.12.1023",
            "accessLevel" : "Public"
         }, {
            "localId" : "16",
            "locator" : "22:1-22:71",
            "name" : "HPV Test",
            "id" : "urn:oid:2.16.840.1.113883.3.464.1003.110.12.1059",
            "accessLevel" : "Public"
         } ]
      },
      "codes" : {
         "def" : [ {
            "localId" : "18",
            "locator" : "24:1-24:132",
            "name" : "Congenital absence of cervix (disorder)",
            "id" : "37687000",
            "display" : "Congenital absence of cervix (disorder)",
            "accessLevel" : "Public",
            "codeSystem" : {
               "localId" : "17",
               "locator" : "24:65-24:82",
               "name" : "SNOMEDCT:2017-09"
            }
         } ]
      },
      "statements" : {
         "def" : [ {
            "locator" : "28:1-28:15",
            "name" : "Patient",
            "context" : "Patient",
            "expression" : {
               "type" : "SingletonFrom",
               "operand" : {
                  "locator" : "28:1-28:15",
                  "dataType" : "{urn:healthit-gov:qdm:v5_3}Patient",
                  "templateId" : "Patient",
                  "type" : "Retrieve"
               }
            }
         }, {
            "localId" : "23",
            "locator" : "30:1-31:50",
            "name" : "SDE Ethnicity",
            "context" : "Patient",
            "accessLevel" : "Public",
            "annotation" : [ {
               "type" : "Annotation",
               "s" : {
                  "r" : "23",
                  "s" : [ {
                     "value" : [ "define ","\"SDE Ethnicity\"",":\n\t" ]
                  }, {
                     "r" : "22",
                     "s" : [ {
                        "value" : [ "[","\"Patient Characteristic Ethnicity\"",": " ]
                     }, {
                        "s" : [ {
                           "value" : [ "\"Ethnicity\"" ]
                        } ]
                     }, {
                        "value" : [ "]" ]
                     } ]
                  } ]
               }
            } ],
            "expression" : {
               "localId" : "22",
               "locator" : "31:2-31:50",
               "dataType" : "{urn:healthit-gov:qdm:v5_3}PatientCharacteristicEthnicity",
               "codeProperty" : "code",
               "type" : "Retrieve",
               "codes" : {
                  "name" : "Ethnicity",
                  "type" : "ValueSetRef"
               }
            }
         }, {
            "localId" : "25",
            "locator" : "33:1-34:42",
            "name" : "SDE Payer",
            "context" : "Patient",
            "accessLevel" : "Public",
            "annotation" : [ {
               "type" : "Annotation",
               "s" : {
                  "r" : "25",
                  "s" : [ {
                     "value" : [ "define ","\"SDE Payer\"",":\n\t" ]
                  }, {
                     "r" : "24",
                     "s" : [ {
                        "value" : [ "[","\"Patient Characteristic Payer\"",": " ]
                     }, {
                        "s" : [ {
                           "value" : [ "\"Payer\"" ]
                        } ]
                     }, {
                        "value" : [ "]" ]
                     } ]
                  } ]
               }
            } ],
            "expression" : {
               "localId" : "24",
               "locator" : "34:2-34:42",
               "dataType" : "{urn:healthit-gov:qdm:v5_3}PatientCharacteristicPayer",
               "codeProperty" : "code",
               "type" : "Retrieve",
               "codes" : {
                  "name" : "Payer",
                  "type" : "ValueSetRef"
               }
            }
         }, {
            "localId" : "27",
            "locator" : "36:1-37:40",
            "name" : "SDE Race",
            "context" : "Patient",
            "accessLevel" : "Public",
            "annotation" : [ {
               "type" : "Annotation",
               "s" : {
                  "r" : "27",
                  "s" : [ {
                     "value" : [ "define ","\"SDE Race\"",":\n\t" ]
                  }, {
                     "r" : "26",
                     "s" : [ {
                        "value" : [ "[","\"Patient Characteristic Race\"",": " ]
                     }, {
                        "s" : [ {
                           "value" : [ "\"Race\"" ]
                        } ]
                     }, {
                        "value" : [ "]" ]
                     } ]
                  } ]
               }
            } ],
            "expression" : {
               "localId" : "26",
               "locator" : "37:2-37:40",
               "dataType" : "{urn:healthit-gov:qdm:v5_3}PatientCharacteristicRace",
               "codeProperty" : "code",
               "type" : "Retrieve",
               "codes" : {
                  "name" : "Race",
                  "type" : "ValueSetRef"
               }
            }
         }, {
            "localId" : "29",
            "locator" : "39:1-40:57",
            "name" : "SDE Sex",
            "context" : "Patient",
            "accessLevel" : "Public",
            "annotation" : [ {
               "type" : "Annotation",
               "s" : {
                  "r" : "29",
                  "s" : [ {
                     "value" : [ "define ","\"SDE Sex\"",":\n\t" ]
                  }, {
                     "r" : "28",
                     "s" : [ {
                        "value" : [ "[","\"Patient Characteristic Sex\"",": " ]
                     }, {
                        "s" : [ {
                           "value" : [ "\"ONC Administrative Sex\"" ]
                        } ]
                     }, {
                        "value" : [ "]" ]
                     } ]
                  } ]
               }
            } ],
            "expression" : {
               "localId" : "28",
               "locator" : "40:2-40:57",
               "dataType" : "{urn:healthit-gov:qdm:v5_3}PatientCharacteristicSex",
               "codeProperty" : "code",
               "type" : "Retrieve",
               "codes" : {
                  "name" : "ONC Administrative Sex",
                  "type" : "ValueSetRef"
               }
            }
         }, {
            "localId" : "36",
            "locator" : "49:1-51:34",
            "name" : "Pap Test with Results",
            "context" : "Patient",
            "accessLevel" : "Public",
            "annotation" : [ {
               "type" : "Annotation",
               "s" : {
                  "r" : "36",
                  "s" : [ {
                     "value" : [ "define ","\"Pap Test with Results\"",":\n\t" ]
                  }, {
                     "r" : "35",
                     "s" : [ {
                        "s" : [ {
                           "r" : "31",
                           "s" : [ {
                              "r" : "30",
                              "s" : [ {
                                 "r" : "30",
                                 "s" : [ {
                                    "value" : [ "[","\"Laboratory Test, Performed\"",": " ]
                                 }, {
                                    "s" : [ {
                                       "value" : [ "\"Pap Test\"" ]
                                    } ]
                                 }, {
                                    "value" : [ "]" ]
                                 } ]
                              } ]
                           }, {
                              "value" : [ " ","PapTest" ]
                           } ]
                        } ]
                     }, {
                        "value" : [ "\n\t\t" ]
                     }, {
                        "r" : "34",
                        "s" : [ {
                           "value" : [ "where " ]
                        }, {
                           "r" : "34",
                           "s" : [ {
                              "r" : "33",
                              "s" : [ {
                                 "r" : "32",
                                 "s" : [ {
                                    "value" : [ "PapTest" ]
                                 } ]
                              }, {
                                 "value" : [ "." ]
                              }, {
                                 "r" : "33",
                                 "s" : [ {
                                    "value" : [ "result" ]
                                 } ]
                              } ]
                           }, {
                              "value" : [ " is not null" ]
                           } ]
                        } ]
                     } ]
                  } ]
               }
            } ],
            "expression" : {
               "localId" : "35",
               "locator" : "50:2-51:34",
               "type" : "Query",
               "source" : [ {
                  "localId" : "31",
                  "locator" : "50:2-50:51",
                  "alias" : "PapTest",
                  "expression" : {
                     "localId" : "30",
                     "locator" : "50:2-50:43",
                     "dataType" : "{urn:healthit-gov:qdm:v5_3}PositiveLaboratoryTestPerformed",
                     "templateId" : "PositiveLaboratoryTestPerformed",
                     "codeProperty" : "code",
                     "type" : "Retrieve",
                     "codes" : {
                        "name" : "Pap Test",
                        "type" : "ValueSetRef"
                     }
                  }
               } ],
               "relationship" : [ ],
               "where" : {
                  "localId" : "34",
                  "locator" : "51:3-51:34",
                  "type" : "Not",
                  "operand" : {
                     "locator" : "51:9-51:34",
                     "type" : "IsNull",
                     "operand" : {
                        "localId" : "33",
                        "locator" : "51:9-51:22",
                        "path" : "result",
                        "scope" : "PapTest",
                        "type" : "Property"
                     }
                  }
               }
            }
         }, {
            "localId" : "46",
            "locator" : "53:1-55:81",
            "name" : "Pap Test Within 3 Years",
            "context" : "Patient",
            "accessLevel" : "Public",
            "annotation" : [ {
               "type" : "Annotation",
               "s" : {
                  "r" : "46",
                  "s" : [ {
                     "value" : [ "define ","\"Pap Test Within 3 Years\"",":\n\t" ]
                  }, {
                     "r" : "45",
                     "s" : [ {
                        "s" : [ {
                           "r" : "38",
                           "s" : [ {
                              "r" : "37",
                              "s" : [ {
                                 "s" : [ {
                                    "value" : [ "\"Pap Test with Results\"" ]
                                 } ]
                              } ]
                           }, {
                              "value" : [ " ","PapTest" ]
                           } ]
                        } ]
                     }, {
                        "value" : [ "\n\t\t" ]
                     }, {
                        "r" : "44",
                        "s" : [ {
                           "value" : [ "where " ]
                        }, {
                           "r" : "44",
                           "s" : [ {
                              "r" : "40",
                              "s" : [ {
                                 "r" : "39",
                                 "s" : [ {
                                    "value" : [ "PapTest" ]
                                 } ]
                              }, {
                                 "value" : [ "." ]
                              }, {
                                 "r" : "40",
                                 "s" : [ {
                                    "value" : [ "relevantPeriod" ]
                                 } ]
                              } ]
                           }, {
                              "value" : [ " " ]
                           }, {
                              "r" : "44",
                              "s" : [ {
                                 "r" : "43",
                                 "s" : [ {
                                    "value" : [ "3 ","years" ]
                                 } ]
                              }, {
                                 "value" : [ " or less before" ]
                              } ]
                           }, {
                              "value" : [ " " ]
                           }, {
                              "r" : "42",
                              "s" : [ {
                                 "value" : [ "end of " ]
                              }, {
                                 "r" : "41",
                                 "s" : [ {
                                    "value" : [ "\"Measurement Period\"" ]
                                 } ]
                              } ]
                           } ]
                        } ]
                     } ]
                  } ]
               }
            } ],
            "expression" : {
               "localId" : "45",
               "locator" : "54:2-55:81",
               "type" : "Query",
               "source" : [ {
                  "localId" : "38",
                  "locator" : "54:2-54:32",
                  "alias" : "PapTest",
                  "expression" : {
                     "localId" : "37",
                     "locator" : "54:2-54:24",
                     "name" : "Pap Test with Results",
                     "type" : "ExpressionRef"
                  }
               } ],
               "relationship" : [ ],
               "where" : {
                  "localId" : "44",
                  "locator" : "55:3-55:81",
                  "type" : "In",
                  "operand" : [ {
                     "locator" : "55:17-55:30",
                     "type" : "End",
                     "operand" : {
                        "localId" : "40",
                        "locator" : "55:9-55:30",
                        "path" : "relevantPeriod",
                        "scope" : "PapTest",
                        "type" : "Property"
                     }
                  }, {
                     "locator" : "55:32-55:46",
                     "lowClosed" : true,
                     "highClosed" : false,
                     "type" : "Interval",
                     "low" : {
                        "locator" : "55:55-55:81",
                        "type" : "Subtract",
                        "operand" : [ {
                           "localId" : "42",
                           "locator" : "55:55-55:81",
                           "type" : "End",
                           "operand" : {
                              "localId" : "41",
                              "locator" : "55:62-55:81",
                              "name" : "Measurement Period",
                              "type" : "ParameterRef"
                           }
                        }, {
                           "localId" : "43",
                           "locator" : "55:32-55:38",
                           "value" : 3,
                           "unit" : "years",
                           "type" : "Quantity"
                        } ]
                     },
                     "high" : {
                        "localId" : "42",
                        "locator" : "55:55-55:81",
                        "type" : "End",
                        "operand" : {
                           "localId" : "41",
                           "locator" : "55:62-55:81",
                           "name" : "Measurement Period",
                           "type" : "ParameterRef"
                        }
                     }
                  } ]
               }
            }
         }, {
            "localId" : "71",
            "locator" : "64:1-69:2",
            "name" : "PapTest Within 5 Years",
            "context" : "Patient",
            "accessLevel" : "Public",
            "annotation" : [ {
               "type" : "Annotation",
               "s" : {
                  "r" : "71",
                  "s" : [ {
                     "value" : [ "define ","\"PapTest Within 5 Years\"",":\n\t" ]
                  }, {
                     "r" : "70",
                     "s" : [ {
                        "value" : [ "( " ]
                     }, {
                        "r" : "70",
                        "s" : [ {
                           "s" : [ {
                              "r" : "50",
                              "s" : [ {
                                 "r" : "49",
                                 "s" : [ {
                                    "s" : [ {
                                       "value" : [ "\"Pap Test with Results\"" ]
                                    } ]
                                 } ]
                              }, {
                                 "value" : [ " ","PapTestOver30YearsOld" ]
                              } ]
                           } ]
                        }, {
                           "value" : [ "\n\t\t\t" ]
                        }, {
                           "r" : "69",
                           "s" : [ {
                              "value" : [ "with " ]
                           }, {
                              "r" : "52",
                              "s" : [ {
                                 "r" : "51",
                                 "s" : [ {
                                    "r" : "51",
                                    "s" : [ {
                                       "value" : [ "[","\"Patient Characteristic Birthdate\"","]" ]
                                    } ]
                                 } ]
                              }, {
                                 "value" : [ " ","BirthDate" ]
                              } ]
                           }, {
                              "value" : [ "\n\t\t\t\tsuch that " ]
                           }, {
                              "r" : "68",
                              "s" : [ {
                                 "r" : "61",
                                 "s" : [ {
                                    "r" : "59",
                                    "s" : [ {
                                       "r" : "53",
                                       "s" : [ {
                                          "value" : [ "Global" ]
                                       } ]
                                    }, {
                                       "value" : [ "." ]
                                    }, {
                                       "r" : "59",
                                       "s" : [ {
                                          "value" : [ "\"CalendarAgeInYearsAt\"","(" ]
                                       }, {
                                          "r" : "55",
                                          "s" : [ {
                                             "r" : "54",
                                             "s" : [ {
                                                "value" : [ "BirthDate" ]
                                             } ]
                                          }, {
                                             "value" : [ "." ]
                                          }, {
                                             "r" : "55",
                                             "s" : [ {
                                                "value" : [ "birthDatetime" ]
                                             } ]
                                          } ]
                                       }, {
                                          "value" : [ ", " ]
                                       }, {
                                          "r" : "58",
                                          "s" : [ {
                                             "value" : [ "start of " ]
                                          }, {
                                             "r" : "57",
                                             "s" : [ {
                                                "r" : "56",
                                                "s" : [ {
                                                   "value" : [ "PapTestOver30YearsOld" ]
                                                } ]
                                             }, {
                                                "value" : [ "." ]
                                             }, {
                                                "r" : "57",
                                                "s" : [ {
                                                   "value" : [ "relevantPeriod" ]
                                                } ]
                                             } ]
                                          } ]
                                       }, {
                                          "value" : [ ")" ]
                                       } ]
                                    } ]
                                 }, {
                                    "value" : [ ">="," ","30" ]
                                 } ]
                              }, {
                                 "value" : [ "\n\t\t\t\t\tand " ]
                              }, {
                                 "r" : "67",
                                 "s" : [ {
                                    "r" : "63",
                                    "s" : [ {
                                       "r" : "62",
                                       "s" : [ {
                                          "value" : [ "PapTestOver30YearsOld" ]
                                       } ]
                                    }, {
                                       "value" : [ "." ]
                                    }, {
                                       "r" : "63",
                                       "s" : [ {
                                          "value" : [ "relevantPeriod" ]
                                       } ]
                                    } ]
                                 }, {
                                    "value" : [ " " ]
                                 }, {
                                    "r" : "67",
                                    "s" : [ {
                                       "r" : "66",
                                       "s" : [ {
                                          "value" : [ "5 ","years" ]
                                       } ]
                                    }, {
                                       "value" : [ " or less before" ]
                                    } ]
                                 }, {
                                    "value" : [ " " ]
                                 }, {
                                    "r" : "65",
                                    "s" : [ {
                                       "value" : [ "end of " ]
                                    }, {
                                       "r" : "64",
                                       "s" : [ {
                                          "value" : [ "\"Measurement Period\"" ]
                                       } ]
                                    } ]
                                 } ]
                              } ]
                           } ]
                        } ]
                     }, {
                        "value" : [ "\n\t)" ]
                     } ]
                  } ]
               }
            } ],
            "expression" : {
               "localId" : "70",
               "locator" : "65:2-69:2",
               "type" : "Query",
               "source" : [ {
                  "localId" : "50",
                  "locator" : "65:4-65:48",
                  "alias" : "PapTestOver30YearsOld",
                  "expression" : {
                     "localId" : "49",
                     "locator" : "65:4-65:26",
                     "name" : "Pap Test with Results",
                     "type" : "ExpressionRef"
                  }
               } ],
               "relationship" : [ {
                  "localId" : "69",
                  "locator" : "66:4-68:96",
                  "alias" : "BirthDate",
                  "type" : "With",
                  "expression" : {
                     "localId" : "51",
                     "locator" : "66:9-66:44",
                     "dataType" : "{urn:healthit-gov:qdm:v5_3}PatientCharacteristicBirthdate",
                     "type" : "Retrieve"
                  },
                  "suchThat" : {
                     "localId" : "68",
                     "locator" : "67:15-68:96",
                     "type" : "And",
                     "operand" : [ {
                        "localId" : "61",
                        "locator" : "67:15-67:120",
                        "type" : "GreaterOrEqual",
                        "operand" : [ {
                           "localId" : "59",
                           "locator" : "67:15-67:115",
                           "name" : "CalendarAgeInYearsAt",
                           "libraryName" : "Global",
                           "type" : "FunctionRef",
                           "operand" : [ {
                              "localId" : "55",
                              "locator" : "67:45-67:67",
                              "path" : "birthDatetime",
                              "scope" : "BirthDate",
                              "type" : "Property"
                           }, {
                              "localId" : "58",
                              "locator" : "67:70-67:114",
                              "type" : "Start",
                              "operand" : {
                                 "localId" : "57",
                                 "locator" : "67:79-67:114",
                                 "path" : "relevantPeriod",
                                 "scope" : "PapTestOver30YearsOld",
                                 "type" : "Property"
                              }
                           } ]
                        }, {
                           "localId" : "60",
                           "locator" : "67:119-67:120",
                           "valueType" : "{urn:hl7-org:elm-types:r1}Integer",
                           "value" : "30",
                           "type" : "Literal"
                        } ]
                     }, {
                        "localId" : "67",
                        "locator" : "68:10-68:96",
                        "type" : "In",
                        "operand" : [ {
                           "locator" : "68:32-68:45",
                           "type" : "End",
                           "operand" : {
                              "localId" : "63",
                              "locator" : "68:10-68:45",
                              "path" : "relevantPeriod",
                              "scope" : "PapTestOver30YearsOld",
                              "type" : "Property"
                           }
                        }, {
                           "locator" : "68:47-68:61",
                           "lowClosed" : true,
                           "highClosed" : false,
                           "type" : "Interval",
                           "low" : {
                              "locator" : "68:70-68:96",
                              "type" : "Subtract",
                              "operand" : [ {
                                 "localId" : "65",
                                 "locator" : "68:70-68:96",
                                 "type" : "End",
                                 "operand" : {
                                    "localId" : "64",
                                    "locator" : "68:77-68:96",
                                    "name" : "Measurement Period",
                                    "type" : "ParameterRef"
                                 }
                              }, {
                                 "localId" : "66",
                                 "locator" : "68:47-68:53",
                                 "value" : 5,
                                 "unit" : "years",
                                 "type" : "Quantity"
                              } ]
                           },
                           "high" : {
                              "localId" : "65",
                              "locator" : "68:70-68:96",
                              "type" : "End",
                              "operand" : {
                                 "localId" : "64",
                                 "locator" : "68:77-68:96",
                                 "name" : "Measurement Period",
                                 "type" : "ParameterRef"
                              }
                           }
                        } ]
                     } ]
                  }
               } ]
            }
         }, {
            "localId" : "97",
            "locator" : "87:1-93:5",
            "name" : "Pap Test With HPV Within 5 Years",
            "context" : "Patient",
            "accessLevel" : "Public",
            "annotation" : [ {
               "type" : "Annotation",
               "s" : {
                  "r" : "97",
                  "s" : [ {
                     "value" : [ "define ","\"Pap Test With HPV Within 5 Years\"",":\n\t" ]
                  }, {
                     "r" : "96",
                     "s" : [ {
                        "s" : [ {
                           "r" : "73",
                           "s" : [ {
                              "r" : "72",
                              "s" : [ {
                                 "s" : [ {
                                    "value" : [ "\"PapTest Within 5 Years\"" ]
                                 } ]
                              } ]
                           }, {
                              "value" : [ " ","PapTestOver30YearsOld" ]
                           } ]
                        } ]
                     }, {
                        "value" : [ "\n\t\t" ]
                     }, {
                        "r" : "95",
                        "s" : [ {
                           "value" : [ "with " ]
                        }, {
                           "r" : "75",
                           "s" : [ {
                              "r" : "74",
                              "s" : [ {
                                 "r" : "74",
                                 "s" : [ {
                                    "value" : [ "[","\"Laboratory Test, Performed\"",": " ]
                                 }, {
                                    "s" : [ {
                                       "value" : [ "\"HPV Test\"" ]
                                    } ]
                                 }, {
                                    "value" : [ "]" ]
                                 } ]
                              } ]
                           }, {
                              "value" : [ " ","HPVTest" ]
                           } ]
                        }, {
                           "value" : [ "\n\t\t\tsuch that " ]
                        }, {
                           "r" : "94",
                           "s" : [ {
                              "r" : "78",
                              "s" : [ {
                                 "r" : "77",
                                 "s" : [ {
                                    "r" : "76",
                                    "s" : [ {
                                       "value" : [ "HPVTest" ]
                                    } ]
                                 }, {
                                    "value" : [ "." ]
                                 }, {
                                    "r" : "77",
                                    "s" : [ {
                                       "value" : [ "result" ]
                                    } ]
                                 } ]
                              }, {
                                 "value" : [ " is not null" ]
                              } ]
                           }, {
                              "value" : [ "\n\t\t\t\tand " ]
                           }, {
                              "r" : "93",
                              "s" : [ {
                                 "value" : [ "( " ]
                              }, {
                                 "r" : "93",
                                 "s" : [ {
                                    "r" : "85",
                                    "s" : [ {
                                       "r" : "80",
                                       "s" : [ {
                                          "r" : "79",
                                          "s" : [ {
                                             "value" : [ "HPVTest" ]
                                          } ]
                                       }, {
                                          "value" : [ "." ]
                                       }, {
                                          "r" : "80",
                                          "s" : [ {
                                             "value" : [ "relevantPeriod" ]
                                          } ]
                                       } ]
                                    }, {
                                       "value" : [ " " ]
                                    }, {
                                       "r" : "85",
                                       "s" : [ {
                                          "value" : [ "starts " ]
                                       }, {
                                          "r" : "84",
                                          "s" : [ {
                                             "value" : [ "1 ","day" ]
                                          } ]
                                       }, {
                                          "value" : [ " or less before or on day of" ]
                                       } ]
                                    }, {
                                       "value" : [ " " ]
                                    }, {
                                       "r" : "83",
                                       "s" : [ {
                                          "value" : [ "start of " ]
                                       }, {
                                          "r" : "82",
                                          "s" : [ {
                                             "r" : "81",
                                             "s" : [ {
                                                "value" : [ "PapTestOver30YearsOld" ]
                                             } ]
                                          }, {
                                             "value" : [ "." ]
                                          }, {
                                             "r" : "82",
                                             "s" : [ {
                                                "value" : [ "relevantPeriod" ]
                                             } ]
                                          } ]
                                       } ]
                                    } ]
                                 }, {
                                    "value" : [ "\n\t\t\t\t\t\tor " ]
                                 }, {
                                    "r" : "92",
                                    "s" : [ {
                                       "r" : "87",
                                       "s" : [ {
                                          "r" : "86",
                                          "s" : [ {
                                             "value" : [ "HPVTest" ]
                                          } ]
                                       }, {
                                          "value" : [ "." ]
                                       }, {
                                          "r" : "87",
                                          "s" : [ {
                                             "value" : [ "relevantPeriod" ]
                                          } ]
                                       } ]
                                    }, {
                                       "value" : [ " " ]
                                    }, {
                                       "r" : "92",
                                       "s" : [ {
                                          "value" : [ "starts less than " ]
                                       }, {
                                          "r" : "91",
                                          "s" : [ {
                                             "value" : [ "1 ","day" ]
                                          } ]
                                       }, {
                                          "value" : [ " after or on day of" ]
                                       } ]
                                    }, {
                                       "value" : [ " " ]
                                    }, {
                                       "r" : "90",
                                       "s" : [ {
                                          "value" : [ "start of " ]
                                       }, {
                                          "r" : "89",
                                          "s" : [ {
                                             "r" : "88",
                                             "s" : [ {
                                                "value" : [ "PapTestOver30YearsOld" ]
                                             } ]
                                          }, {
                                             "value" : [ "." ]
                                          }, {
                                             "r" : "89",
                                             "s" : [ {
                                                "value" : [ "relevantPeriod" ]
                                             } ]
                                          } ]
                                       } ]
                                    } ]
                                 } ]
                              }, {
                                 "value" : [ "\n\t\t\t\t)" ]
                              } ]
                           } ]
                        } ]
                     } ]
                  } ]
               }
            } ],
            "expression" : {
               "localId" : "96",
               "locator" : "88:2-93:5",
               "type" : "Query",
               "source" : [ {
                  "localId" : "73",
                  "locator" : "88:2-88:47",
                  "alias" : "PapTestOver30YearsOld",
                  "expression" : {
                     "localId" : "72",
                     "locator" : "88:2-88:25",
                     "name" : "PapTest Within 5 Years",
                     "type" : "ExpressionRef"
                  }
               } ],
               "relationship" : [ {
                  "localId" : "95",
                  "locator" : "89:3-93:5",
                  "alias" : "HPVTest",
                  "type" : "With",
                  "expression" : {
                     "localId" : "74",
                     "locator" : "89:8-89:49",
                     "dataType" : "{urn:healthit-gov:qdm:v5_3}PositiveLaboratoryTestPerformed",
                     "templateId" : "PositiveLaboratoryTestPerformed",
                     "codeProperty" : "code",
                     "type" : "Retrieve",
                     "codes" : {
                        "name" : "HPV Test",
                        "type" : "ValueSetRef"
                     }
                  },
                  "suchThat" : {
                     "localId" : "94",
                     "locator" : "90:14-93:5",
                     "type" : "And",
                     "operand" : [ {
                        "localId" : "78",
                        "locator" : "90:14-90:39",
                        "type" : "Not",
                        "operand" : {
                           "locator" : "90:14-90:39",
                           "type" : "IsNull",
                           "operand" : {
                              "localId" : "77",
                              "locator" : "90:14-90:27",
                              "path" : "result",
                              "scope" : "HPVTest",
                              "type" : "Property"
                           }
                        }
                     }, {
                        "localId" : "93",
                        "locator" : "91:9-93:5",
                        "type" : "Or",
                        "operand" : [ {
                           "localId" : "85",
                           "locator" : "91:11-91:119",
                           "precision" : "Day",
                           "type" : "In",
                           "operand" : [ {
                              "locator" : "91:34-91:39",
                              "type" : "Start",
                              "operand" : {
                                 "localId" : "80",
                                 "locator" : "91:11-91:32",
                                 "path" : "relevantPeriod",
                                 "scope" : "HPVTest",
                                 "type" : "Property"
                              }
                           }, {
                              "locator" : "91:41-91:53",
                              "lowClosed" : true,
                              "highClosed" : true,
                              "type" : "Interval",
                              "low" : {
                                 "locator" : "91:75-91:119",
                                 "type" : "Subtract",
                                 "operand" : [ {
                                    "localId" : "83",
                                    "locator" : "91:75-91:119",
                                    "type" : "Start",
                                    "operand" : {
                                       "localId" : "82",
                                       "locator" : "91:84-91:119",
                                       "path" : "relevantPeriod",
                                       "scope" : "PapTestOver30YearsOld",
                                       "type" : "Property"
                                    }
                                 }, {
                                    "localId" : "84",
                                    "locator" : "91:41-91:45",
                                    "value" : 1,
                                    "unit" : "day",
                                    "type" : "Quantity"
                                 } ]
                              },
                              "high" : {
                                 "localId" : "83",
                                 "locator" : "91:75-91:119",
                                 "type" : "Start",
                                 "operand" : {
                                    "localId" : "82",
                                    "locator" : "91:84-91:119",
                                    "path" : "relevantPeriod",
                                    "scope" : "PapTestOver30YearsOld",
                                    "type" : "Property"
                                 }
                              }
                           } ]
                        }, {
                           "localId" : "92",
                           "locator" : "92:10-92:119",
                           "precision" : "Day",
                           "type" : "In",
                           "operand" : [ {
                              "locator" : "92:33-92:38",
                              "type" : "Start",
                              "operand" : {
                                 "localId" : "87",
                                 "locator" : "92:10-92:31",
                                 "path" : "relevantPeriod",
                                 "scope" : "HPVTest",
                                 "type" : "Property"
                              }
                           }, {
                              "locator" : "92:40-92:54",
                              "lowClosed" : true,
                              "highClosed" : false,
                              "type" : "Interval",
                              "low" : {
                                 "localId" : "90",
                                 "locator" : "92:75-92:119",
                                 "type" : "Start",
                                 "operand" : {
                                    "localId" : "89",
                                    "locator" : "92:84-92:119",
                                    "path" : "relevantPeriod",
                                    "scope" : "PapTestOver30YearsOld",
                                    "type" : "Property"
                                 }
                              },
                              "high" : {
                                 "locator" : "92:75-92:119",
                                 "type" : "Add",
                                 "operand" : [ {
                                    "localId" : "90",
                                    "locator" : "92:75-92:119",
                                    "type" : "Start",
                                    "operand" : {
                                       "localId" : "89",
                                       "locator" : "92:84-92:119",
                                       "path" : "relevantPeriod",
                                       "scope" : "PapTestOver30YearsOld",
                                       "type" : "Property"
                                    }
                                 }, {
                                    "localId" : "91",
                                    "locator" : "92:50-92:54",
                                    "value" : 1,
                                    "unit" : "day",
                                    "type" : "Quantity"
                                 } ]
                              }
                           } ]
                        } ]
                     } ]
                  }
               } ]
            }
         }, {
            "localId" : "101",
            "locator" : "42:1-44:46",
            "name" : "Numerator",
            "context" : "Patient",
            "accessLevel" : "Public",
            "annotation" : [ {
               "type" : "Annotation",
               "s" : {
                  "r" : "101",
                  "s" : [ {
                     "value" : [ "define ","\"Numerator\"",":\n\t" ]
                  }, {
                     "r" : "100",
                     "s" : [ {
                        "r" : "48",
                        "s" : [ {
                           "value" : [ "exists " ]
                        }, {
                           "r" : "47",
                           "s" : [ {
                              "value" : [ "\"Pap Test Within 3 Years\"" ]
                           } ]
                        } ]
                     }, {
                        "value" : [ "\n\t\tor " ]
                     }, {
                        "r" : "99",
                        "s" : [ {
                           "value" : [ "exists " ]
                        }, {
                           "r" : "98",
                           "s" : [ {
                              "value" : [ "\"Pap Test With HPV Within 5 Years\"" ]
                           } ]
                        } ]
                     } ]
                  } ]
               }
            } ],
            "expression" : {
               "localId" : "100",
               "locator" : "43:2-44:46",
               "type" : "Or",
               "operand" : [ {
                  "localId" : "48",
                  "locator" : "43:2-43:33",
                  "type" : "Exists",
                  "operand" : {
                     "localId" : "47",
                     "locator" : "43:9-43:33",
                     "name" : "Pap Test Within 3 Years",
                     "type" : "ExpressionRef"
                  }
               }, {
                  "localId" : "99",
                  "locator" : "44:6-44:46",
                  "type" : "Exists",
                  "operand" : {
                     "localId" : "98",
                     "locator" : "44:13-44:46",
                     "name" : "Pap Test With HPV Within 5 Years",
                     "type" : "ExpressionRef"
                  }
               } ]
            }
         }, {
            "localId" : "139",
            "locator" : "57:1-62:65",
            "name" : "Qualifying Encounters",
            "context" : "Patient",
            "accessLevel" : "Public",
            "annotation" : [ {
               "type" : "Annotation",
               "s" : {
                  "r" : "139",
                  "s" : [ {
                     "value" : [ "define ","\"Qualifying Encounters\"",":\n\t" ]
                  }, {
                     "r" : "138",
                     "s" : [ {
                        "s" : [ {
                           "r" : "133",
                           "s" : [ {
                              "r" : "132",
                              "s" : [ {
                                 "value" : [ "( " ]
                              }, {
                                 "r" : "132",
                                 "s" : [ {
                                    "r" : "130",
                                    "s" : [ {
                                       "r" : "128",
                                       "s" : [ {
                                          "r" : "126",
                                          "s" : [ {
                                             "value" : [ "[","\"Encounter, Performed\"",": " ]
                                          }, {
                                             "s" : [ {
                                                "value" : [ "\"Office Visit\"" ]
                                             } ]
                                          }, {
                                             "value" : [ "]" ]
                                          } ]
                                       }, {
                                          "value" : [ "\n\t\tunion " ]
                                       }, {
                                          "r" : "127",
                                          "s" : [ {
                                             "value" : [ "[","\"Encounter, Performed\"",": " ]
                                          }, {
                                             "s" : [ {
                                                "value" : [ "\"Preventive Care Services - Established Office Visit, 18 and Up\"" ]
                                             } ]
                                          }, {
                                             "value" : [ "]" ]
                                          } ]
                                       } ]
                                    }, {
                                       "value" : [ "\n\t\tunion " ]
                                    }, {
                                       "r" : "129",
                                       "s" : [ {
                                          "value" : [ "[","\"Encounter, Performed\"",": " ]
                                       }, {
                                          "s" : [ {
                                             "value" : [ "\"Preventive Care Services-Initial Office Visit, 18 and Up\"" ]
                                          } ]
                                       }, {
                                          "value" : [ "]" ]
                                       } ]
                                    } ]
                                 }, {
                                    "value" : [ "\n\t\tunion " ]
                                 }, {
                                    "r" : "131",
                                    "s" : [ {
                                       "value" : [ "[","\"Encounter, Performed\"",": " ]
                                    }, {
                                       "s" : [ {
                                          "value" : [ "\"Home Healthcare Services\"" ]
                                       } ]
                                    }, {
                                       "value" : [ "]" ]
                                    } ]
                                 } ]
                              }, {
                                 "value" : [ " )" ]
                              } ]
                           }, {
                              "value" : [ " ","ValidEncounter" ]
                           } ]
                        } ]
                     }, {
                        "value" : [ "\n\t\t" ]
                     }, {
                        "r" : "137",
                        "s" : [ {
                           "value" : [ "where " ]
                        }, {
                           "r" : "137",
                           "s" : [ {
                              "r" : "135",
                              "s" : [ {
                                 "r" : "134",
                                 "s" : [ {
                                    "value" : [ "ValidEncounter" ]
                                 } ]
                              }, {
                                 "value" : [ "." ]
                              }, {
                                 "r" : "135",
                                 "s" : [ {
                                    "value" : [ "relevantPeriod" ]
                                 } ]
                              } ]
                           }, {
                              "value" : [ " ","during"," " ]
                           }, {
                              "r" : "136",
                              "s" : [ {
                                 "value" : [ "\"Measurement Period\"" ]
                              } ]
                           } ]
                        } ]
                     } ]
                  } ]
               }
            } ],
            "expression" : {
               "localId" : "138",
               "locator" : "58:2-62:65",
               "type" : "Query",
               "source" : [ {
                  "localId" : "133",
                  "locator" : "58:2-61:77",
                  "alias" : "ValidEncounter",
                  "expression" : {
                     "localId" : "132",
                     "locator" : "58:2-61:62",
                     "type" : "Union",
                     "operand" : [ {
                        "localId" : "130",
                        "locator" : "58:4-60:92",
                        "type" : "Union",
                        "operand" : [ {
                           "localId" : "128",
                           "locator" : "58:4-59:98",
                           "type" : "Union",
                           "operand" : [ {
                              "localId" : "126",
                              "locator" : "58:4-58:43",
                              "dataType" : "{urn:healthit-gov:qdm:v5_3}PositiveEncounterPerformed",
                              "templateId" : "PositiveEncounterPerformed",
                              "codeProperty" : "code",
                              "type" : "Retrieve",
                              "codes" : {
                                 "name" : "Office Visit",
                                 "type" : "ValueSetRef"
                              }
                           }, {
                              "localId" : "127",
                              "locator" : "59:9-59:98",
                              "dataType" : "{urn:healthit-gov:qdm:v5_3}PositiveEncounterPerformed",
                              "templateId" : "PositiveEncounterPerformed",
                              "codeProperty" : "code",
                              "type" : "Retrieve",
                              "codes" : {
                                 "name" : "Preventive Care Services - Established Office Visit, 18 and Up",
                                 "type" : "ValueSetRef"
                              }
                           } ]
                        }, {
                           "localId" : "129",
                           "locator" : "60:9-60:92",
                           "dataType" : "{urn:healthit-gov:qdm:v5_3}PositiveEncounterPerformed",
                           "templateId" : "PositiveEncounterPerformed",
                           "codeProperty" : "code",
                           "type" : "Retrieve",
                           "codes" : {
                              "name" : "Preventive Care Services-Initial Office Visit, 18 and Up",
                              "type" : "ValueSetRef"
                           }
                        } ]
                     }, {
                        "localId" : "131",
                        "locator" : "61:9-61:60",
                        "dataType" : "{urn:healthit-gov:qdm:v5_3}PositiveEncounterPerformed",
                        "templateId" : "PositiveEncounterPerformed",
                        "codeProperty" : "code",
                        "type" : "Retrieve",
                        "codes" : {
                           "name" : "Home Healthcare Services",
                           "type" : "ValueSetRef"
                        }
                     } ]
                  }
               } ],
               "relationship" : [ ],
               "where" : {
                  "localId" : "137",
                  "locator" : "62:3-62:65",
                  "type" : "IncludedIn",
                  "operand" : [ {
                     "localId" : "135",
                     "locator" : "62:9-62:37",
                     "path" : "relevantPeriod",
                     "scope" : "ValidEncounter",
                     "type" : "Property"
                  }, {
                     "localId" : "136",
                     "locator" : "62:46-62:65",
                     "name" : "Measurement Period",
                     "type" : "ParameterRef"
                  } ]
               }
            }
         }, {
            "localId" : "143",
            "locator" : "79:1-85:36",
            "name" : "Initial Population",
            "context" : "Patient",
            "accessLevel" : "Public",
            "annotation" : [ {
               "type" : "Annotation",
               "s" : {
                  "r" : "143",
                  "s" : [ {
                     "value" : [ "define ","\"Initial Population\"",":\n\t" ]
                  }, {
                     "r" : "142",
                     "s" : [ {
                        "r" : "125",
                        "s" : [ {
                           "r" : "122",
                           "s" : [ {
                              "value" : [ "exists " ]
                           }, {
                              "r" : "121",
                              "s" : [ {
                                 "value" : [ "( " ]
                              }, {
                                 "r" : "121",
                                 "s" : [ {
                                    "s" : [ {
                                       "r" : "103",
                                       "s" : [ {
                                          "r" : "102",
                                          "s" : [ {
                                             "r" : "102",
                                             "s" : [ {
                                                "value" : [ "[","\"Patient Characteristic Birthdate\"","]" ]
                                             } ]
                                          } ]
                                       }, {
                                          "value" : [ " ","BirthDate" ]
                                       } ]
                                    } ]
                                 }, {
                                    "value" : [ "\n\t\t\t" ]
                                 }, {
                                    "r" : "120",
                                    "s" : [ {
                                       "value" : [ "where " ]
                                    }, {
                                       "r" : "120",
                                       "s" : [ {
                                          "r" : "111",
                                          "s" : [ {
                                             "r" : "109",
                                             "s" : [ {
                                                "r" : "104",
                                                "s" : [ {
                                                   "value" : [ "Global" ]
                                                } ]
                                             }, {
                                                "value" : [ "." ]
                                             }, {
                                                "r" : "109",
                                                "s" : [ {
                                                   "value" : [ "\"CalendarAgeInYearsAt\"","(" ]
                                                }, {
                                                   "r" : "106",
                                                   "s" : [ {
                                                      "r" : "105",
                                                      "s" : [ {
                                                         "value" : [ "BirthDate" ]
                                                      } ]
                                                   }, {
                                                      "value" : [ "." ]
                                                   }, {
                                                      "r" : "106",
                                                      "s" : [ {
                                                         "value" : [ "birthDatetime" ]
                                                      } ]
                                                   } ]
                                                }, {
                                                   "value" : [ ", " ]
                                                }, {
                                                   "r" : "108",
                                                   "s" : [ {
                                                      "value" : [ "start of " ]
                                                   }, {
                                                      "r" : "107",
                                                      "s" : [ {
                                                         "value" : [ "\"Measurement Period\"" ]
                                                      } ]
                                                   } ]
                                                }, {
                                                   "value" : [ ")" ]
                                                } ]
                                             } ]
                                          }, {
                                             "value" : [ ">="," ","23" ]
                                          } ]
                                       }, {
                                          "value" : [ "\n\t\t\t\tand " ]
                                       }, {
                                          "r" : "119",
                                          "s" : [ {
                                             "r" : "117",
                                             "s" : [ {
                                                "r" : "112",
                                                "s" : [ {
                                                   "value" : [ "Global" ]
                                                } ]
                                             }, {
                                                "value" : [ "." ]
                                             }, {
                                                "r" : "117",
                                                "s" : [ {
                                                   "value" : [ "\"CalendarAgeInYearsAt\"","(" ]
                                                }, {
                                                   "r" : "114",
                                                   "s" : [ {
                                                      "r" : "113",
                                                      "s" : [ {
                                                         "value" : [ "BirthDate" ]
                                                      } ]
                                                   }, {
                                                      "value" : [ "." ]
                                                   }, {
                                                      "r" : "114",
                                                      "s" : [ {
                                                         "value" : [ "birthDatetime" ]
                                                      } ]
                                                   } ]
                                                }, {
                                                   "value" : [ ", " ]
                                                }, {
                                                   "r" : "116",
                                                   "s" : [ {
                                                      "value" : [ "start of " ]
                                                   }, {
                                                      "r" : "115",
                                                      "s" : [ {
                                                         "value" : [ "\"Measurement Period\"" ]
                                                      } ]
                                                   } ]
                                                }, {
                                                   "value" : [ ")" ]
                                                } ]
                                             } ]
                                          }, {
                                             "value" : [ "<="," ","64" ]
                                          } ]
                                       } ]
                                    } ]
                                 } ]
                              }, {
                                 "value" : [ "\n\t)" ]
                              } ]
                           } ]
                        }, {
                           "value" : [ "\n\t\tand " ]
                        }, {
                           "r" : "124",
                           "s" : [ {
                              "value" : [ "exists " ]
                           }, {
                              "r" : "123",
                              "s" : [ {
                                 "value" : [ "( " ]
                              }, {
                                 "r" : "123",
                                 "s" : [ {
                                    "value" : [ "[","\"Patient Characteristic Sex\"",": " ]
                                 }, {
                                    "s" : [ {
                                       "value" : [ "\"Female\"" ]
                                    } ]
                                 }, {
                                    "value" : [ "]" ]
                                 } ]
                              }, {
                                 "value" : [ " )" ]
                              } ]
                           } ]
                        } ]
                     }, {
                        "value" : [ "\n\t\tand " ]
                     }, {
                        "r" : "141",
                        "s" : [ {
                           "value" : [ "exists " ]
                        }, {
                           "r" : "140",
                           "s" : [ {
                              "value" : [ "\"Qualifying Encounters\"" ]
                           } ]
                        } ]
                     } ]
                  } ]
               }
            } ],
            "expression" : {
               "localId" : "142",
               "locator" : "80:2-85:36",
               "type" : "And",
               "operand" : [ {
                  "localId" : "125",
                  "locator" : "80:2-84:57",
                  "type" : "And",
                  "operand" : [ {
                     "localId" : "122",
                     "locator" : "80:2-83:2",
                     "type" : "Exists",
                     "operand" : {
                        "localId" : "121",
                        "locator" : "80:9-83:2",
                        "type" : "Query",
                        "source" : [ {
                           "localId" : "103",
                           "locator" : "80:11-80:56",
                           "alias" : "BirthDate",
                           "expression" : {
                              "localId" : "102",
                              "locator" : "80:11-80:46",
                              "dataType" : "{urn:healthit-gov:qdm:v5_3}PatientCharacteristicBirthdate",
                              "type" : "Retrieve"
                           }
                        } ],
                        "relationship" : [ ],
                        "where" : {
                           "localId" : "120",
                           "locator" : "81:4-82:98",
                           "type" : "And",
                           "operand" : [ {
                              "localId" : "111",
                              "locator" : "81:10-81:99",
                              "type" : "GreaterOrEqual",
                              "operand" : [ {
                                 "localId" : "109",
                                 "locator" : "81:10-81:94",
                                 "name" : "CalendarAgeInYearsAt",
                                 "libraryName" : "Global",
                                 "type" : "FunctionRef",
                                 "operand" : [ {
                                    "localId" : "106",
                                    "locator" : "81:40-81:62",
                                    "path" : "birthDatetime",
                                    "scope" : "BirthDate",
                                    "type" : "Property"
                                 }, {
                                    "localId" : "108",
                                    "locator" : "81:65-81:93",
                                    "type" : "Start",
                                    "operand" : {
                                       "localId" : "107",
                                       "locator" : "81:74-81:93",
                                       "name" : "Measurement Period",
                                       "type" : "ParameterRef"
                                    }
                                 } ]
                              }, {
                                 "localId" : "110",
                                 "locator" : "81:98-81:99",
                                 "valueType" : "{urn:hl7-org:elm-types:r1}Integer",
                                 "value" : "23",
                                 "type" : "Literal"
                              } ]
                           }, {
                              "localId" : "119",
                              "locator" : "82:9-82:98",
                              "type" : "LessOrEqual",
                              "operand" : [ {
                                 "localId" : "117",
                                 "locator" : "82:9-82:93",
                                 "name" : "CalendarAgeInYearsAt",
                                 "libraryName" : "Global",
                                 "type" : "FunctionRef",
                                 "operand" : [ {
                                    "localId" : "114",
                                    "locator" : "82:39-82:61",
                                    "path" : "birthDatetime",
                                    "scope" : "BirthDate",
                                    "type" : "Property"
                                 }, {
                                    "localId" : "116",
                                    "locator" : "82:64-82:92",
                                    "type" : "Start",
                                    "operand" : {
                                       "localId" : "115",
                                       "locator" : "82:73-82:92",
                                       "name" : "Measurement Period",
                                       "type" : "ParameterRef"
                                    }
                                 } ]
                              }, {
                                 "localId" : "118",
                                 "locator" : "82:97-82:98",
                                 "valueType" : "{urn:hl7-org:elm-types:r1}Integer",
                                 "value" : "64",
                                 "type" : "Literal"
                              } ]
                           } ]
                        }
                     }
                  }, {
                     "localId" : "124",
                     "locator" : "84:7-84:57",
                     "type" : "Exists",
                     "operand" : {
                        "localId" : "123",
                        "locator" : "84:14-84:57",
                        "dataType" : "{urn:healthit-gov:qdm:v5_3}PatientCharacteristicSex",
                        "codeProperty" : "code",
                        "type" : "Retrieve",
                        "codes" : {
                           "name" : "Female",
                           "type" : "ValueSetRef"
                        }
                     }
                  } ]
               }, {
                  "localId" : "141",
                  "locator" : "85:7-85:36",
                  "type" : "Exists",
                  "operand" : {
                     "localId" : "140",
                     "locator" : "85:14-85:36",
                     "name" : "Qualifying Encounters",
                     "type" : "ExpressionRef"
                  }
               } ]
            }
         }, {
            "localId" : "145",
            "locator" : "46:1-47:21",
            "name" : "Denominator",
            "context" : "Patient",
            "accessLevel" : "Public",
            "annotation" : [ {
               "type" : "Annotation",
               "s" : {
                  "r" : "145",
                  "s" : [ {
                     "value" : [ "define ","\"Denominator\"",":\n\t" ]
                  }, {
                     "r" : "144",
                     "s" : [ {
                        "value" : [ "\"Initial Population\"" ]
                     } ]
                  } ]
               }
            } ],
            "expression" : {
               "localId" : "144",
               "locator" : "47:2-47:21",
               "name" : "Initial Population",
               "type" : "ExpressionRef"
            }
         }, {
            "localId" : "153",
            "locator" : "71:1-73:72",
            "name" : "Absence of Cervix",
            "context" : "Patient",
            "accessLevel" : "Public",
            "annotation" : [ {
               "type" : "Annotation",
               "s" : {
                  "r" : "153",
                  "s" : [ {
                     "value" : [ "define ","\"Absence of Cervix\"",":\n\t" ]
                  }, {
                     "r" : "152",
                     "s" : [ {
                        "s" : [ {
                           "r" : "147",
                           "s" : [ {
                              "r" : "146",
                              "s" : [ {
                                 "r" : "146",
                                 "s" : [ {
                                    "value" : [ "[","\"Diagnosis\"",": " ]
                                 }, {
                                    "s" : [ {
                                       "value" : [ "\"Congenital absence of cervix (disorder)\"" ]
                                    } ]
                                 }, {
                                    "value" : [ "]" ]
                                 } ]
                              } ]
                           }, {
                              "value" : [ " ","NoCervix" ]
                           } ]
                        } ]
                     }, {
                        "value" : [ "\n\t\t" ]
                     }, {
                        "r" : "151",
                        "s" : [ {
                           "value" : [ "where " ]
                        }, {
                           "r" : "151",
                           "s" : [ {
                              "r" : "149",
                              "s" : [ {
                                 "r" : "148",
                                 "s" : [ {
                                    "value" : [ "NoCervix" ]
                                 } ]
                              }, {
                                 "value" : [ "." ]
                              }, {
                                 "r" : "149",
                                 "s" : [ {
                                    "value" : [ "prevalencePeriod" ]
                                 } ]
                              } ]
                           }, {
                              "value" : [ " ","starts before end"," " ]
                           }, {
                              "r" : "150",
                              "s" : [ {
                                 "value" : [ "\"Measurement Period\"" ]
                              } ]
                           } ]
                        } ]
                     } ]
                  } ]
               }
            } ],
            "expression" : {
               "localId" : "152",
               "locator" : "72:2-73:72",
               "type" : "Query",
               "source" : [ {
                  "localId" : "147",
                  "locator" : "72:2-72:66",
                  "alias" : "NoCervix",
                  "expression" : {
                     "localId" : "146",
                     "locator" : "72:2-72:57",
                     "dataType" : "{urn:healthit-gov:qdm:v5_3}Diagnosis",
                     "codeProperty" : "code",
                     "type" : "Retrieve",
                     "codes" : {
                        "type" : "ToList",
                        "operand" : {
                           "name" : "Congenital absence of cervix (disorder)",
                           "type" : "CodeRef"
                        }
                     }
                  }
               } ],
               "relationship" : [ ],
               "where" : {
                  "localId" : "151",
                  "locator" : "73:3-73:72",
                  "type" : "Before",
                  "operand" : [ {
                     "locator" : "73:35-73:40",
                     "type" : "Start",
                     "operand" : {
                        "localId" : "149",
                        "locator" : "73:9-73:33",
                        "path" : "prevalencePeriod",
                        "scope" : "NoCervix",
                        "type" : "Property"
                     }
                  }, {
                     "locator" : "73:49-73:51",
                     "type" : "End",
                     "operand" : {
                        "localId" : "150",
                        "locator" : "73:53-73:72",
                        "name" : "Measurement Period",
                        "type" : "ParameterRef"
                     }
                  } ]
               }
            }
         }, {
            "localId" : "161",
            "locator" : "75:1-77:72",
            "name" : "Surgical Absence of Cervix",
            "context" : "Patient",
            "accessLevel" : "Public",
            "annotation" : [ {
               "type" : "Annotation",
               "s" : {
                  "r" : "161",
                  "s" : [ {
                     "value" : [ "define ","\"Surgical Absence of Cervix\"",":\n\t" ]
                  }, {
                     "r" : "160",
                     "s" : [ {
                        "s" : [ {
                           "r" : "155",
                           "s" : [ {
                              "r" : "154",
                              "s" : [ {
                                 "r" : "154",
                                 "s" : [ {
                                    "value" : [ "[","\"Procedure, Performed\"",": " ]
                                 }, {
                                    "s" : [ {
                                       "value" : [ "\"Hysterectomy with No Residual Cervix\"" ]
                                    } ]
                                 }, {
                                    "value" : [ "]" ]
                                 } ]
                              } ]
                           }, {
                              "value" : [ " ","Hysterectomy" ]
                           } ]
                        } ]
                     }, {
                        "value" : [ "\n\t\t" ]
                     }, {
                        "r" : "159",
                        "s" : [ {
                           "value" : [ "where " ]
                        }, {
                           "r" : "159",
                           "s" : [ {
                              "r" : "157",
                              "s" : [ {
                                 "r" : "156",
                                 "s" : [ {
                                    "value" : [ "Hysterectomy" ]
                                 } ]
                              }, {
                                 "value" : [ "." ]
                              }, {
                                 "r" : "157",
                                 "s" : [ {
                                    "value" : [ "relevantPeriod" ]
                                 } ]
                              } ]
                           }, {
                              "value" : [ " ","ends before end"," " ]
                           }, {
                              "r" : "158",
                              "s" : [ {
                                 "value" : [ "\"Measurement Period\"" ]
                              } ]
                           } ]
                        } ]
                     } ]
                  } ]
               }
            } ],
            "expression" : {
               "localId" : "160",
               "locator" : "76:2-77:72",
               "type" : "Query",
               "source" : [ {
                  "localId" : "155",
                  "locator" : "76:2-76:78",
                  "alias" : "Hysterectomy",
                  "expression" : {
                     "localId" : "154",
                     "locator" : "76:2-76:65",
                     "dataType" : "{urn:healthit-gov:qdm:v5_3}PositiveProcedurePerformed",
                     "templateId" : "PositiveProcedurePerformed",
                     "codeProperty" : "code",
                     "type" : "Retrieve",
                     "codes" : {
                        "name" : "Hysterectomy with No Residual Cervix",
                        "type" : "ValueSetRef"
                     }
                  }
               } ],
               "relationship" : [ ],
               "where" : {
                  "localId" : "159",
                  "locator" : "77:3-77:72",
                  "type" : "Before",
                  "operand" : [ {
                     "locator" : "77:37-77:40",
                     "type" : "End",
                     "operand" : {
                        "localId" : "157",
                        "locator" : "77:9-77:35",
                        "path" : "relevantPeriod",
                        "scope" : "Hysterectomy",
                        "type" : "Property"
                     }
                  }, {
                     "locator" : "77:49-77:51",
                     "type" : "End",
                     "operand" : {
                        "localId" : "158",
                        "locator" : "77:53-77:72",
                        "name" : "Measurement Period",
                        "type" : "ParameterRef"
                     }
                  } ]
               }
            }
         }, {
            "localId" : "170",
            "locator" : "95:1-98:31",
            "name" : "Denominator Exclusions",
            "context" : "Patient",
            "accessLevel" : "Public",
            "annotation" : [ {
               "type" : "Annotation",
               "s" : {
                  "r" : "170",
                  "s" : [ {
                     "value" : [ "define ","\"Denominator Exclusions\"",":\n\t" ]
                  }, {
                     "r" : "169",
                     "s" : [ {
                        "r" : "166",
                        "s" : [ {
                           "r" : "163",
                           "s" : [ {
                              "r" : "162",
                              "s" : [ {
                                 "value" : [ "Hospice" ]
                              } ]
                           }, {
                              "value" : [ "." ]
                           }, {
                              "r" : "163",
                              "s" : [ {
                                 "value" : [ "\"Has Hospice\"" ]
                              } ]
                           } ]
                        }, {
                           "value" : [ "\n\t\tor " ]
                        }, {
                           "r" : "165",
                           "s" : [ {
                              "value" : [ "exists " ]
                           }, {
                              "r" : "164",
                              "s" : [ {
                                 "value" : [ "\"Surgical Absence of Cervix\"" ]
                              } ]
                           } ]
                        } ]
                     }, {
                        "value" : [ "\n\t\tor " ]
                     }, {
                        "r" : "168",
                        "s" : [ {
                           "value" : [ "exists " ]
                        }, {
                           "r" : "167",
                           "s" : [ {
                              "value" : [ "\"Absence of Cervix\"" ]
                           } ]
                        } ]
                     } ]
                  } ]
               }
            } ],
            "expression" : {
               "localId" : "169",
               "locator" : "96:2-98:31",
               "type" : "Or",
               "operand" : [ {
                  "localId" : "166",
                  "locator" : "96:2-97:40",
                  "type" : "Or",
                  "operand" : [ {
                     "localId" : "163",
                     "locator" : "96:2-96:22",
                     "name" : "Has Hospice",
                     "libraryName" : "Hospice",
                     "type" : "ExpressionRef"
                  }, {
                     "localId" : "165",
                     "locator" : "97:6-97:40",
                     "type" : "Exists",
                     "operand" : {
                        "localId" : "164",
                        "locator" : "97:13-97:40",
                        "name" : "Surgical Absence of Cervix",
                        "type" : "ExpressionRef"
                     }
                  } ]
               }, {
                  "localId" : "168",
                  "locator" : "98:6-98:31",
                  "type" : "Exists",
                  "operand" : {
                     "localId" : "167",
                     "locator" : "98:13-98:31",
                     "name" : "Absence of Cervix",
                     "type" : "ExpressionRef"
                  }
               } ]
            }
         } ]
      }
   }
}