id	start	end	sig	medicationId	medicationCodeSystem	medicationCode	medication	routeCode	route	administrationUnitCode	administrationUnit	doseQuantityMin	doseQuantityMax	status
95004	2018-01-12T00:00:00.0000000-06:00	2018-02-11T00:00:00.0000000-06:00		c505d4d7-f037-406b-9e69-7aafd7bc56d1	2.16.840.1.113883.6.88	200033	carvedilol 25 MG Oral Tablet						30	completed
95012	2019-05-29T00:00:00.0000000-05:00	2019-06-28T00:00:00.0000000-05:00		ee2076af-6ca7-4685-8273-7a236ed9e437	2.16.840.1.113883.6.88	854919	Bisoprolol Fumarate 5 MG / Hydrochlorothiazide 6.25 MG Oral Tablet						30	completed
95013	2018-05-07T00:00:00.0000000-05:00	2018-06-06T00:00:00.0000000-05:00		80a4e080-e90a-427f-9fdc-e8d12d59a0c6	2.16.840.1.113883.6.88	860532	24 HR carvedilol phosphate 80 MG Extended Release Oral Capsule						30	completed
95020	2018-04-13T00:00:00.0000000-05:00	2018-05-13T00:00:00.0000000-05:00		553c70a1-20c6-48ab-8c59-33d6f9e73e07	2.16.840.1.113883.6.88	860510	24 HR carvedilol phosphate 10 MG Extended Release Oral Capsule						30	completed
95028	2018-10-20T00:00:00.0000000-05:00	2018-11-19T00:00:00.0000000-06:00		191f07cc-61c5-457f-8062-379bda3be747	2.16.840.1.113883.6.88	866472	24 HR Hydrochlorothiazide 12.5 MG / metoprolol succinate 50 MG Extended Release Oral Tablet						30	completed
95031	1946-12-26T00:00:00.0000000-06:00	1947-01-25T00:00:00.0000000-06:00		a5cc643e-c01f-4e21-86d9-4783d1b2ffc8	2.16.840.1.113883.6.88	200032	carvedilol 12.5 MG Oral Tablet						30	completed
95036	2018-11-02T00:00:00.0000000-05:00	2018-12-02T00:00:00.0000000-06:00		0574ea49-2f72-4ab0-8aef-27dc48a27965	2.16.840.1.113883.6.88	866419	24 HR metoprolol succinate 200 MG Extended Release Oral Tablet						30	completed
95037	2018-05-16T00:00:00.0000000-05:00	2018-06-15T00:00:00.0000000-05:00		ea0feeb6-dca7-4059-9979-12c9d6ea003e	2.16.840.1.113883.6.88	198084	Phenobarbital16MGOralCapsule						30	completed
95044	2018-03-08T00:00:00.0000000-06:00	2018-04-07T00:00:00.0000000-05:00		cda3bac8-bd7d-4265-8fa5-ce8161dc9260	2.16.840.1.113883.6.88	866412	24 HR metoprolol succinate 100 MG Extended Release Oral Tablet						30	completed
95045	2007-06-18T00:00:00.0000000-05:00	2007-07-18T00:00:00.0000000-05:00		566d77d4-d95d-4e08-b929-7c4abdbbf739	2.16.840.1.113883.6.88	198001	Bendroflumethiazide 5 MG / Nadolol 80 MG Oral Tablet						30	completed
95052	1921-03-09T00:00:00.0000000-06:00	1921-04-08T00:00:00.0000000-05:00		c6ca9398-0f0c-4657-a774-57f088575395	2.16.840.1.113883.6.88	686924	carvedilol 3.125 MG Oral Tablet						30	completed
95053	2025-05-31T00:00:00.0000000-05:00	2025-06-30T00:00:00.0000000-05:00		82b17915-53e5-4ddd-af55-d81c1456d548	2.16.840.1.113883.6.88	1294560	DiphenhydramineHydrochloride125MGPseudoephedrineHydrochloride30MGDisintegratingOralTablet						30	completed
95054	1976-08-20T00:00:00.0000000-05:00	1976-09-19T00:00:00.0000000-05:00		46f28dc0-6432-4f2b-9ebb-180cd7b654a3	2.16.840.1.113883.6.88	866514	Metoprolol Tartrate 50 MG Oral Tablet						30	completed
95060	1992-03-15T00:00:00.0000000-06:00	1992-04-14T00:00:00.0000000-05:00		f130d34e-3b62-48e4-8654-37e91711f1f2	2.16.840.1.113883.6.88	866461	24 HR Hydrochlorothiazide 12.5 MG / metoprolol succinate 25 MG Extended Release Oral Tablet						30	completed
95068	2018-04-21T00:00:00.0000000-05:00	2018-05-21T00:00:00.0000000-05:00		9096f278-4186-4a61-8cb4-aafe13845fc8	2.16.840.1.113883.6.88	854905	Bisoprolol Fumarate 5 MG Oral Tablet						30	completed
95076	2018-03-28T00:00:00.0000000-05:00	2018-04-27T00:00:00.0000000-05:00		799c0fc5-d347-4321-923a-e999efa1a409	2.16.840.1.113883.6.88	866452	24 HR Hydrochlorothiazide 12.5 MG / metoprolol succinate 100 MG Extended Release Oral Tablet						30	completed
95084	1933-01-19T00:00:00.0000000-06:00	1933-02-18T00:00:00.0000000-06:00		3cf6e446-397b-4be1-8791-d868129aedb6	2.16.840.1.113883.6.88	866427	24 HR metoprolol succinate 25 MG Extended Release Oral Tablet						30	completed
95092	2020-07-24T00:00:00.0000000-05:00	2020-08-23T00:00:00.0000000-05:00		523fd8c8-6bc0-4377-944b-447c6844ffeb	2.16.840.1.113883.6.88	19484	Bisoprolol						30	completed
95092	2019-08-26T00:00:00.0000000-05:00	2019-09-25T00:00:00.0000000-05:00		4e2ade45-af34-415d-bc99-6bf77741cdca	2.16.840.1.113883.6.88	854901	Bisoprolol Fumarate 10 MG Oral Tablet						30	completed
95100	2018-02-13T00:00:00.0000000-06:00	2018-03-15T00:00:00.0000000-05:00		e396be1a-c6f2-4de3-a087-754e12defc3b	2.16.840.1.113883.6.88	866436	24 HR metoprolol succinate 50 MG Extended Release Oral Tablet						30	completed
95108	2018-06-23T00:00:00.0000000-05:00	2018-07-23T00:00:00.0000000-05:00		b56519f6-8ea0-4eb9-b4c2-00c73e9829c3	2.16.840.1.113883.6.88	200031	carvedilol 6.25 MG Oral Tablet						30	completed
95116	1962-09-13T00:00:00.0000000-05:00	1962-10-13T00:00:00.0000000-05:00		e0d8901d-2efa-4709-bf8d-ea87467a7a06	2.16.840.1.113883.6.88	860516	24 HR carvedilol phosphate 20 MG Extended Release Oral Capsule						30	completed
95117	2023-11-25T00:00:00.0000000-06:00	2023-12-25T00:00:00.0000000-06:00		25b1c06e-100e-4a32-95be-a1633fe5a9f4	2.16.840.1.113883.6.88	149	Malignant neoplasm of pharynx						30	completed
95124	2018-04-25T00:00:00.0000000-05:00	2018-05-25T00:00:00.0000000-05:00		9fe20400-ac7a-4175-b124-8b9ecef14546	2.16.840.1.113883.6.88	854908	Bisoprolol Fumarate 10 MG / Hydrochlorothiazide 6.25 MG Oral Tablet						30	completed
95132	1945-12-26T00:00:00.0000000-06:00	1946-01-25T00:00:00.0000000-06:00		1cfc9143-78d1-44f9-b581-e67a9878cfe1	2.16.840.1.113883.6.88	860522	24 HR carvedilol phosphate 40 MG Extended Release Oral Capsule						30	completed
95134	2021-03-23T00:00:00.0000000-05:00	2021-04-22T00:00:00.0000000-05:00		7caf5624-c94b-4ba3-81ab-f65f777416a2	2.16.840.1.113883.6.88	1495058	Propranolol Hydrochloride 4.28 MG/ML Oral Solution						30	completed
95134	2021-04-14T00:00:00.0000000-05:00	2021-05-14T00:00:00.0000000-05:00		13a2717b-cddc-405e-aca5-cb22a85a2740	2.16.840.1.113883.6.88	854916	Bisoprolol Fumarate 2.5 MG / Hydrochlorothiazide 6.25 MG Oral Tablet						30	completed
95140	2017-01-27T00:00:00.0000000-06:00	2017-02-26T00:00:00.0000000-06:00		d247a982-e2ca-4d69-bfe7-722c75f51c04	2.16.840.1.113883.6.88	200033	carvedilol 25 MG Oral Tablet						30	completed
95148	2018-04-30T00:00:00.0000000-05:00	2018-05-30T00:00:00.0000000-05:00		13ef65d6-95f2-49c5-8c4c-7dd0e1dc2193	2.16.840.1.113883.6.88	854919	Bisoprolol Fumarate 5 MG / Hydrochlorothiazide 6.25 MG Oral Tablet						30	completed
95156	2018-07-22T00:00:00.0000000-05:00	2018-08-21T00:00:00.0000000-05:00		78cc207c-f99a-4490-93d6-f73bf8ddad2b	2.16.840.1.113883.6.88	198104	Pindolol 10 MG Oral Tablet						30	completed
95156	2018-07-06T00:00:00.0000000-05:00	2018-08-05T00:00:00.0000000-05:00		7bf3de69-d864-407a-8030-9b179b447af3	2.16.840.1.113883.6.88	617981	Amoxicillin400MGClavulanate28.5MGChewableTablet						30	completed
95164	1960-04-28T00:00:00.0000000-05:00	1960-05-28T00:00:00.0000000-05:00		3571731a-c88d-45a4-9033-feb78a84d0eb	2.16.840.1.113883.6.88	860532	24 HR carvedilol phosphate 80 MG Extended Release Oral Capsule						30	completed
95165	2019-05-04T00:00:00.0000000-05:00	2019-06-03T00:00:00.0000000-05:00		1ffcd483-4e3d-4074-97a1-be12fb25c693	2.16.840.1.113883.6.88	745292	PenicillinGPotassium400000UNTOralTablet						30	completed
95172	1978-03-13T00:00:00.0000000-06:00	1978-04-12T00:00:00.0000000-05:00		1ed34917-e3b9-4e9d-b776-f79c59b341e3	2.16.840.1.113883.6.88	860510	24 HR carvedilol phosphate 10 MG Extended Release Oral Capsule						30	completed
95173	2017-12-28T00:00:00.0000000-06:00	2018-01-27T00:00:00.0000000-06:00		bdbf4bc2-1d37-4c92-a7b8-3dd39f60ad4a	2.16.840.1.113883.6.88	197381	Atenolol 50 MG Oral Tablet						30	completed
95180	2018-04-20T00:00:00.0000000-05:00	2018-05-20T00:00:00.0000000-05:00		8f6210d6-f5b8-42f9-bee1-3f2f867d3943	2.16.840.1.113883.6.88	866472	24 HR Hydrochlorothiazide 12.5 MG / metoprolol succinate 50 MG Extended Release Oral Tablet						30	completed
95182	2004-10-06T00:00:00.0000000-05:00	2004-11-05T00:00:00.0000000-06:00		6d78a2af-e870-4fde-a9b2-7385c965e57e	2.16.840.1.113883.6.88	200032	carvedilol 12.5 MG Oral Tablet						30	completed
95188	2018-08-17T00:00:00.0000000-05:00	2018-09-16T00:00:00.0000000-05:00		f14cfb24-a119-473d-95a4-fe19efbf24c5	2.16.840.1.113883.6.88	197512	Ciprofloxacin 750 MG Oral Tablet						30	completed
95196	2018-05-01T00:00:00.0000000-05:00	2018-05-31T00:00:00.0000000-05:00		7d3ae8d2-edc2-4a56-861e-d2c465638c15	2.16.840.1.113883.6.88	866419	24 HR metoprolol succinate 200 MG Extended Release Oral Tablet						30	completed
95204	1930-11-20T00:00:00.0000000-06:00	1930-12-20T00:00:00.0000000-06:00		859ed42b-cf98-4576-96d5-c67d3232f9d2	2.16.840.1.113883.6.88	866412	24 HR metoprolol succinate 100 MG Extended Release Oral Tablet						30	completed
95212	2017-12-21T00:00:00.0000000-06:00	2018-01-20T00:00:00.0000000-06:00		b0a2182e-d507-4030-9f19-151f712e9bc1	2.16.840.1.113883.6.88	686924	carvedilol 3.125 MG Oral Tablet						30	completed
95220	1980-01-16T00:00:00.0000000-06:00	1980-02-15T00:00:00.0000000-06:00		9c82fca8-c283-4415-96dd-3bea3975c3e1	2.16.840.1.113883.6.88	866461	24 HR Hydrochlorothiazide 12.5 MG / metoprolol succinate 25 MG Extended Release Oral Tablet						30	completed
95228	1972-10-21T00:00:00.0000000-05:00	1972-11-20T00:00:00.0000000-06:00		fab84bf2-8bf1-49c5-a18a-568966e8b9ff	2.16.840.1.113883.6.88	854905	Bisoprolol Fumarate 5 MG Oral Tablet						30	completed
95236	2018-03-03T00:00:00.0000000-06:00	2018-04-02T00:00:00.0000000-05:00		753eaa05-8fa1-42ea-9090-a2070c9b86cb	2.16.840.1.113883.6.88	866452	24 HR Hydrochlorothiazide 12.5 MG / metoprolol succinate 100 MG Extended Release Oral Tablet						30	completed
95244	1935-01-23T00:00:00.0000000-06:00	1935-02-22T00:00:00.0000000-06:00		e6867147-6885-44a3-8a61-4c09d7a58300	2.16.840.1.113883.6.88	866427	24 HR metoprolol succinate 25 MG Extended Release Oral Tablet						30	completed
95252	2018-01-04T00:00:00.0000000-06:00	2018-02-03T00:00:00.0000000-06:00		a9e4d735-dd47-4ad3-b01f-e6c9c8b42bab	2.16.840.1.113883.6.88	866491	Hydrochlorothiazide 50 MG / Metoprolol Tartrate 100 MG Oral Tablet						30	completed
95252	2018-10-25T00:00:00.0000000-05:00	2018-11-24T00:00:00.0000000-06:00		9f5e61d3-9025-4539-830b-b7c5c9e772f3	2.16.840.1.113883.6.88	854901	Bisoprolol Fumarate 10 MG Oral Tablet						30	completed
95260	2019-01-23T00:00:00.0000000-06:00	2019-02-22T00:00:00.0000000-06:00		50863e12-16fb-457a-89c7-e837a9fc9b65	2.16.840.1.113883.6.88	8332	Pindolol						30	completed
95260	2018-04-13T00:00:00.0000000-05:00	2018-05-13T00:00:00.0000000-05:00		437b246e-fe21-4281-9935-4ae819dd5ed9	2.16.840.1.113883.6.88	866436	24 HR metoprolol succinate 50 MG Extended Release Oral Tablet						30	completed
95261	2018-01-15T00:00:00.0000000-06:00	2018-02-14T00:00:00.0000000-06:00		dc7caaa3-cd7d-4c53-90a5-17dcd6671d1a	2.16.840.1.113883.6.88	10600	Timolol						30	completed
95268	1976-07-20T00:00:00.0000000-05:00	1976-08-19T00:00:00.0000000-05:00		5925210a-ee06-47a9-a62b-fbd280ce9edd	2.16.840.1.113883.6.88	200031	carvedilol 6.25 MG Oral Tablet						30	completed
95276	1924-07-21T00:00:00.0000000-05:00	1924-08-20T00:00:00.0000000-05:00		b3d5bab5-de0a-41e4-b3b0-d5b03ae150df	2.16.840.1.113883.6.88	197453	cefprozil 500 MG Oral Tablet						30	completed
95284	1956-02-02T00:00:00.0000000-06:00	1956-03-03T00:00:00.0000000-06:00		4d4b615a-a794-4c11-9e08-560209e49aab	2.16.840.1.113883.6.88	860516	24 HR carvedilol phosphate 20 MG Extended Release Oral Capsule						30	completed
95292	2018-04-10T00:00:00.0000000-05:00	2018-05-10T00:00:00.0000000-05:00		b856255c-3e62-45e5-98e4-6dcaf4dca5c1	2.16.840.1.113883.6.88	854908	Bisoprolol Fumarate 10 MG / Hydrochlorothiazide 6.25 MG Oral Tablet						30	completed
95293	1998-01-28T00:00:00.0000000-06:00	1998-02-27T00:00:00.0000000-06:00		674db197-a93b-45fc-a26a-3ea3c390af1f	2.16.840.1.113883.6.88	6185	Labetalol						30	completed
95300	2018-01-02T00:00:00.0000000-06:00	2018-02-01T00:00:00.0000000-06:00		281a2808-c806-4052-b3e1-65f3d90a7b8d	2.16.840.1.113883.6.88	860522	24 HR carvedilol phosphate 40 MG Extended Release Oral Capsule						30	completed
95308	2020-03-07T00:00:00.0000000-06:00	2020-04-06T00:00:00.0000000-05:00		35d3ae39-3d24-4208-addd-72d6dddd544b	2.16.840.1.113883.6.88	854916	Bisoprolol Fumarate 2.5 MG / Hydrochlorothiazide 6.25 MG Oral Tablet						30	completed
95316	1921-02-01T00:00:00.0000000-06:00	1921-03-03T00:00:00.0000000-06:00		f20bffa7-2515-4bac-bdcd-e5b9af2c9872	2.16.840.1.113883.6.88	200033	carvedilol 25 MG Oral Tablet						30	completed
95324	2018-04-29T00:00:00.0000000-05:00	2018-05-29T00:00:00.0000000-05:00		e2526bf1-24fc-4263-9679-b99875851476	2.16.840.1.113883.6.88	6918	Metoprolol						30	completed
95324	2018-05-10T00:00:00.0000000-05:00	2018-06-09T00:00:00.0000000-05:00		c045af57-34bd-4a99-b3a6-b97bccc54bef	2.16.840.1.113883.6.88	854919	Bisoprolol Fumarate 5 MG / Hydrochlorothiazide 6.25 MG Oral Tablet						30	completed
95332	2018-06-11T00:00:00.0000000-05:00	2018-07-11T00:00:00.0000000-05:00		e95dee06-6317-4173-8388-2c406887140f	2.16.840.1.113883.6.88	1043030	Cefixime 200 MG Chewable Tablet						30	completed
95340	1956-10-19T00:00:00.0000000-05:00	1956-11-18T00:00:00.0000000-06:00		1d2524b3-d9dd-4b54-80d3-5754f0b47515	2.16.840.1.113883.6.88	860532	24 HR carvedilol phosphate 80 MG Extended Release Oral Capsule						30	completed
95342	1923-12-05T00:00:00.0000000-06:00	1924-01-04T00:00:00.0000000-06:00		13ee5321-be10-4dc7-9cdd-de1b48bc6b51	2.16.840.1.113883.6.88	896762	Labetalol hydrochloride 200 MG Oral Tablet						30	completed
95348	2021-10-05T00:00:00.0000000-05:00	2021-11-04T00:00:00.0000000-05:00		d4507db6-6566-4f03-bcea-8a8cde008f2c	2.16.840.1.113883.6.88	312270	PenicillinG300000UNTMLInjectableSuspension						30	completed
95356	2019-02-18T00:00:00.0000000-06:00	2019-03-20T00:00:00.0000000-05:00		df2daf98-61b6-4f8a-a1dd-10a6aaf53f72	2.16.840.1.113883.6.88	311988	Nitrofurantoin100MGOralTablet						30	completed
95356	2018-02-21T00:00:00.0000000-06:00	2018-03-23T00:00:00.0000000-05:00		06058981-dc33-4e68-9212-b0a0f86d75d1	2.16.840.1.113883.6.88	860510	24 HR carvedilol phosphate 10 MG Extended Release Oral Capsule						30	completed
95364	1979-06-01T00:00:00.0000000-05:00	1979-07-01T00:00:00.0000000-05:00		43dd551b-ffc8-4067-8526-4066fcc1a26d	2.16.840.1.113883.6.88	866472	24 HR Hydrochlorothiazide 12.5 MG / metoprolol succinate 50 MG Extended Release Oral Tablet						30	completed
95372	2018-05-09T00:00:00.0000000-05:00	2018-06-08T00:00:00.0000000-05:00		eaf2e133-5f74-4237-a9d1-391999fd6258	2.16.840.1.113883.6.88	200032	carvedilol 12.5 MG Oral Tablet						30	completed
95373	2018-11-07T00:00:00.0000000-06:00	2018-12-07T00:00:00.0000000-06:00		51748075-3778-4035-bd58-a9c330d1eeb7	2.16.840.1.113883.6.88	860532	24 HR carvedilol phosphate 80 MG Extended Release Oral Capsule						30	completed
95380	1974-08-10T00:00:00.0000000-05:00	1974-09-09T00:00:00.0000000-05:00		b8d485e2-4dfd-4ec5-a9d3-fa2ab8770cc2	2.16.840.1.113883.6.88	866419	24 HR metoprolol succinate 200 MG Extended Release Oral Tablet						30	completed
95388	1951-10-27T00:00:00.0000000-05:00	1951-11-26T00:00:00.0000000-06:00		ce996287-27be-4b3c-ae06-215a148ed5dc	2.16.840.1.113883.6.88	866412	24 HR metoprolol succinate 100 MG Extended Release Oral Tablet						30	completed
95396	1925-09-25T00:00:00.0000000-05:00	1925-10-25T00:00:00.0000000-05:00		f2b36fa8-eb55-4886-96f6-eacd28eaff03	2.16.840.1.113883.6.88	686924	carvedilol 3.125 MG Oral Tablet						30	completed
95404	2018-05-10T00:00:00.0000000-05:00	2018-06-09T00:00:00.0000000-05:00		dfe1ac78-45fe-4226-84e7-0658f02ae5d5	2.16.840.1.113883.6.88	866461	24 HR Hydrochlorothiazide 12.5 MG / metoprolol succinate 25 MG Extended Release Oral Tablet						30	completed
95412	2018-04-28T00:00:00.0000000-05:00	2018-05-28T00:00:00.0000000-05:00		9aea4ea0-9404-4958-bf5f-d165dfa82304	2.16.840.1.113883.6.88	250095	Ofloxacin2MGMLInjectableSolution						30	completed
95420	2018-08-12T00:00:00.0000000-05:00	2018-09-11T00:00:00.0000000-05:00		240d1deb-2542-49fa-b4cf-df7fb41d808c	2.16.840.1.113883.6.88	854905	Bisoprolol Fumarate 5 MG Oral Tablet						30	completed
95428	2018-04-09T00:00:00.0000000-05:00	2018-05-09T00:00:00.0000000-05:00		6fda8868-88b1-4ef6-ab2f-ce2602706940	2.16.840.1.113883.6.88	199370	Ciprofloxacin 100 MG Oral Tablet						30	completed
95436	2005-10-05T00:00:00.0000000-05:00	2005-11-04T00:00:00.0000000-06:00		9abc2871-cf80-479b-83d9-f0be621d5709	2.16.840.1.113883.6.88	866452	24 HR Hydrochlorothiazide 12.5 MG / metoprolol succinate 100 MG Extended Release Oral Tablet						30	completed
95444	2018-04-26T00:00:00.0000000-05:00	2018-05-26T00:00:00.0000000-05:00		78fca92e-b407-473b-8677-39c9d8a46be4	2.16.840.1.113883.6.88	866427	24 HR metoprolol succinate 25 MG Extended Release Oral Tablet						30	completed
95452	1981-05-29T00:00:00.0000000-05:00	1981-06-28T00:00:00.0000000-05:00		a5267cea-7439-4ea7-aef1-bb3b020206e7	2.16.840.1.113883.6.88	1520	Betaxolol						30	completed
95452	1981-10-22T00:00:00.0000000-05:00	1981-11-21T00:00:00.0000000-06:00		998cc5dc-eb5b-4d15-b35a-a0f9cd2b4a44	2.16.840.1.113883.6.88	854901	Bisoprolol Fumarate 10 MG Oral Tablet						30	completed
95460	1931-03-13T00:00:00.0000000-06:00	1931-04-12T00:00:00.0000000-05:00		4119c520-8e99-412b-afe0-954b22ac1bad	2.16.840.1.113883.6.88	866436	24 HR metoprolol succinate 50 MG Extended Release Oral Tablet						30	completed
95468	2001-11-07T00:00:00.0000000-06:00	2001-12-07T00:00:00.0000000-06:00		15f8b429-3c27-4158-b7fe-10968152cbfa	2.16.840.1.113883.6.88	200031	carvedilol 6.25 MG Oral Tablet						30	completed
95476	1994-12-30T00:00:00.0000000-06:00	1995-01-29T00:00:00.0000000-06:00		d30a205a-57ad-4378-90ee-ed636bb1227d	2.16.840.1.113883.6.88	860516	24 HR carvedilol phosphate 20 MG Extended Release Oral Capsule						30	completed
95484	2018-01-14T00:00:00.0000000-06:00	2018-02-13T00:00:00.0000000-06:00		cf92b286-6b34-49fc-b595-65e849640dfa	2.16.840.1.113883.6.88	854908	Bisoprolol Fumarate 10 MG / Hydrochlorothiazide 6.25 MG Oral Tablet						30	completed
95485	1948-01-03T00:00:00.0000000-06:00	1948-02-02T00:00:00.0000000-06:00		75b3272f-afa3-4778-a90b-826b55cc5a63	2.16.840.1.113883.6.88	860522	24 HR carvedilol phosphate 40 MG Extended Release Oral Capsule						30	completed
95492	1980-06-15T00:00:00.0000000-05:00	1980-07-15T00:00:00.0000000-05:00		b7620d13-36d8-465c-8f5b-1231b28dd76e	2.16.840.1.113883.6.88	854916	Bisoprolol Fumarate 2.5 MG / Hydrochlorothiazide 6.25 MG Oral Tablet						30	completed
95500	2006-03-29T00:00:00.0000000-06:00	2006-04-28T00:00:00.0000000-05:00		0f5fb1df-6ea2-4e6c-bb5a-7413f373d64b	2.16.840.1.113883.6.88	200033	carvedilol 25 MG Oral Tablet						30	completed
95502	1923-07-15T00:00:00.0000000-05:00	1923-08-14T00:00:00.0000000-05:00		9c590fc7-f671-4712-8b91-9cd7935ed45e	2.16.840.1.113883.6.88	20352	carvedilol						30	completed
95508	1976-02-25T00:00:00.0000000-06:00	1976-03-26T00:00:00.0000000-06:00		3fa7195a-88e2-47f9-8328-f81b5fe2b5f7	2.16.840.1.113883.6.88	854919	Bisoprolol Fumarate 5 MG / Hydrochlorothiazide 6.25 MG Oral Tablet						30	completed
95509	1936-06-13T00:00:00.0000000-05:00	1936-07-13T00:00:00.0000000-05:00		4316b3be-e4c4-44d7-8dd7-a9ca0da497ac	2.16.840.1.113883.6.88	8787	Propranolol						30	completed
95516	2018-05-15T00:00:00.0000000-05:00	2018-06-14T00:00:00.0000000-05:00		d495f38a-22c1-4f44-ad9b-711e399244a6	2.16.840.1.113883.6.88	200346	cefdinir 300 MG Oral Capsule						30	completed
95524	2018-05-31T00:00:00.0000000-05:00	2018-06-30T00:00:00.0000000-05:00		f6128b92-9287-4051-ba8e-2427dff8cbd1	2.16.840.1.113883.6.88	860532	24 HR carvedilol phosphate 80 MG Extended Release Oral Capsule						30	completed
95532	2018-02-04T00:00:00.0000000-06:00	2018-03-06T00:00:00.0000000-06:00		137c9e3d-e586-4ed9-b0e9-916c3058104d	2.16.840.1.113883.6.88	860510	24 HR carvedilol phosphate 10 MG Extended Release Oral Capsule						30	completed
95533	2017-12-04T00:00:00.0000000-06:00	2018-01-03T00:00:00.0000000-06:00		5a0e14d9-fddb-41d6-b6c1-5089bb837269	2.16.840.1.113883.6.88	2116	Carteolol						30	completed
95540	2018-04-28T00:00:00.0000000-05:00	2018-05-28T00:00:00.0000000-05:00		c8a296d9-192d-4c0d-9386-3aebb31949ab	2.16.840.1.113883.6.88	866472	24 HR Hydrochlorothiazide 12.5 MG / metoprolol succinate 50 MG Extended Release Oral Tablet						30	completed
95548	2018-12-18T00:00:00.0000000-06:00	2019-01-17T00:00:00.0000000-06:00		dcd83494-026a-4da9-895a-0fc6003dd5f6	2.16.840.1.113883.6.88	200032	carvedilol 12.5 MG Oral Tablet						30	completed
95556	2000-08-20T00:00:00.0000000-05:00	2000-09-19T00:00:00.0000000-05:00		bcda51af-d178-47b2-9263-d5cb713aacef	2.16.840.1.113883.6.88	866419	24 HR metoprolol succinate 200 MG Extended Release Oral Tablet						30	completed
95564	1966-05-12T00:00:00.0000000-05:00	1966-06-11T00:00:00.0000000-05:00		e1491980-02a4-4d9e-905c-c02bff0be180	2.16.840.1.113883.6.88	866412	24 HR metoprolol succinate 100 MG Extended Release Oral Tablet						30	completed
95572	2018-03-31T00:00:00.0000000-05:00	2018-04-30T00:00:00.0000000-05:00		8d4101c4-b581-485a-a85c-8ae6f5d9c8e1	2.16.840.1.113883.6.88	686924	carvedilol 3.125 MG Oral Tablet						30	completed
95580	2018-05-13T00:00:00.0000000-05:00	2018-06-12T00:00:00.0000000-05:00		d97c9700-94e3-40d2-9819-25e0e17e9294	2.16.840.1.113883.6.88	866461	24 HR Hydrochlorothiazide 12.5 MG / metoprolol succinate 25 MG Extended Release Oral Tablet						30	completed
95588	2019-02-21T00:00:00.0000000-06:00	2019-03-23T00:00:00.0000000-05:00		655a7a16-efd8-4981-893b-cd62a55e76be	2.16.840.1.113883.6.88	1302650	24 HR Minocycline 45 MG Extended Release Oral Capsule						30	completed
95596	2018-05-29T00:00:00.0000000-05:00	2018-06-28T00:00:00.0000000-05:00		a14ecb86-c440-49c9-aa34-39e7ed7fdb50	2.16.840.1.113883.6.88	197451	Cefixime 400 MG Oral Tablet						30	completed
95596	2017-12-25T00:00:00.0000000-06:00	2018-01-24T00:00:00.0000000-06:00		b4b05b9e-6042-4ce3-84df-f5abc70d7bb4	2.16.840.1.113883.6.88	854905	Bisoprolol Fumarate 5 MG Oral Tablet						30	completed
95604	2020-04-06T00:00:00.0000000-05:00	2020-05-06T00:00:00.0000000-05:00		b537dda7-2c8d-4a3d-ae6c-51dd9eb08486	2.16.840.1.113883.6.88	597520	Doxycycline100MGDisintegratingTablet						30	completed
95612	1946-05-20T00:00:00.0000000-05:00	1946-06-19T00:00:00.0000000-05:00		fd44f3cd-fb8c-4016-b685-44f298dfb03f	2.16.840.1.113883.6.88	866452	24 HR Hydrochlorothiazide 12.5 MG / metoprolol succinate 100 MG Extended Release Oral Tablet						30	completed
95620	2006-11-23T00:00:00.0000000-06:00	2006-12-23T00:00:00.0000000-06:00		9279f6fd-9462-4bc9-b13c-447a394aca02	2.16.840.1.113883.6.88	866427	24 HR metoprolol succinate 25 MG Extended Release Oral Tablet						30	completed
95623	2017-11-23T00:00:00.0000000-06:00	2017-12-23T00:00:00.0000000-06:00		8bfad013-e6e4-45c5-a8fb-23e4502ca108	2.16.840.1.113883.6.88	856448	Propranolol Hydrochloride 10 MG Oral Tablet						30	completed
95628	2018-09-18T00:00:00.0000000-05:00	2018-10-18T00:00:00.0000000-05:00		80847a5d-aa5d-493d-ad7c-e5e4155a7e56	2.16.840.1.113883.6.88	1251791	Butabarbitalsodium30MGOralCapsule						30	completed
95636	2018-01-14T00:00:00.0000000-06:00	2018-02-13T00:00:00.0000000-06:00		f10a539b-9415-4e7d-8855-a0a4d4703faf	2.16.840.1.113883.6.88	854901	Bisoprolol Fumarate 10 MG Oral Tablet						30	completed
95638	2018-02-07T00:00:00.0000000-06:00	2018-03-09T00:00:00.0000000-06:00		ed55c2ad-afaa-46ea-babd-a733e7c43fc0	2.16.840.1.113883.6.88	7226	Nadolol						30	completed
95644	2017-12-16T00:00:00.0000000-06:00	2018-01-15T00:00:00.0000000-06:00		fdec015e-9a54-4d64-a64e-b8953d8a82d5	2.16.840.1.113883.6.88	1202	Atenolol						30	completed
95644	2018-01-22T00:00:00.0000000-06:00	2018-02-21T00:00:00.0000000-06:00		0c1d25d0-ce2e-487d-9d03-1234399271f3	2.16.840.1.113883.6.88	866436	24 HR metoprolol succinate 50 MG Extended Release Oral Tablet						30	completed
95652	2017-12-13T00:00:00.0000000-06:00	2018-01-12T00:00:00.0000000-06:00		45cac3f6-02e9-4e4a-a517-d3602cc17544	2.16.840.1.113883.6.88	200031	carvedilol 6.25 MG Oral Tablet						30	completed
95653	2018-12-09T00:00:00.0000000-06:00	2019-01-08T00:00:00.0000000-06:00		7d96b433-9fc1-4258-8a34-e89f3000430d	2.16.840.1.113883.6.88	197511	Ciprofloxacin 250 MG Oral Tablet						30	completed
95660	2018-06-28T00:00:00.0000000-05:00	2018-07-28T00:00:00.0000000-05:00		a75df947-8b7c-42cb-9c1e-506982a86f73	2.16.840.1.113883.6.88	860516	24 HR carvedilol phosphate 20 MG Extended Release Oral Capsule						30	completed
95668	2018-02-06T00:00:00.0000000-06:00	2018-03-08T00:00:00.0000000-06:00		8b9b0248-7e33-4b1e-b1c6-17c727dde5da	2.16.840.1.113883.6.88	854908	Bisoprolol Fumarate 10 MG / Hydrochlorothiazide 6.25 MG Oral Tablet						30	completed
95669	1948-02-17T00:00:00.0000000-06:00	1948-03-18T00:00:00.0000000-06:00		7e8031e3-3010-4a25-a117-56d6224e20be	2.16.840.1.113883.6.88	19484	Bisoprolol						30	completed
95676	2020-07-12T00:00:00.0000000-05:00	2020-08-11T00:00:00.0000000-05:00		33bc0227-a75a-4043-a8a9-e991f8dbfe1a	2.16.840.1.113883.6.88	860522	24 HR carvedilol phosphate 40 MG Extended Release Oral Capsule						30	completed
95679	2019-09-03T00:00:00.0000000-05:00	2019-10-03T00:00:00.0000000-05:00		5ea2aa23-1eff-4b5d-98af-532aca8a9fb9	2.16.840.1.113883.6.88	856457	Propranolol Hydrochloride 20 MG Oral Tablet						30	completed
95679	2019-10-27T00:00:00.0000000-05:00	2019-11-26T00:00:00.0000000-06:00		374807ed-7263-44cd-ac4e-68330c09b26d	2.16.840.1.113883.6.88	854916	Bisoprolol Fumarate 2.5 MG / Hydrochlorothiazide 6.25 MG Oral Tablet						30	completed
95684	2018-02-01T00:00:00.0000000-06:00	2018-03-03T00:00:00.0000000-06:00		0a38c96b-3d9d-4e93-895b-00754843cc31	2.16.840.1.113883.6.88	200033	carvedilol 25 MG Oral Tablet						30	completed
95692	1978-10-04T00:00:00.0000000-05:00	1978-11-03T00:00:00.0000000-06:00		699650a4-2a2d-4a98-ab77-51623312487a	2.16.840.1.113883.6.88	854901	Bisoprolol Fumarate 10 MG Oral Tablet						30	completed
95692	1978-05-31T00:00:00.0000000-05:00	1978-06-30T00:00:00.0000000-05:00		d6845bdc-b70c-4fc0-9b17-988b15956262	2.16.840.1.113883.6.88	854919	Bisoprolol Fumarate 5 MG / Hydrochlorothiazide 6.25 MG Oral Tablet						30	completed
95694	1927-09-12T00:00:00.0000000-05:00	1927-10-12T00:00:00.0000000-05:00		5a072f03-bc25-428d-bc28-685625e7f76b	2.16.840.1.113883.6.88	860532	24 HR carvedilol phosphate 80 MG Extended Release Oral Capsule						30	completed
95695	2018-05-16T00:00:00.0000000-05:00	2018-06-15T00:00:00.0000000-05:00		1b78683b-4943-4bea-ae1f-8be5403cba94	2.16.840.1.113883.6.88	856724	Propranolol Hydrochloride 4 MG/ML Oral Solution						30	completed
95700	2018-01-11T00:00:00.0000000-06:00	2018-02-10T00:00:00.0000000-06:00		0bb92578-85c5-44d6-9c10-a65b9065dddd	2.16.840.1.113883.6.88	860510	24 HR carvedilol phosphate 10 MG Extended Release Oral Capsule						30	completed
95708	1959-11-09T00:00:00.0000000-06:00	1959-12-09T00:00:00.0000000-06:00		d90e08aa-e498-4587-a9f2-153c451af6a3	2.16.840.1.113883.6.88	866472	24 HR Hydrochlorothiazide 12.5 MG / metoprolol succinate 50 MG Extended Release Oral Tablet						30	completed
95716	2018-03-13T00:00:00.0000000-05:00	2018-04-12T00:00:00.0000000-05:00		d8cb2fd9-e239-461d-a74a-b5bc97cace63	2.16.840.1.113883.6.88	891888	MorphineSulfate30MGExtendedReleaseTabl						30	completed
95724	1949-01-25T00:00:00.0000000-06:00	1949-02-24T00:00:00.0000000-06:00		23e82b9b-05fd-442b-80f5-526053aac5ba	2.16.840.1.113883.6.88	200032	carvedilol 12.5 MG Oral Tablet						30	completed
95732	2018-02-09T00:00:00.0000000-06:00	2018-03-11T00:00:00.0000000-06:00		666c5788-7e3d-4a03-97fb-11a943caee7a	2.16.840.1.113883.6.88	866419	24 HR metoprolol succinate 200 MG Extended Release Oral Tablet						30	completed
95740	1941-01-13T00:00:00.0000000-06:00	1941-02-12T00:00:00.0000000-06:00		94fe4f2d-24d2-48ed-ac30-e42529e70fdb	2.16.840.1.113883.6.88	152916	Atenolol 50 MG / Chlorthalidone 12.5 MG Oral Tablet						30	completed
95740	1941-02-10T00:00:00.0000000-06:00	1941-03-12T00:00:00.0000000-06:00		8e8b52c9-905f-479b-a5e8-c67bae8adf6c	2.16.840.1.113883.6.88	866412	24 HR metoprolol succinate 100 MG Extended Release Oral Tablet						30	completed
95748	2023-08-11T00:00:00.0000000-05:00	2023-09-10T00:00:00.0000000-05:00		99cc8f76-1c9c-4871-85c2-cfc0082e0fd4	2.16.840.1.113883.6.88	686924	carvedilol 3.125 MG Oral Tablet						30	completed
95750	2018-04-19T00:00:00.0000000-05:00	2018-05-19T00:00:00.0000000-05:00		26061710-b21c-43c1-ade2-18027d012291	2.16.840.1.113883.6.88	866461	24 HR Hydrochlorothiazide 12.5 MG / metoprolol succinate 25 MG Extended Release Oral Tablet						30	completed
95751	2018-05-18T00:00:00.0000000-05:00	2018-06-17T00:00:00.0000000-05:00		98b90754-9222-49ca-a5e4-c2a9a1d879cb	2.16.840.1.113883.6.88	198249	Tetracycline100MGOralCapsule						30	completed
95756	2018-03-04T00:00:00.0000000-06:00	2018-04-03T00:00:00.0000000-05:00		c4571ae4-7a0a-47f0-a2fb-bb6f8a7503bb	2.16.840.1.113883.6.88	854905	Bisoprolol Fumarate 5 MG Oral Tablet						30	completed
95757	2008-05-21T00:00:00.0000000-05:00	2008-06-20T00:00:00.0000000-05:00		66780229-ef9e-4b95-a656-c28611dd6f7f	2.16.840.1.113883.6.88	1049289	1 ML Diphenhydramine Hydrochloride 50 MG/ML Prefilled Syringe						30	completed
95764	2018-05-13T00:00:00.0000000-05:00	2018-06-12T00:00:00.0000000-05:00		60bd9773-102c-49ab-bbd8-f36db335efdd	2.16.840.1.113883.6.88	866452	24 HR Hydrochlorothiazide 12.5 MG / metoprolol succinate 100 MG Extended Release Oral Tablet						30	completed
95772	2013-06-13T00:00:00.0000000-05:00	2013-07-13T00:00:00.0000000-05:00		a3883d46-deba-4963-bf92-499896458dcc	2.16.840.1.113883.6.88	866427	24 HR metoprolol succinate 25 MG Extended Release Oral Tablet						30	completed
95775	2018-03-28T00:00:00.0000000-05:00	2018-04-27T00:00:00.0000000-05:00		82276a7d-61bf-4e99-b053-bdb102fa54d8	2.16.840.1.113883.6.88	149	Malignant neoplasm of pharynx						30	completed
95780	2000-04-28T00:00:00.0000000-05:00	2000-05-28T00:00:00.0000000-05:00		029feb6d-b650-439f-bcb8-8a6e7dacc8e8	2.16.840.1.113883.6.88	854901	Bisoprolol Fumarate 10 MG Oral Tablet						30	completed
95788	2018-02-19T00:00:00.0000000-06:00	2018-03-21T00:00:00.0000000-05:00		1b8e9613-efa7-497a-bf85-dc09ab3f4bd4	2.16.840.1.113883.6.88	866436	24 HR metoprolol succinate 50 MG Extended Release Oral Tablet						30	completed
95796	2004-12-04T00:00:00.0000000-06:00	2005-01-03T00:00:00.0000000-06:00		de6ad9e2-7e46-4757-bc48-53574e78cfbe	2.16.840.1.113883.6.88	200031	carvedilol 6.25 MG Oral Tablet						30	completed
95804	1946-11-19T00:00:00.0000000-06:00	1946-12-19T00:00:00.0000000-06:00		4818c1fe-c4ee-4e3f-ba26-9733c45b074b	2.16.840.1.113883.6.88	860516	24 HR carvedilol phosphate 20 MG Extended Release Oral Capsule						30	completed
95812	2018-04-03T00:00:00.0000000-05:00	2018-05-03T00:00:00.0000000-05:00		49a5698a-558c-4cbf-a601-537378937f2f	2.16.840.1.113883.6.88	854908	Bisoprolol Fumarate 10 MG / Hydrochlorothiazide 6.25 MG Oral Tablet						30	completed
95820	2018-02-25T00:00:00.0000000-06:00	2018-03-27T00:00:00.0000000-05:00		8ad158e5-e141-4c93-a422-776398c0ce91	2.16.840.1.113883.6.88	8332	Pindolol						30	completed
95820	2018-03-23T00:00:00.0000000-05:00	2018-04-22T00:00:00.0000000-05:00		bde139b4-c5f1-4d18-b781-fb04bec39cad	2.16.840.1.113883.6.88	860522	24 HR carvedilol phosphate 40 MG Extended Release Oral Capsule						30	completed
95828	2016-06-30T00:00:00.0000000-05:00	2016-07-30T00:00:00.0000000-05:00		6ef7d2e9-cdbe-44fb-a1f7-1142d0f0a5fd	2.16.840.1.113883.6.88	854916	Bisoprolol Fumarate 2.5 MG / Hydrochlorothiazide 6.25 MG Oral Tablet						30	completed
95836	1935-06-14T00:00:00.0000000-05:00	1935-07-14T00:00:00.0000000-05:00		b3f1d4c6-e81b-4bbf-aa89-c6a9b84a396f	2.16.840.1.113883.6.88	250095	Ofloxacin2MGMLInjectableSolution						30	completed
95836	1934-09-18T00:00:00.0000000-05:00	1934-10-18T00:00:00.0000000-05:00		d48344ab-4715-4ead-b838-62de0b3aa5ea	2.16.840.1.113883.6.88	200033	carvedilol 25 MG Oral Tablet						30	completed
95844	2002-12-14T00:00:00.0000000-06:00	2003-01-13T00:00:00.0000000-06:00		d5c2a20f-b764-4eb8-80c3-04486de78884	2.16.840.1.113883.6.88	854919	Bisoprolol Fumarate 5 MG / Hydrochlorothiazide 6.25 MG Oral Tablet						30	completed
95852	2018-09-05T00:00:00.0000000-05:00	2018-10-05T00:00:00.0000000-05:00		1e8272aa-aeff-424d-8539-35f025d02bc3	2.16.840.1.113883.6.88	860532	24 HR carvedilol phosphate 80 MG Extended Release Oral Capsule						30	completed
95860	2018-10-25T00:00:00.0000000-05:00	2018-11-24T00:00:00.0000000-06:00		e5c4c9c2-f23d-4547-9d5f-d6e67a8e1990	2.16.840.1.113883.6.88	10600	Timolol						30	completed
95860	2018-03-10T00:00:00.0000000-06:00	2018-04-09T00:00:00.0000000-05:00		19f7b0f8-3434-4690-8f27-c89a940df4ab	2.16.840.1.113883.6.88	860510	24 HR carvedilol phosphate 10 MG Extended Release Oral Capsule						30	completed
95868	1954-04-04T00:00:00.0000000-06:00	1954-05-04T00:00:00.0000000-05:00		b2a6fad5-a057-4307-ad3f-d999747a2fd4	2.16.840.1.113883.6.88	486955	ErythromycinEstolate250MGOralCapsule						30	completed
95870	1953-07-06T00:00:00.0000000-05:00	1953-08-05T00:00:00.0000000-05:00		3798a209-dfc2-4649-8237-b8c3fc17bf90	2.16.840.1.113883.6.88	141962	Azithromycin250MGOralCapsule						30	completed
95876	2018-05-06T00:00:00.0000000-05:00	2018-06-05T00:00:00.0000000-05:00		3bcb1d0d-ddc8-4681-89f5-245b3f98cd82	2.16.840.1.113883.6.88	866472	24 HR Hydrochlorothiazide 12.5 MG / metoprolol succinate 50 MG Extended Release Oral Tablet						30	completed
95884	2019-04-08T00:00:00.0000000-05:00	2019-05-08T00:00:00.0000000-05:00		cf9dbf6e-af5e-4eca-bece-bc5e43a82bf0	2.16.840.1.113883.6.88	6185	Labetalol						30	completed
95884	2018-03-16T00:00:00.0000000-05:00	2018-04-15T00:00:00.0000000-05:00		6b4acbe0-2fe7-4ffd-8c2d-ea58e0ee2ca4	2.16.840.1.113883.6.88	200032	carvedilol 12.5 MG Oral Tablet						30	completed
95892	2018-07-24T00:00:00.0000000-05:00	2018-08-23T00:00:00.0000000-05:00		65aa844d-ca54-4eea-8946-207c28445186	2.16.840.1.113883.6.88	1299068	Ampicillin225MGOralCapsule						30	completed
95900	1935-09-07T00:00:00.0000000-05:00	1935-10-07T00:00:00.0000000-05:00		ca3cb8cd-73ac-4f49-a061-52be6ecb7902	2.16.840.1.113883.6.88	791939	Amoxicillin100MGOralTablet						30	completed
95908	1952-02-11T00:00:00.0000000-06:00	1952-03-12T00:00:00.0000000-06:00		d041c61a-5912-4f11-ba64-c20d2c034971	2.16.840.1.113883.6.88	866419	24 HR metoprolol succinate 200 MG Extended Release Oral Tablet						30	completed
95916	2004-09-22T00:00:00.0000000-05:00	2004-10-22T00:00:00.0000000-05:00		08863c11-abda-4b8d-ad48-ead525c66a4b	2.16.840.1.113883.6.88	866412	24 HR metoprolol succinate 100 MG Extended Release Oral Tablet						30	completed
95924	1979-02-05T00:00:00.0000000-06:00	1979-03-07T00:00:00.0000000-06:00		a4cf1f95-1191-4537-90bc-1e0ea49b27cd	2.16.840.1.113883.6.88	250156	cefpodoxime8MGMLOralSuspension						30	completed
95927	1923-12-05T00:00:00.0000000-06:00	1924-01-04T00:00:00.0000000-06:00		6cd97b1e-43ff-4d6d-a660-99fa048e55ad	2.16.840.1.113883.6.88	105078	PenicillinG375MGMLInjectableSolution						30	completed
95927	1923-06-05T00:00:00.0000000-05:00	1923-07-05T00:00:00.0000000-05:00		85cb2360-f096-4f40-b80b-9635a59e2f76	2.16.840.1.113883.6.88	686924	carvedilol 3.125 MG Oral Tablet						30	completed
95932	1989-04-16T00:00:00.0000000-05:00	1989-05-16T00:00:00.0000000-05:00		b1439a0d-2014-49ab-ba35-839a7621d0da	2.16.840.1.113883.6.88	866461	24 HR Hydrochlorothiazide 12.5 MG / metoprolol succinate 25 MG Extended Release Oral Tablet						30	completed
95940	1987-06-20T00:00:00.0000000-05:00	1987-07-20T00:00:00.0000000-05:00		1f5d9b53-3e97-45ce-b36b-9afbce4ec1dc	2.16.840.1.113883.6.88	199277	Pindolol 15 MG Oral Tablet						30	completed
95940	1987-07-31T00:00:00.0000000-05:00	1987-08-30T00:00:00.0000000-05:00		329804b5-46d8-40b8-bcf5-845a80c66802	2.16.840.1.113883.6.88	854905	Bisoprolol Fumarate 5 MG Oral Tablet						30	completed
95942	1982-10-12T00:00:00.0000000-05:00	1982-11-11T00:00:00.0000000-06:00		db456c65-d36e-4bee-b20b-f8dbfcfaf90e	2.16.840.1.113883.6.88	866452	24 HR Hydrochlorothiazide 12.5 MG / metoprolol succinate 100 MG Extended Release Oral Tablet						30	completed
95948	2018-03-01T00:00:00.0000000-06:00	2018-03-31T00:00:00.0000000-05:00		c05cf323-5b86-4a6e-abfe-9754a7314a11	2.16.840.1.113883.6.88	866427	24 HR metoprolol succinate 25 MG Extended Release Oral Tablet						30	completed
95956	2018-11-15T00:00:00.0000000-06:00	2018-12-15T00:00:00.0000000-06:00		c9b3c799-f4a3-471d-9d1d-673f818e5a2c	2.16.840.1.113883.6.88	387066	Cefuroxime60MGMLInjectableSolution						30	completed
95956	2018-01-30T00:00:00.0000000-06:00	2018-03-01T00:00:00.0000000-06:00		f3606b50-cde7-4b2c-97cb-b1f8766ea231	2.16.840.1.113883.6.88	854901	Bisoprolol Fumarate 10 MG Oral Tablet						30	completed
95964	2018-02-02T00:00:00.0000000-06:00	2018-03-04T00:00:00.0000000-06:00		12676f34-f7eb-4df6-92c8-2c2526c23aaf	2.16.840.1.113883.6.88	866436	24 HR metoprolol succinate 50 MG Extended Release Oral Tablet						30	completed
95972	1935-10-12T00:00:00.0000000-05:00	1935-11-11T00:00:00.0000000-06:00		c13eae98-66b1-4b90-a01b-007614fd5479	2.16.840.1.113883.6.88	200031	carvedilol 6.25 MG Oral Tablet						30	completed
95980	2018-02-04T00:00:00.0000000-06:00	2018-03-06T00:00:00.0000000-06:00		aa419cf3-38c2-40cf-b667-88df0b12b1a9	2.16.840.1.113883.6.88	860516	24 HR carvedilol phosphate 20 MG Extended Release Oral Capsule						30	completed
95988	1978-02-03T00:00:00.0000000-06:00	1978-03-05T00:00:00.0000000-06:00		b4d1b833-3764-46f5-8113-48b6b1858fa9	2.16.840.1.113883.6.88	856519	Propranolol Hydrochloride 40 MG Oral Tablet						30	completed
95988	1978-03-08T00:00:00.0000000-06:00	1978-04-07T00:00:00.0000000-05:00		e7ed7d8f-d380-483f-9e4c-2da4e640384e	2.16.840.1.113883.6.88	854908	Bisoprolol Fumarate 10 MG / Hydrochlorothiazide 6.25 MG Oral Tablet						30	completed
95996	1951-11-18T00:00:00.0000000-06:00	1951-12-18T00:00:00.0000000-06:00		e1748743-d311-4b68-ba55-c76fe18be643	2.16.840.1.113883.6.88	860522	24 HR carvedilol phosphate 40 MG Extended Release Oral Capsule						30	completed
96004	2018-06-22T00:00:00.0000000-05:00	2018-07-22T00:00:00.0000000-05:00		c9066e87-9933-4ed2-8dd8-a5e850319c66	2.16.840.1.113883.6.88	1312444	Cephalexin600MGChewableTablet						30	completed
96004	2018-09-20T00:00:00.0000000-05:00	2018-10-20T00:00:00.0000000-05:00		910fd45b-94b2-4f45-9857-47779a527577	2.16.840.1.113883.6.88	854916	Bisoprolol Fumarate 2.5 MG / Hydrochlorothiazide 6.25 MG Oral Tablet						30	completed
96012	2018-01-01T00:00:00.0000000-06:00	2018-01-31T00:00:00.0000000-06:00		398a4bc0-7eec-4447-a88d-69fed865607c	2.16.840.1.113883.6.88	200033	carvedilol 25 MG Oral Tablet						30	completed
96020	2018-03-31T00:00:00.0000000-05:00	2018-04-30T00:00:00.0000000-05:00		f14bcfa7-ca84-4927-abe9-2b2ed3ac4bb1	2.16.840.1.113883.6.88	854919	Bisoprolol Fumarate 5 MG / Hydrochlorothiazide 6.25 MG Oral Tablet						30	completed
96028	2018-03-18T00:00:00.0000000-05:00	2018-04-17T00:00:00.0000000-05:00		9f9acc74-11f7-4791-99bf-eb792d1cee0f	2.16.840.1.113883.6.88	6918	Metoprolol						30	completed
96028	2018-04-19T00:00:00.0000000-05:00	2018-05-19T00:00:00.0000000-05:00		cba9d9b5-ab61-4232-b4e7-e65776a31fee	2.16.840.1.113883.6.88	860532	24 HR carvedilol phosphate 80 MG Extended Release Oral Capsule						30	completed
96036	2017-12-20T00:00:00.0000000-06:00	2018-01-19T00:00:00.0000000-06:00		f4dbc95d-d9c2-4145-982b-1cc1f7a76ca3	2.16.840.1.113883.6.88	860510	24 HR carvedilol phosphate 10 MG Extended Release Oral Capsule						30	completed
96037	1982-12-31T00:00:00.0000000-06:00	1983-01-30T00:00:00.0000000-06:00		7223837b-e3c0-4309-9721-ddc28eb77054	2.16.840.1.113883.6.88	1520	Betaxolol						30	completed
96044	1975-09-10T00:00:00.0000000-05:00	1975-10-10T00:00:00.0000000-05:00		3a6e8437-60a3-451e-a96a-9ca8d064f84e	2.16.840.1.113883.6.88	197511	Ciprofloxacin 250 MG Oral Tablet						30	completed
96052	2017-12-31T00:00:00.0000000-06:00	2018-01-30T00:00:00.0000000-06:00		13d5cab1-00ba-407f-885f-ad59b19ac857	2.16.840.1.113883.6.88	866472	24 HR Hydrochlorothiazide 12.5 MG / metoprolol succinate 50 MG Extended Release Oral Tablet						30	completed
96060	2017-12-27T00:00:00.0000000-06:00	2018-01-26T00:00:00.0000000-06:00		743a8b45-e8fc-4520-9846-22f7faecf9e4	2.16.840.1.113883.6.88	200032	carvedilol 12.5 MG Oral Tablet						30	completed
96068	2018-11-10T00:00:00.0000000-06:00	2018-12-10T00:00:00.0000000-06:00		eb27dc93-f598-45af-9bcf-55ce777e6e62	2.16.840.1.113883.6.88	226633	Ampicillin 125 MG Oral Tablet						30	completed
96076	2018-02-13T00:00:00.0000000-06:00	2018-03-15T00:00:00.0000000-05:00		18a3ea48-2ca0-4a44-af6a-764247b2c02f	2.16.840.1.113883.6.88	866419	24 HR metoprolol succinate 200 MG Extended Release Oral Tablet						30	completed
96084	1976-06-18T00:00:00.0000000-05:00	1976-07-18T00:00:00.0000000-05:00		83d015ac-cf30-463f-bd0c-db0b563beea6	2.16.840.1.113883.6.88	866412	24 HR metoprolol succinate 100 MG Extended Release Oral Tablet						30	completed
96092	1982-06-30T00:00:00.0000000-05:00	1982-07-30T00:00:00.0000000-05:00		a1508ac2-c01c-4f32-a5e8-50dbf4fa9af5	2.16.840.1.113883.6.88	686924	carvedilol 3.125 MG Oral Tablet						30	completed
96100	2018-02-13T00:00:00.0000000-06:00	2018-03-15T00:00:00.0000000-05:00		761ea9cc-0596-4f67-ac54-20c380945c00	2.16.840.1.113883.6.88	866461	24 HR Hydrochlorothiazide 12.5 MG / metoprolol succinate 25 MG Extended Release Oral Tablet						30	completed
96102	2018-01-11T00:00:00.0000000-06:00	2018-02-10T00:00:00.0000000-06:00		f5baa072-761c-4569-bd72-eda0fb602f96	2.16.840.1.113883.6.88	854905	Bisoprolol Fumarate 5 MG Oral Tablet						30	completed
96108	1953-06-06T00:00:00.0000000-05:00	1953-07-06T00:00:00.0000000-05:00		61722877-6026-48f1-a239-7ad2c018bb62	2.16.840.1.113883.6.88	866452	24 HR Hydrochlorothiazide 12.5 MG / metoprolol succinate 100 MG Extended Release Oral Tablet						30	completed
96116	2018-02-07T00:00:00.0000000-06:00	2018-03-09T00:00:00.0000000-06:00		ba6d4f95-2efc-4263-98cc-7c09bcbf01d7	2.16.840.1.113883.6.88	854908	Bisoprolol Fumarate 10 MG / Hydrochlorothiazide 6.25 MG Oral Tablet						30	completed
96116	2018-02-15T00:00:00.0000000-06:00	2018-03-17T00:00:00.0000000-05:00		22493df7-8230-4872-9bd4-1de9cf891ff0	2.16.840.1.113883.6.88	866427	24 HR metoprolol succinate 25 MG Extended Release Oral Tablet						30	completed
96124	2018-08-26T00:00:00.0000000-05:00	2018-09-25T00:00:00.0000000-05:00		3ecb7d36-38ef-4413-90f1-c7558071a409	2.16.840.1.113883.6.88	854901	Bisoprolol Fumarate 10 MG Oral Tablet						30	completed
96132	2017-12-15T00:00:00.0000000-06:00	2018-01-14T00:00:00.0000000-06:00		33aa72fb-608e-4c26-a5c5-e8ab587d2d6c	2.16.840.1.113883.6.88	20352	carvedilol						30	completed
96132	2018-01-08T00:00:00.0000000-06:00	2018-02-07T00:00:00.0000000-06:00		7c7c82c3-adcd-44ea-b632-387b30f10112	2.16.840.1.113883.6.88	866436	24 HR metoprolol succinate 50 MG Extended Release Oral Tablet						30	completed
96140	2019-02-23T00:00:00.0000000-06:00	2019-03-25T00:00:00.0000000-05:00		c235a62f-54fe-49f5-be0a-2ed74fa1e8a4	2.16.840.1.113883.6.88	200031	carvedilol 6.25 MG Oral Tablet						30	completed
96148	2018-12-14T00:00:00.0000000-06:00	2019-01-13T00:00:00.0000000-06:00		78781e47-5af3-4af9-a792-307f9bc824b0	2.16.840.1.113883.6.88	8787	Propranolol						30	completed
96148	2018-02-18T00:00:00.0000000-06:00	2018-03-20T00:00:00.0000000-05:00		87c11ae8-6e39-4949-93be-9878f855b360	2.16.840.1.113883.6.88	860516	24 HR carvedilol phosphate 20 MG Extended Release Oral Capsule						30	completed
96156	2018-02-15T00:00:00.0000000-06:00	2018-03-17T00:00:00.0000000-05:00		53b4fc0c-3607-4112-807c-099c3702cbb0	2.16.840.1.113883.6.88	854908	Bisoprolol Fumarate 10 MG / Hydrochlorothiazide 6.25 MG Oral Tablet						30	completed
96164	1987-10-03T00:00:00.0000000-05:00	1987-11-02T00:00:00.0000000-06:00		a23085e5-581c-4580-a076-d34f10e774f5	2.16.840.1.113883.6.88	860522	24 HR carvedilol phosphate 40 MG Extended Release Oral Capsule						30	completed
96172	1949-03-26T00:00:00.0000000-06:00	1949-04-25T00:00:00.0000000-05:00		b9e6e87c-3455-4acf-a9a4-a94532864972	2.16.840.1.113883.6.88	854916	Bisoprolol Fumarate 2.5 MG / Hydrochlorothiazide 6.25 MG Oral Tablet						30	completed
96180	1921-11-24T00:00:00.0000000-06:00	1921-12-24T00:00:00.0000000-06:00		ea2494ba-09b7-48ba-88de-1c6fe9a62749	2.16.840.1.113883.6.88	200033	carvedilol 25 MG Oral Tablet						30	completed
96188	1961-10-26T00:00:00.0000000-05:00	1961-11-25T00:00:00.0000000-06:00		aeecef99-ad9a-4fdc-aff3-67e30318c4b1	2.16.840.1.113883.6.88	854919	Bisoprolol Fumarate 5 MG / Hydrochlorothiazide 6.25 MG Oral Tablet						30	completed
96196	2018-01-24T00:00:00.0000000-06:00	2018-02-23T00:00:00.0000000-06:00		b9c9e253-a3d2-401f-851a-fbd38614fca7	2.16.840.1.113883.6.88	860532	24 HR carvedilol phosphate 80 MG Extended Release Oral Capsule						30	completed
96204	1950-12-05T00:00:00.0000000-06:00	1951-01-04T00:00:00.0000000-06:00		5c80e56e-3126-444b-86d6-d58553875941	2.16.840.1.113883.6.88	860510	24 HR carvedilol phosphate 10 MG Extended Release Oral Capsule						30	completed
96205	1981-03-01T00:00:00.0000000-06:00	1981-03-31T00:00:00.0000000-06:00		87fc9770-4014-49bb-a4b2-884cb48cec73	2.16.840.1.113883.6.88	856733	Propranolol Hydrochloride 8 MG/ML Oral Solution						30	completed
96212	2018-02-13T00:00:00.0000000-06:00	2018-03-15T00:00:00.0000000-05:00		722c74c6-3b60-47f6-b11d-5e02141be5ac	2.16.840.1.113883.6.88	199495	Oxprenolol 40 MG Oral Tablet						30	completed
96212	2018-01-18T00:00:00.0000000-06:00	2018-02-17T00:00:00.0000000-06:00		c399766c-881a-4563-92e9-100474e8976c	2.16.840.1.113883.6.88	866472	24 HR Hydrochlorothiazide 12.5 MG / metoprolol succinate 50 MG Extended Release Oral Tablet						30	completed
96220	1967-10-17T00:00:00.0000000-05:00	1967-11-16T00:00:00.0000000-06:00		985d3d6f-b0b3-4c0c-b95a-d5d80dc1df69	2.16.840.1.113883.6.88	200032	carvedilol 12.5 MG Oral Tablet						30	completed
96228	2018-01-14T00:00:00.0000000-06:00	2018-02-13T00:00:00.0000000-06:00		0536ac99-fdd8-4e1e-89c1-e34436faaf1b	2.16.840.1.113883.6.88	866419	24 HR metoprolol succinate 200 MG Extended Release Oral Tablet						30	completed
96236	2018-01-08T00:00:00.0000000-06:00	2018-02-07T00:00:00.0000000-06:00		8f42635d-d05e-4d29-9f31-0b5f89f8b2f9	2.16.840.1.113883.6.88	866412	24 HR metoprolol succinate 100 MG Extended Release Oral Tablet						30	completed
96239	2018-06-13T00:00:00.0000000-05:00	2018-07-13T00:00:00.0000000-05:00		1696068f-c887-4ebd-b343-1624306d084a	2.16.840.1.113883.6.88	745286	PenicillinGPotassium250000UNTOralTablet						30	completed
96244	2018-02-20T00:00:00.0000000-06:00	2018-03-22T00:00:00.0000000-05:00		06ec8631-51b8-4ce6-9a45-bedff183d8eb	2.16.840.1.113883.6.88	686924	carvedilol 3.125 MG Oral Tablet						30	completed
96252	2018-01-19T00:00:00.0000000-06:00	2018-02-18T00:00:00.0000000-06:00		43a6ae19-7c8c-4486-ab21-8c209083363f	2.16.840.1.113883.6.88	2116	Carteolol						30	completed
96252	2018-02-27T00:00:00.0000000-06:00	2018-03-29T00:00:00.0000000-05:00		16680291-2dab-4d83-905a-2287b1ebf27f	2.16.840.1.113883.6.88	866461	24 HR Hydrochlorothiazide 12.5 MG / metoprolol succinate 25 MG Extended Release Oral Tablet						30	completed
96260	2018-02-07T00:00:00.0000000-06:00	2018-03-09T00:00:00.0000000-06:00		ec0fd83f-4d9e-4213-a271-d04cf9714dff	2.16.840.1.113883.6.88	854905	Bisoprolol Fumarate 5 MG Oral Tablet						30	completed
96263	2018-01-26T00:00:00.0000000-06:00	2018-02-25T00:00:00.0000000-06:00		36128ebc-adc9-486c-9535-36ec8b33a042	2.16.840.1.113883.6.88	1191185	Penbutolol Sulfate 20 MG Oral Tablet						30	completed
96263	2018-03-10T00:00:00.0000000-06:00	2018-04-09T00:00:00.0000000-05:00		5870fd11-2121-4c12-b7d0-5600d7e08000	2.16.840.1.113883.6.88	866452	24 HR Hydrochlorothiazide 12.5 MG / metoprolol succinate 100 MG Extended Release Oral Tablet						30	completed
96268	2018-01-31T00:00:00.0000000-06:00	2018-03-02T00:00:00.0000000-06:00		10370d84-fa50-4df5-8d5e-c49dbc7f2ad0	2.16.840.1.113883.6.88	866427	24 HR metoprolol succinate 25 MG Extended Release Oral Tablet						30	completed
96276	1977-12-22T00:00:00.0000000-06:00	1978-01-21T00:00:00.0000000-06:00		cb3d02ad-3e47-4424-b844-e76d02f131c9	2.16.840.1.113883.6.88	854901	Bisoprolol Fumarate 10 MG Oral Tablet						30	completed
96284	2018-12-14T00:00:00.0000000-06:00	2019-01-13T00:00:00.0000000-06:00		10886fc1-88f4-43d5-822a-7cc74b6b12db	2.16.840.1.113883.6.88	1013659	24 HR Minocycline 105 MG Extended Release Oral Tablet						30	completed
96292	2017-12-13T00:00:00.0000000-06:00	2018-01-12T00:00:00.0000000-06:00		8b1809ae-5bdc-4484-afc1-8f804483d010	2.16.840.1.113883.6.88	827073	nebivolol 20 MG Oral Tablet						30	completed
96292	2018-01-19T00:00:00.0000000-06:00	2018-02-18T00:00:00.0000000-06:00		cb221ad3-dec0-4d36-9812-1f0608196ef0	2.16.840.1.113883.6.88	866436	24 HR metoprolol succinate 50 MG Extended Release Oral Tablet						30	completed
96300	2011-04-17T00:00:00.0000000-05:00	2011-05-17T00:00:00.0000000-05:00		68c23d06-b51f-4fc9-a2a0-488c3e4618b7	2.16.840.1.113883.6.88	200031	carvedilol 6.25 MG Oral Tablet						30	completed
96308	2018-11-16T00:00:00.0000000-06:00	2018-12-16T00:00:00.0000000-06:00		f76f9972-8506-4f77-a227-2006f3715f56	2.16.840.1.113883.6.88	860516	24 HR carvedilol phosphate 20 MG Extended Release Oral Capsule						30	completed
96316	1972-10-20T00:00:00.0000000-05:00	1972-11-19T00:00:00.0000000-06:00		103ea379-1e1f-4748-9145-e2c1de555d52	2.16.840.1.113883.6.88	198084	Phenobarbital16MGOralCapsule						30	completed
96324	2018-05-09T00:00:00.0000000-05:00	2018-06-08T00:00:00.0000000-05:00		b4d62548-3379-4f44-91d2-c5d7331ad67b	2.16.840.1.113883.6.88	198332	Trimethoprim 100 MG Oral Tablet						30	completed
96332	2019-02-08T00:00:00.0000000-06:00	2019-03-10T00:00:00.0000000-06:00		21e0f35f-35a6-4525-ac43-675f70ded4b5	2.16.840.1.113883.6.88	199884	Levofloxacin 250 MG Oral Tablet						30	completed
96332	2018-01-24T00:00:00.0000000-06:00	2018-02-23T00:00:00.0000000-06:00		50f4f11a-0c4d-495b-8cce-91ef00b520b3	2.16.840.1.113883.6.88	854908	Bisoprolol Fumarate 10 MG / Hydrochlorothiazide 6.25 MG Oral Tablet						30	completed
96335	2019-03-31T00:00:00.0000000-05:00	2019-04-30T00:00:00.0000000-05:00		ed45bb83-92ea-41fd-9d6b-2e1e083916b4	2.16.840.1.113883.6.88	7226	Nadolol						30	completed
96340	1994-03-11T00:00:00.0000000-06:00	1994-04-10T00:00:00.0000000-05:00		fac6ce8a-1b45-4aed-8306-3c3d635d757b	2.16.840.1.113883.6.88	860522	24 HR carvedilol phosphate 40 MG Extended Release Oral Capsule						30	completed
96348	2018-04-08T00:00:00.0000000-05:00	2018-05-08T00:00:00.0000000-05:00		6bb50c90-eee8-4953-8527-dbb64779e150	2.16.840.1.113883.6.88	854916	Bisoprolol Fumarate 2.5 MG / Hydrochlorothiazide 6.25 MG Oral Tablet						30	completed
96356	1987-11-21T00:00:00.0000000-06:00	1987-12-21T00:00:00.0000000-06:00		16fbe722-3791-4821-9993-662b98f89454	2.16.840.1.113883.6.88	200033	carvedilol 25 MG Oral Tablet						30	completed
96364	2018-12-06T00:00:00.0000000-06:00	2019-01-05T00:00:00.0000000-06:00		8a7c270d-097e-4dbc-b70c-cf7d8313a185	2.16.840.1.113883.6.88	854919	Bisoprolol Fumarate 5 MG / Hydrochlorothiazide 6.25 MG Oral Tablet						30	completed
96372	1981-01-31T00:00:00.0000000-06:00	1981-03-02T00:00:00.0000000-06:00		45304c29-e54e-4690-af4b-cf87f0139afb	2.16.840.1.113883.6.88	860532	24 HR carvedilol phosphate 80 MG Extended Release Oral Capsule						30	completed
96380	2017-12-12T00:00:00.0000000-06:00	2018-01-11T00:00:00.0000000-06:00		d9050a6c-64c9-4304-aeb3-e4effb55068a	2.16.840.1.113883.6.88	860510	24 HR carvedilol phosphate 10 MG Extended Release Oral Capsule						30	completed
96388	2018-02-12T00:00:00.0000000-06:00	2018-03-14T00:00:00.0000000-05:00		93456b5c-a23a-42be-bde0-2ac6307efcac	2.16.840.1.113883.6.88	866472	24 HR Hydrochlorothiazide 12.5 MG / metoprolol succinate 50 MG Extended Release Oral Tablet						30	completed
