{
   "library" : {
      "identifier" : {
         "id" : "Hospice",
         "version" : "0.1.000"
      },
      "schemaIdentifier" : {
         "id" : "urn:hl7-org:elm",
         "version" : "r1"
      },
      "usings" : {
         "def" : [ {
            "localIdentifier" : "System",
            "uri" : "urn:hl7-org:elm-types:r1"
         }, {
            "localId" : "1",
            "locator" : "3:1-3:23",
            "localIdentifier" : "QDM",
            "uri" : "urn:healthit-gov:qdm:v5_3",
            "version" : "5.3"
         } ]
      },
      "parameters" : {
         "def" : [ {
            "localId" : "19",
            "locator" : "19:1-19:49",
            "name" : "Measurement Period",
            "accessLevel" : "Public",
            "parameterTypeSpecifier" : {
               "localId" : "18",
               "locator" : "19:32-19:49",
               "type" : "IntervalTypeSpecifier",
               "pointType" : {
                  "localId" : "17",
                  "locator" : "19:41-19:48",
                  "name" : "{urn:hl7-org:elm-types:r1}DateTime",
                  "type" : "NamedTypeSpecifier"
               }
            }
         } ]
      },
      "codeSystems" : {
         "def" : [ {
            "localId" : "2",
            "locator" : "5:1-5:87",
            "name" : "LOINC:2.46",
            "id" : "urn:oid:2.16.840.1.113883.6.1",
            "version" : "urn:hl7:version:2.46",
            "accessLevel" : "Public"
         }, {
            "localId" : "3",
            "locator" : "6:1-6:97",
            "name" : "SNOMEDCT:2016-03",
            "id" : "urn:oid:2.16.840.1.113883.6.96",
            "version" : "urn:hl7:version:2016-03",
            "accessLevel" : "Public"
         }, {
            "localId" : "4",
            "locator" : "7:1-7:97",
            "name" : "SNOMEDCT:2017-03",
            "id" : "urn:oid:2.16.840.1.113883.6.96",
            "version" : "urn:hl7:version:2017-03",
            "accessLevel" : "Public"
         } ]
      },
      "valueSets" : {
         "def" : [ {
            "localId" : "5",
            "locator" : "9:1-9:107",
            "name" : "Discharged to Health Care Facility for Hospice Care",
            "id" : "urn:oid:2.16.840.1.113883.3.117.1.7.1.207",
            "accessLevel" : "Public"
         }, {
            "localId" : "6",
            "locator" : "10:1-10:91",
            "name" : "Discharged to Home for Hospice Care",
            "id" : "urn:oid:2.16.840.1.113883.3.117.1.7.1.209",
            "accessLevel" : "Public"
         }, {
            "localId" : "7",
            "locator" : "11:1-11:71",
            "name" : "Encounter Inpatient",
            "id" : "urn:oid:2.16.840.1.113883.3.666.5.307",
            "accessLevel" : "Public"
         }, {
            "localId" : "8",
            "locator" : "12:1-12:75",
            "name" : "Hospice care ambulatory",
            "id" : "urn:oid:2.16.840.1.113762.1.4.1108.15",
            "accessLevel" : "Public"
         } ]
      },
      "codes" : {
         "def" : [ {
            "localId" : "10",
            "locator" : "14:1-14:66",
            "name" : "Birthdate",
            "id" : "21112-8",
            "display" : "Birth date",
            "accessLevel" : "Public",
            "codeSystem" : {
               "localId" : "9",
               "locator" : "14:34-14:45",
               "name" : "LOINC:2.46"
            }
         }, {
            "localId" : "12",
            "locator" : "15:1-15:63",
            "name" : "Dead",
            "id" : "419099009",
            "display" : "Dead",
            "accessLevel" : "Public",
            "codeSystem" : {
               "localId" : "11",
               "locator" : "15:31-15:48",
               "name" : "SNOMEDCT:2016-03"
            }
         }, {
            "localId" : "14",
            "locator" : "16:1-16:183",
            "name" : "Discharge to healthcare facility for hospice care (procedure)",
            "id" : "428371000124100",
            "display" : "Discharge to healthcare facility for hospice care (procedure)",
            "accessLevel" : "Public",
            "codeSystem" : {
               "localId" : "13",
               "locator" : "16:94-16:111",
               "name" : "SNOMEDCT:2017-03"
            }
         }, {
            "localId" : "16",
            "locator" : "17:1-17:153",
            "name" : "Discharge to home for hospice care (procedure)",
            "id" : "428361000124107",
            "display" : "Discharge to home for hospice care (procedure)",
            "accessLevel" : "Public",
            "codeSystem" : {
               "localId" : "15",
               "locator" : "17:79-17:96",
               "name" : "SNOMEDCT:2017-03"
            }
         } ]
      },
      "statements" : {
         "def" : [ {
            "locator" : "21:1-21:15",
            "name" : "Patient",
            "context" : "Patient",
            "expression" : {
               "type" : "SingletonFrom",
               "operand" : {
                  "locator" : "21:1-21:15",
                  "dataType" : "{urn:healthit-gov:qdm:v5_3}Patient",
                  "templateId" : "Patient",
                  "type" : "Retrieve"
               }
            }
         }, {
            "localId" : "60",
            "locator" : "23:1-35:3",
            "name" : "Has Hospice",
            "context" : "Patient",
            "accessLevel" : "Public",
            "annotation" : [ {
               "type" : "Annotation",
               "s" : {
                  "r" : "60",
                  "s" : [ {
                     "value" : [ "define ","\"Has Hospice\"",":\n\t" ]
                  }, {
                     "r" : "59",
                     "s" : [ {
                        "r" : "50",
                        "s" : [ {
                           "r" : "41",
                           "s" : [ {
                              "value" : [ "exists " ]
                           }, {
                              "r" : "40",
                              "s" : [ {
                                 "value" : [ "( " ]
                              }, {
                                 "r" : "40",
                                 "s" : [ {
                                    "s" : [ {
                                       "r" : "21",
                                       "s" : [ {
                                          "r" : "20",
                                          "s" : [ {
                                             "r" : "20",
                                             "s" : [ {
                                                "value" : [ "[","\"Encounter, Performed\"",": " ]
                                             }, {
                                                "s" : [ {
                                                   "value" : [ "\"Encounter Inpatient\"" ]
                                                } ]
                                             }, {
                                                "value" : [ "]" ]
                                             } ]
                                          } ]
                                       }, {
                                          "value" : [ " ","DischargeHospice" ]
                                       } ]
                                    } ]
                                 }, {
                                    "value" : [ "\n\t\t\t" ]
                                 }, {
                                    "r" : "39",
                                    "s" : [ {
                                       "value" : [ "where " ]
                                    }, {
                                       "r" : "39",
                                       "s" : [ {
                                          "r" : "34",
                                          "s" : [ {
                                             "value" : [ "( " ]
                                          }, {
                                             "r" : "34",
                                             "s" : [ {
                                                "r" : "27",
                                                "s" : [ {
                                                   "r" : "25",
                                                   "s" : [ {
                                                      "r" : "23",
                                                      "s" : [ {
                                                         "r" : "22",
                                                         "s" : [ {
                                                            "value" : [ "DischargeHospice" ]
                                                         } ]
                                                      }, {
                                                         "value" : [ "." ]
                                                      }, {
                                                         "r" : "23",
                                                         "s" : [ {
                                                            "value" : [ "dischargeDisposition" ]
                                                         } ]
                                                      } ]
                                                   }, {
                                                      "value" : [ " as " ]
                                                   }, {
                                                      "r" : "24",
                                                      "s" : [ {
                                                         "value" : [ "Code" ]
                                                      } ]
                                                   } ]
                                                }, {
                                                   "value" : [ " ","~"," " ]
                                                }, {
                                                   "r" : "26",
                                                   "s" : [ {
                                                      "value" : [ "\"Discharge to home for hospice care (procedure)\"" ]
                                                   } ]
                                                } ]
                                             }, {
                                                "value" : [ "\n\t\t\t\t\tor " ]
                                             }, {
                                                "r" : "33",
                                                "s" : [ {
                                                   "r" : "31",
                                                   "s" : [ {
                                                      "r" : "29",
                                                      "s" : [ {
                                                         "r" : "28",
                                                         "s" : [ {
                                                            "value" : [ "DischargeHospice" ]
                                                         } ]
                                                      }, {
                                                         "value" : [ "." ]
                                                      }, {
                                                         "r" : "29",
                                                         "s" : [ {
                                                            "value" : [ "dischargeDisposition" ]
                                                         } ]
                                                      } ]
                                                   }, {
                                                      "value" : [ " as " ]
                                                   }, {
                                                      "r" : "30",
                                                      "s" : [ {
                                                         "value" : [ "Code" ]
                                                      } ]
                                                   } ]
                                                }, {
                                                   "value" : [ " ","~"," " ]
                                                }, {
                                                   "r" : "32",
                                                   "s" : [ {
                                                      "value" : [ "\"Discharge to healthcare facility for hospice care (procedure)\"" ]
                                                   } ]
                                                } ]
                                             } ]
                                          }, {
                                             "value" : [ "\n\t\t\t)" ]
                                          } ]
                                       }, {
                                          "value" : [ "\n\t\t\t\tand " ]
                                       }, {
                                          "r" : "38",
                                          "s" : [ {
                                             "r" : "36",
                                             "s" : [ {
                                                "r" : "35",
                                                "s" : [ {
                                                   "value" : [ "DischargeHospice" ]
                                                } ]
                                             }, {
                                                "value" : [ "." ]
                                             }, {
                                                "r" : "36",
                                                "s" : [ {
                                                   "value" : [ "relevantPeriod" ]
                                                } ]
                                             } ]
                                          }, {
                                             "value" : [ " ","ends during"," " ]
                                          }, {
                                             "r" : "37",
                                             "s" : [ {
                                                "value" : [ "\"Measurement Period\"" ]
                                             } ]
                                          } ]
                                       } ]
                                    } ]
                                 } ]
                              }, {
                                 "value" : [ "\n\t)" ]
                              } ]
                           } ]
                        }, {
                           "value" : [ "\n\t\tor " ]
                        }, {
                           "r" : "49",
                           "s" : [ {
                              "value" : [ "exists " ]
                           }, {
                              "r" : "48",
                              "s" : [ {
                                 "value" : [ "( " ]
                              }, {
                                 "r" : "48",
                                 "s" : [ {
                                    "s" : [ {
                                       "r" : "43",
                                       "s" : [ {
                                          "r" : "42",
                                          "s" : [ {
                                             "r" : "42",
                                             "s" : [ {
                                                "value" : [ "[","\"Intervention, Order\"",": " ]
                                             }, {
                                                "s" : [ {
                                                   "value" : [ "\"Hospice care ambulatory\"" ]
                                                } ]
                                             }, {
                                                "value" : [ "]" ]
                                             } ]
                                          } ]
                                       }, {
                                          "value" : [ " ","HospiceOrder" ]
                                       } ]
                                    } ]
                                 }, {
                                    "value" : [ "\n\t\t\t\t" ]
                                 }, {
                                    "r" : "47",
                                    "s" : [ {
                                       "value" : [ "where " ]
                                    }, {
                                       "r" : "47",
                                       "s" : [ {
                                          "r" : "45",
                                          "s" : [ {
                                             "r" : "44",
                                             "s" : [ {
                                                "value" : [ "HospiceOrder" ]
                                             } ]
                                          }, {
                                             "value" : [ "." ]
                                          }, {
                                             "r" : "45",
                                             "s" : [ {
                                                "value" : [ "authorDatetime" ]
                                             } ]
                                          } ]
                                       }, {
                                          "value" : [ " ","during"," " ]
                                       }, {
                                          "r" : "46",
                                          "s" : [ {
                                             "value" : [ "\"Measurement Period\"" ]
                                          } ]
                                       } ]
                                    } ]
                                 } ]
                              }, {
                                 "value" : [ "\n\t\t)" ]
                              } ]
                           } ]
                        } ]
                     }, {
                        "value" : [ "\n\t\tor " ]
                     }, {
                        "r" : "58",
                        "s" : [ {
                           "value" : [ "exists " ]
                        }, {
                           "r" : "57",
                           "s" : [ {
                              "value" : [ "( " ]
                           }, {
                              "r" : "57",
                              "s" : [ {
                                 "s" : [ {
                                    "r" : "52",
                                    "s" : [ {
                                       "r" : "51",
                                       "s" : [ {
                                          "r" : "51",
                                          "s" : [ {
                                             "value" : [ "[","\"Intervention, Performed\"",": " ]
                                          }, {
                                             "s" : [ {
                                                "value" : [ "\"Hospice care ambulatory\"" ]
                                             } ]
                                          }, {
                                             "value" : [ "]" ]
                                          } ]
                                       } ]
                                    }, {
                                       "value" : [ " ","HospicePerformed" ]
                                    } ]
                                 } ]
                              }, {
                                 "value" : [ "\n\t\t\t\t" ]
                              }, {
                                 "r" : "56",
                                 "s" : [ {
                                    "value" : [ "where " ]
                                 }, {
                                    "r" : "56",
                                    "s" : [ {
                                       "r" : "54",
                                       "s" : [ {
                                          "r" : "53",
                                          "s" : [ {
                                             "value" : [ "HospicePerformed" ]
                                          } ]
                                       }, {
                                          "value" : [ "." ]
                                       }, {
                                          "r" : "54",
                                          "s" : [ {
                                             "value" : [ "relevantPeriod" ]
                                          } ]
                                       } ]
                                    }, {
                                       "value" : [ " ","overlaps"," " ]
                                    }, {
                                       "r" : "55",
                                       "s" : [ {
                                          "value" : [ "\"Measurement Period\"" ]
                                       } ]
                                    } ]
                                 } ]
                              } ]
                           }, {
                              "value" : [ "\n\t\t)" ]
                           } ]
                        } ]
                     } ]
                  } ]
               }
            } ],
            "expression" : {
               "localId" : "59",
               "locator" : "24:2-35:3",
               "type" : "Or",
               "operand" : [ {
                  "localId" : "50",
                  "locator" : "24:2-32:3",
                  "type" : "Or",
                  "operand" : [ {
                     "localId" : "41",
                     "locator" : "24:2-29:2",
                     "type" : "Exists",
                     "operand" : {
                        "localId" : "40",
                        "locator" : "24:9-29:2",
                        "type" : "Query",
                        "source" : [ {
                           "localId" : "21",
                           "locator" : "24:11-24:74",
                           "alias" : "DischargeHospice",
                           "expression" : {
                              "localId" : "20",
                              "locator" : "24:11-24:57",
                              "dataType" : "{urn:healthit-gov:qdm:v5_3}PositiveEncounterPerformed",
                              "templateId" : "PositiveEncounterPerformed",
                              "codeProperty" : "code",
                              "type" : "Retrieve",
                              "codes" : {
                                 "name" : "Encounter Inpatient",
                                 "type" : "ValueSetRef"
                              }
                           }
                        } ],
                        "relationship" : [ ],
                        "where" : {
                           "localId" : "39",
                           "locator" : "25:4-28:72",
                           "type" : "And",
                           "operand" : [ {
                              "localId" : "34",
                              "locator" : "25:10-27:4",
                              "type" : "Or",
                              "operand" : [ {
                                 "localId" : "27",
                                 "locator" : "25:12-25:107",
                                 "type" : "Equivalent",
                                 "operand" : [ {
                                    "localId" : "25",
                                    "locator" : "25:12-25:56",
                                    "strict" : false,
                                    "type" : "As",
                                    "operand" : {
                                       "localId" : "23",
                                       "locator" : "25:12-25:48",
                                       "path" : "dischargeDisposition",
                                       "scope" : "DischargeHospice",
                                       "type" : "Property"
                                    },
                                    "asTypeSpecifier" : {
                                       "localId" : "24",
                                       "locator" : "25:53-25:56",
                                       "name" : "{urn:hl7-org:elm-types:r1}Code",
                                       "type" : "NamedTypeSpecifier"
                                    }
                                 }, {
                                    "localId" : "26",
                                    "locator" : "25:60-25:107",
                                    "name" : "Discharge to home for hospice care (procedure)",
                                    "type" : "CodeRef"
                                 } ]
                              }, {
                                 "localId" : "33",
                                 "locator" : "26:9-26:119",
                                 "type" : "Equivalent",
                                 "operand" : [ {
                                    "localId" : "31",
                                    "locator" : "26:9-26:53",
                                    "strict" : false,
                                    "type" : "As",
                                    "operand" : {
                                       "localId" : "29",
                                       "locator" : "26:9-26:45",
                                       "path" : "dischargeDisposition",
                                       "scope" : "DischargeHospice",
                                       "type" : "Property"
                                    },
                                    "asTypeSpecifier" : {
                                       "localId" : "30",
                                       "locator" : "26:50-26:53",
                                       "name" : "{urn:hl7-org:elm-types:r1}Code",
                                       "type" : "NamedTypeSpecifier"
                                    }
                                 }, {
                                    "localId" : "32",
                                    "locator" : "26:57-26:119",
                                    "name" : "Discharge to healthcare facility for hospice care (procedure)",
                                    "type" : "CodeRef"
                                 } ]
                              } ]
                           }, {
                              "localId" : "38",
                              "locator" : "28:9-28:72",
                              "type" : "In",
                              "operand" : [ {
                                 "locator" : "28:41-28:44",
                                 "type" : "End",
                                 "operand" : {
                                    "localId" : "36",
                                    "locator" : "28:9-28:39",
                                    "path" : "relevantPeriod",
                                    "scope" : "DischargeHospice",
                                    "type" : "Property"
                                 }
                              }, {
                                 "localId" : "37",
                                 "locator" : "28:53-28:72",
                                 "name" : "Measurement Period",
                                 "type" : "ParameterRef"
                              } ]
                           } ]
                        }
                     }
                  }, {
                     "localId" : "49",
                     "locator" : "30:6-32:3",
                     "type" : "Exists",
                     "operand" : {
                        "localId" : "48",
                        "locator" : "30:13-32:3",
                        "type" : "Query",
                        "source" : [ {
                           "localId" : "43",
                           "locator" : "30:15-30:77",
                           "alias" : "HospiceOrder",
                           "expression" : {
                              "localId" : "42",
                              "locator" : "30:15-30:64",
                              "dataType" : "{urn:healthit-gov:qdm:v5_3}PositiveInterventionOrder",
                              "templateId" : "PositiveInterventionOrder",
                              "codeProperty" : "code",
                              "type" : "Retrieve",
                              "codes" : {
                                 "name" : "Hospice care ambulatory",
                                 "type" : "ValueSetRef"
                              }
                           }
                        } ],
                        "relationship" : [ ],
                        "where" : {
                           "localId" : "47",
                           "locator" : "31:5-31:65",
                           "type" : "In",
                           "operand" : [ {
                              "localId" : "45",
                              "locator" : "31:11-31:37",
                              "path" : "authorDatetime",
                              "scope" : "HospiceOrder",
                              "type" : "Property"
                           }, {
                              "localId" : "46",
                              "locator" : "31:46-31:65",
                              "name" : "Measurement Period",
                              "type" : "ParameterRef"
                           } ]
                        }
                     }
                  } ]
               }, {
                  "localId" : "58",
                  "locator" : "33:6-35:3",
                  "type" : "Exists",
                  "operand" : {
                     "localId" : "57",
                     "locator" : "33:13-35:3",
                     "type" : "Query",
                     "source" : [ {
                        "localId" : "52",
                        "locator" : "33:15-33:85",
                        "alias" : "HospicePerformed",
                        "expression" : {
                           "localId" : "51",
                           "locator" : "33:15-33:68",
                           "dataType" : "{urn:healthit-gov:qdm:v5_3}PositiveInterventionPerformed",
                           "templateId" : "PositiveInterventionPerformed",
                           "codeProperty" : "code",
                           "type" : "Retrieve",
                           "codes" : {
                              "name" : "Hospice care ambulatory",
                              "type" : "ValueSetRef"
                           }
                        }
                     } ],
                     "relationship" : [ ],
                     "where" : {
                        "localId" : "56",
                        "locator" : "34:5-34:71",
                        "type" : "Overlaps",
                        "operand" : [ {
                           "localId" : "54",
                           "locator" : "34:11-34:41",
                           "path" : "relevantPeriod",
                           "scope" : "HospicePerformed",
                           "type" : "Property"
                        }, {
                           "localId" : "55",
                           "locator" : "34:52-34:71",
                           "name" : "Measurement Period",
                           "type" : "ParameterRef"
                        } ]
                     }
                  }
               } ]
            }
         } ]
      }
   }
}