{
   "library" : {
      "identifier" : {
         "id" : "ChildandAdolescentMajorDepressiveDisorderMDDSuicideRiskAssessment",
         "version" : "7.0.004"
      },
      "schemaIdentifier" : {
         "id" : "urn:hl7-org:elm",
         "version" : "r1"
      },
      "usings" : {
         "def" : [ {
            "localIdentifier" : "System",
            "uri" : "urn:hl7-org:elm-types:r1"
         }, {
            "localId" : "1",
            "locator" : "3:1-3:23",
            "localIdentifier" : "QDM",
            "uri" : "urn:healthit-gov:qdm:v5_3",
            "version" : "5.3"
         } ]
      },
      "includes" : {
         "def" : [ {
            "localId" : "2",
            "locator" : "5:1-5:64",
            "localIdentifier" : "Global",
            "path" : "MATGlobalCommonFunctions",
            "version" : "2.0.000"
         } ]
      },
      "parameters" : {
         "def" : [ {
            "localId" : "20",
            "locator" : "24:1-24:49",
            "name" : "Measurement Period",
            "accessLevel" : "Public",
            "parameterTypeSpecifier" : {
               "localId" : "19",
               "locator" : "24:32-24:49",
               "type" : "IntervalTypeSpecifier",
               "pointType" : {
                  "localId" : "18",
                  "locator" : "24:41-24:48",
                  "name" : "{urn:hl7-org:elm-types:r1}DateTime",
                  "type" : "NamedTypeSpecifier"
               }
            }
         } ]
      },
      "codeSystems" : {
         "def" : [ {
            "localId" : "3",
            "locator" : "7:1-7:97",
            "name" : "SNOMEDCT:2017-09",
            "id" : "urn:oid:2.16.840.1.113883.6.96",
            "version" : "urn:hl7:version:2017-09",
            "accessLevel" : "Public"
         } ]
      },
      "valueSets" : {
         "def" : [ {
            "localId" : "4",
            "locator" : "9:1-9:68",
            "name" : "ONC Administrative Sex",
            "id" : "urn:oid:2.16.840.1.113762.1.4.1",
            "accessLevel" : "Public"
         }, {
            "localId" : "5",
            "locator" : "10:1-10:53",
            "name" : "Race",
            "id" : "urn:oid:2.16.840.1.114222.4.11.836",
            "accessLevel" : "Public"
         }, {
            "localId" : "6",
            "locator" : "11:1-11:58",
            "name" : "Ethnicity",
            "id" : "urn:oid:2.16.840.1.114222.4.11.837",
            "accessLevel" : "Public"
         }, {
            "localId" : "7",
            "locator" : "12:1-12:55",
            "name" : "Payer",
            "id" : "urn:oid:2.16.840.1.114222.4.11.3591",
            "accessLevel" : "Public"
         }, {
            "localId" : "8",
            "locator" : "13:1-13:72",
            "name" : "Group Psychotherapy",
            "id" : "urn:oid:2.16.840.1.113883.3.526.3.1187",
            "accessLevel" : "Public"
         }, {
            "localId" : "9",
            "locator" : "14:1-14:85",
            "name" : "Major Depressive Disorder-Active",
            "id" : "urn:oid:2.16.840.1.113883.3.526.3.1491",
            "accessLevel" : "Public"
         }, {
            "localId" : "10",
            "locator" : "15:1-15:75",
            "name" : "Office Visit",
            "id" : "urn:oid:2.16.840.1.113883.3.464.1003.101.12.1001",
            "accessLevel" : "Public"
         }, {
            "localId" : "11",
            "locator" : "16:1-16:86",
            "name" : "Outpatient Consultation",
            "id" : "urn:oid:2.16.840.1.113883.3.464.1003.101.12.1008",
            "accessLevel" : "Public"
         }, {
            "localId" : "12",
            "locator" : "17:1-17:88",
            "name" : "Psych Visit - Diagnostic Evaluation",
            "id" : "urn:oid:2.16.840.1.113883.3.526.3.1492",
            "accessLevel" : "Public"
         }, {
            "localId" : "13",
            "locator" : "18:1-18:87",
            "name" : "Psych Visit - Family Psychotherapy",
            "id" : "urn:oid:2.16.840.1.113883.3.526.3.1018",
            "accessLevel" : "Public"
         }, {
            "localId" : "14",
            "locator" : "19:1-19:80",
            "name" : "Psych Visit - Psychotherapy",
            "id" : "urn:oid:2.16.840.1.113883.3.526.3.1496",
            "accessLevel" : "Public"
         }, {
            "localId" : "15",
            "locator" : "20:1-20:67",
            "name" : "Psychoanalysis",
            "id" : "urn:oid:2.16.840.1.113883.3.526.3.1141",
            "accessLevel" : "Public"
         } ]
      },
      "codes" : {
         "def" : [ {
            "localId" : "17",
            "locator" : "22:1-22:125",
            "name" : "Suicide risk assessment (procedure)",
            "id" : "225337009",
            "display" : "Suicide risk assessment (procedure)",
            "accessLevel" : "Public",
            "codeSystem" : {
               "localId" : "16",
               "locator" : "22:62-22:79",
               "name" : "SNOMEDCT:2017-09"
            }
         } ]
      },
      "statements" : {
         "def" : [ {
            "locator" : "26:1-26:15",
            "name" : "Patient",
            "context" : "Patient",
            "expression" : {
               "type" : "SingletonFrom",
               "operand" : {
                  "locator" : "26:1-26:15",
                  "dataType" : "{urn:healthit-gov:qdm:v5_3}Patient",
                  "templateId" : "Patient",
                  "type" : "Retrieve"
               }
            }
         }, {
            "localId" : "22",
            "locator" : "28:1-29:50",
            "name" : "SDE Ethnicity",
            "context" : "Patient",
            "accessLevel" : "Public",
            "annotation" : [ {
               "type" : "Annotation",
               "s" : {
                  "r" : "22",
                  "s" : [ {
                     "value" : [ "define ","\"SDE Ethnicity\"",":\n\t" ]
                  }, {
                     "r" : "21",
                     "s" : [ {
                        "value" : [ "[","\"Patient Characteristic Ethnicity\"",": " ]
                     }, {
                        "s" : [ {
                           "value" : [ "\"Ethnicity\"" ]
                        } ]
                     }, {
                        "value" : [ "]" ]
                     } ]
                  } ]
               }
            } ],
            "expression" : {
               "localId" : "21",
               "locator" : "29:2-29:50",
               "dataType" : "{urn:healthit-gov:qdm:v5_3}PatientCharacteristicEthnicity",
               "codeProperty" : "code",
               "type" : "Retrieve",
               "codes" : {
                  "name" : "Ethnicity",
                  "type" : "ValueSetRef"
               }
            }
         }, {
            "localId" : "24",
            "locator" : "31:1-32:42",
            "name" : "SDE Payer",
            "context" : "Patient",
            "accessLevel" : "Public",
            "annotation" : [ {
               "type" : "Annotation",
               "s" : {
                  "r" : "24",
                  "s" : [ {
                     "value" : [ "define ","\"SDE Payer\"",":\n\t" ]
                  }, {
                     "r" : "23",
                     "s" : [ {
                        "value" : [ "[","\"Patient Characteristic Payer\"",": " ]
                     }, {
                        "s" : [ {
                           "value" : [ "\"Payer\"" ]
                        } ]
                     }, {
                        "value" : [ "]" ]
                     } ]
                  } ]
               }
            } ],
            "expression" : {
               "localId" : "23",
               "locator" : "32:2-32:42",
               "dataType" : "{urn:healthit-gov:qdm:v5_3}PatientCharacteristicPayer",
               "codeProperty" : "code",
               "type" : "Retrieve",
               "codes" : {
                  "name" : "Payer",
                  "type" : "ValueSetRef"
               }
            }
         }, {
            "localId" : "26",
            "locator" : "34:1-35:40",
            "name" : "SDE Race",
            "context" : "Patient",
            "accessLevel" : "Public",
            "annotation" : [ {
               "type" : "Annotation",
               "s" : {
                  "r" : "26",
                  "s" : [ {
                     "value" : [ "define ","\"SDE Race\"",":\n\t" ]
                  }, {
                     "r" : "25",
                     "s" : [ {
                        "value" : [ "[","\"Patient Characteristic Race\"",": " ]
                     }, {
                        "s" : [ {
                           "value" : [ "\"Race\"" ]
                        } ]
                     }, {
                        "value" : [ "]" ]
                     } ]
                  } ]
               }
            } ],
            "expression" : {
               "localId" : "25",
               "locator" : "35:2-35:40",
               "dataType" : "{urn:healthit-gov:qdm:v5_3}PatientCharacteristicRace",
               "codeProperty" : "code",
               "type" : "Retrieve",
               "codes" : {
                  "name" : "Race",
                  "type" : "ValueSetRef"
               }
            }
         }, {
            "localId" : "28",
            "locator" : "37:1-38:57",
            "name" : "SDE Sex",
            "context" : "Patient",
            "accessLevel" : "Public",
            "annotation" : [ {
               "type" : "Annotation",
               "s" : {
                  "r" : "28",
                  "s" : [ {
                     "value" : [ "define ","\"SDE Sex\"",":\n\t" ]
                  }, {
                     "r" : "27",
                     "s" : [ {
                        "value" : [ "[","\"Patient Characteristic Sex\"",": " ]
                     }, {
                        "s" : [ {
                           "value" : [ "\"ONC Administrative Sex\"" ]
                        } ]
                     }, {
                        "value" : [ "]" ]
                     } ]
                  } ]
               }
            } ],
            "expression" : {
               "localId" : "27",
               "locator" : "38:2-38:57",
               "dataType" : "{urn:healthit-gov:qdm:v5_3}PatientCharacteristicSex",
               "codeProperty" : "code",
               "type" : "Retrieve",
               "codes" : {
                  "name" : "ONC Administrative Sex",
                  "type" : "ValueSetRef"
               }
            }
         }, {
            "localId" : "56",
            "locator" : "43:1-54:64",
            "name" : "Major Depressive Disorder Encounter",
            "context" : "Patient",
            "accessLevel" : "Public",
            "annotation" : [ {
               "type" : "Annotation",
               "s" : {
                  "r" : "56",
                  "s" : [ {
                     "value" : [ "define ","\"Major Depressive Disorder Encounter\"",":\n\t" ]
                  }, {
                     "r" : "55",
                     "s" : [ {
                        "s" : [ {
                           "r" : "42",
                           "s" : [ {
                              "r" : "41",
                              "s" : [ {
                                 "value" : [ "( " ]
                              }, {
                                 "r" : "41",
                                 "s" : [ {
                                    "r" : "39",
                                    "s" : [ {
                                       "r" : "37",
                                       "s" : [ {
                                          "r" : "35",
                                          "s" : [ {
                                             "r" : "33",
                                             "s" : [ {
                                                "r" : "31",
                                                "s" : [ {
                                                   "r" : "29",
                                                   "s" : [ {
                                                      "value" : [ "[","\"Encounter, Performed\"",": " ]
                                                   }, {
                                                      "s" : [ {
                                                         "value" : [ "\"Office Visit\"" ]
                                                      } ]
                                                   }, {
                                                      "value" : [ "]" ]
                                                   } ]
                                                }, {
                                                   "value" : [ "\n\t\tunion " ]
                                                }, {
                                                   "r" : "30",
                                                   "s" : [ {
                                                      "value" : [ "[","\"Encounter, Performed\"",": " ]
                                                   }, {
                                                      "s" : [ {
                                                         "value" : [ "\"Outpatient Consultation\"" ]
                                                      } ]
                                                   }, {
                                                      "value" : [ "]" ]
                                                   } ]
                                                } ]
                                             }, {
                                                "value" : [ "\n\t\tunion " ]
                                             }, {
                                                "r" : "32",
                                                "s" : [ {
                                                   "value" : [ "[","\"Encounter, Performed\"",": " ]
                                                }, {
                                                   "s" : [ {
                                                      "value" : [ "\"Psych Visit - Diagnostic Evaluation\"" ]
                                                   } ]
                                                }, {
                                                   "value" : [ "]" ]
                                                } ]
                                             } ]
                                          }, {
                                             "value" : [ "\n\t\tunion " ]
                                          }, {
                                             "r" : "34",
                                             "s" : [ {
                                                "value" : [ "[","\"Encounter, Performed\"",": " ]
                                             }, {
                                                "s" : [ {
                                                   "value" : [ "\"Psych Visit - Family Psychotherapy\"" ]
                                                } ]
                                             }, {
                                                "value" : [ "]" ]
                                             } ]
                                          } ]
                                       }, {
                                          "value" : [ "\n\t\tunion " ]
                                       }, {
                                          "r" : "36",
                                          "s" : [ {
                                             "value" : [ "[","\"Encounter, Performed\"",": " ]
                                          }, {
                                             "s" : [ {
                                                "value" : [ "\"Psych Visit - Psychotherapy\"" ]
                                             } ]
                                          }, {
                                             "value" : [ "]" ]
                                          } ]
                                       } ]
                                    }, {
                                       "value" : [ "\n\t\tunion " ]
                                    }, {
                                       "r" : "38",
                                       "s" : [ {
                                          "value" : [ "[","\"Encounter, Performed\"",": " ]
                                       }, {
                                          "s" : [ {
                                             "value" : [ "\"Psychoanalysis\"" ]
                                          } ]
                                       }, {
                                          "value" : [ "]" ]
                                       } ]
                                    } ]
                                 }, {
                                    "value" : [ "\n\t\tunion " ]
                                 }, {
                                    "r" : "40",
                                    "s" : [ {
                                       "value" : [ "[","\"Encounter, Performed\"",": " ]
                                    }, {
                                       "s" : [ {
                                          "value" : [ "\"Group Psychotherapy\"" ]
                                       } ]
                                    }, {
                                       "value" : [ "]" ]
                                    } ]
                                 } ]
                              }, {
                                 "value" : [ " )" ]
                              } ]
                           }, {
                              "value" : [ " ","ValidEncounter" ]
                           } ]
                        } ]
                     }, {
                        "value" : [ "\n\t\t" ]
                     }, {
                        "r" : "54",
                        "s" : [ {
                           "value" : [ "where " ]
                        }, {
                           "r" : "54",
                           "s" : [ {
                              "r" : "49",
                              "s" : [ {
                                 "value" : [ "exists " ]
                              }, {
                                 "r" : "48",
                                 "s" : [ {
                                    "value" : [ "( " ]
                                 }, {
                                    "r" : "48",
                                    "s" : [ {
                                       "s" : [ {
                                          "r" : "44",
                                          "s" : [ {
                                             "r" : "43",
                                             "s" : [ {
                                                "s" : [ {
                                                   "value" : [ "ValidEncounter",".","diagnoses" ]
                                                } ]
                                             } ]
                                          }, {
                                             "value" : [ " ","MajorDepressiveDisorder" ]
                                          } ]
                                       } ]
                                    }, {
                                       "value" : [ "\n\t\t\t\t" ]
                                    }, {
                                       "r" : "47",
                                       "s" : [ {
                                          "value" : [ "where " ]
                                       }, {
                                          "r" : "47",
                                          "s" : [ {
                                             "r" : "45",
                                             "s" : [ {
                                                "value" : [ "MajorDepressiveDisorder" ]
                                             } ]
                                          }, {
                                             "value" : [ " in " ]
                                          }, {
                                             "r" : "46",
                                             "s" : [ {
                                                "value" : [ "\"Major Depressive Disorder-Active\"" ]
                                             } ]
                                          } ]
                                       } ]
                                    } ]
                                 }, {
                                    "value" : [ "\n\t\t)" ]
                                 } ]
                              } ]
                           }, {
                              "value" : [ "\n\t\t\tand " ]
                           }, {
                              "r" : "53",
                              "s" : [ {
                                 "r" : "51",
                                 "s" : [ {
                                    "r" : "50",
                                    "s" : [ {
                                       "value" : [ "ValidEncounter" ]
                                    } ]
                                 }, {
                                    "value" : [ "." ]
                                 }, {
                                    "r" : "51",
                                    "s" : [ {
                                       "value" : [ "relevantPeriod" ]
                                    } ]
                                 } ]
                              }, {
                                 "value" : [ " ","during"," " ]
                              }, {
                                 "r" : "52",
                                 "s" : [ {
                                    "value" : [ "\"Measurement Period\"" ]
                                 } ]
                              } ]
                           } ]
                        } ]
                     } ]
                  } ]
               }
            } ],
            "expression" : {
               "localId" : "55",
               "locator" : "44:2-54:64",
               "type" : "Query",
               "source" : [ {
                  "localId" : "42",
                  "locator" : "44:2-50:72",
                  "alias" : "ValidEncounter",
                  "expression" : {
                     "localId" : "41",
                     "locator" : "44:2-50:57",
                     "type" : "Union",
                     "operand" : [ {
                        "localId" : "39",
                        "locator" : "44:4-49:50",
                        "type" : "Union",
                        "operand" : [ {
                           "localId" : "37",
                           "locator" : "44:4-48:63",
                           "type" : "Union",
                           "operand" : [ {
                              "localId" : "35",
                              "locator" : "44:4-47:70",
                              "type" : "Union",
                              "operand" : [ {
                                 "localId" : "33",
                                 "locator" : "44:4-46:71",
                                 "type" : "Union",
                                 "operand" : [ {
                                    "localId" : "31",
                                    "locator" : "44:4-45:59",
                                    "type" : "Union",
                                    "operand" : [ {
                                       "localId" : "29",
                                       "locator" : "44:4-44:43",
                                       "dataType" : "{urn:healthit-gov:qdm:v5_3}PositiveEncounterPerformed",
                                       "templateId" : "PositiveEncounterPerformed",
                                       "codeProperty" : "code",
                                       "type" : "Retrieve",
                                       "codes" : {
                                          "name" : "Office Visit",
                                          "type" : "ValueSetRef"
                                       }
                                    }, {
                                       "localId" : "30",
                                       "locator" : "45:9-45:59",
                                       "dataType" : "{urn:healthit-gov:qdm:v5_3}PositiveEncounterPerformed",
                                       "templateId" : "PositiveEncounterPerformed",
                                       "codeProperty" : "code",
                                       "type" : "Retrieve",
                                       "codes" : {
                                          "name" : "Outpatient Consultation",
                                          "type" : "ValueSetRef"
                                       }
                                    } ]
                                 }, {
                                    "localId" : "32",
                                    "locator" : "46:9-46:71",
                                    "dataType" : "{urn:healthit-gov:qdm:v5_3}PositiveEncounterPerformed",
                                    "templateId" : "PositiveEncounterPerformed",
                                    "codeProperty" : "code",
                                    "type" : "Retrieve",
                                    "codes" : {
                                       "name" : "Psych Visit - Diagnostic Evaluation",
                                       "type" : "ValueSetRef"
                                    }
                                 } ]
                              }, {
                                 "localId" : "34",
                                 "locator" : "47:9-47:70",
                                 "dataType" : "{urn:healthit-gov:qdm:v5_3}PositiveEncounterPerformed",
                                 "templateId" : "PositiveEncounterPerformed",
                                 "codeProperty" : "code",
                                 "type" : "Retrieve",
                                 "codes" : {
                                    "name" : "Psych Visit - Family Psychotherapy",
                                    "type" : "ValueSetRef"
                                 }
                              } ]
                           }, {
                              "localId" : "36",
                              "locator" : "48:9-48:63",
                              "dataType" : "{urn:healthit-gov:qdm:v5_3}PositiveEncounterPerformed",
                              "templateId" : "PositiveEncounterPerformed",
                              "codeProperty" : "code",
                              "type" : "Retrieve",
                              "codes" : {
                                 "name" : "Psych Visit - Psychotherapy",
                                 "type" : "ValueSetRef"
                              }
                           } ]
                        }, {
                           "localId" : "38",
                           "locator" : "49:9-49:50",
                           "dataType" : "{urn:healthit-gov:qdm:v5_3}PositiveEncounterPerformed",
                           "templateId" : "PositiveEncounterPerformed",
                           "codeProperty" : "code",
                           "type" : "Retrieve",
                           "codes" : {
                              "name" : "Psychoanalysis",
                              "type" : "ValueSetRef"
                           }
                        } ]
                     }, {
                        "localId" : "40",
                        "locator" : "50:9-50:55",
                        "dataType" : "{urn:healthit-gov:qdm:v5_3}PositiveEncounterPerformed",
                        "templateId" : "PositiveEncounterPerformed",
                        "codeProperty" : "code",
                        "type" : "Retrieve",
                        "codes" : {
                           "name" : "Group Psychotherapy",
                           "type" : "ValueSetRef"
                        }
                     } ]
                  }
               } ],
               "relationship" : [ ],
               "where" : {
                  "localId" : "54",
                  "locator" : "51:3-54:64",
                  "type" : "And",
                  "operand" : [ {
                     "localId" : "49",
                     "locator" : "51:9-53:3",
                     "type" : "Exists",
                     "operand" : {
                        "localId" : "48",
                        "locator" : "51:16-53:3",
                        "type" : "Query",
                        "source" : [ {
                           "localId" : "44",
                           "locator" : "51:18-51:65",
                           "alias" : "MajorDepressiveDisorder",
                           "expression" : {
                              "localId" : "43",
                              "locator" : "51:18-51:41",
                              "path" : "diagnoses",
                              "scope" : "ValidEncounter",
                              "type" : "Property"
                           }
                        } ],
                        "relationship" : [ ],
                        "where" : {
                           "localId" : "47",
                           "locator" : "52:5-52:71",
                           "type" : "InValueSet",
                           "code" : {
                              "localId" : "45",
                              "locator" : "52:11-52:33",
                              "name" : "MajorDepressiveDisorder",
                              "type" : "AliasRef"
                           },
                           "valueset" : {
                              "localId" : "46",
                              "locator" : "52:38-52:71",
                              "name" : "Major Depressive Disorder-Active"
                           }
                        }
                     }
                  }, {
                     "localId" : "53",
                     "locator" : "54:8-54:64",
                     "type" : "IncludedIn",
                     "operand" : [ {
                        "localId" : "51",
                        "locator" : "54:8-54:36",
                        "path" : "relevantPeriod",
                        "scope" : "ValidEncounter",
                        "type" : "Property"
                     }, {
                        "localId" : "52",
                        "locator" : "54:45-54:64",
                        "name" : "Measurement Period",
                        "type" : "ParameterRef"
                     } ]
                  } ]
               }
            }
         }, {
            "localId" : "80",
            "locator" : "56:1-60:97",
            "name" : "Initial Population",
            "context" : "Patient",
            "accessLevel" : "Public",
            "annotation" : [ {
               "type" : "Annotation",
               "s" : {
                  "r" : "80",
                  "s" : [ {
                     "value" : [ "define ","\"Initial Population\"",":\n\t" ]
                  }, {
                     "r" : "79",
                     "s" : [ {
                        "s" : [ {
                           "r" : "58",
                           "s" : [ {
                              "r" : "57",
                              "s" : [ {
                                 "s" : [ {
                                    "value" : [ "\"Major Depressive Disorder Encounter\"" ]
                                 } ]
                              } ]
                           }, {
                              "value" : [ " ","MDDEncounter" ]
                           } ]
                        } ]
                     }, {
                        "value" : [ "\n\t\t" ]
                     }, {
                        "r" : "78",
                        "s" : [ {
                           "value" : [ "with " ]
                        }, {
                           "r" : "60",
                           "s" : [ {
                              "r" : "59",
                              "s" : [ {
                                 "r" : "59",
                                 "s" : [ {
                                    "value" : [ "[","\"Patient Characteristic Birthdate\"","]" ]
                                 } ]
                              } ]
                           }, {
                              "value" : [ " ","BirthDate" ]
                           } ]
                        }, {
                           "value" : [ "\n\t\t\tsuch that " ]
                        }, {
                           "r" : "77",
                           "s" : [ {
                              "r" : "68",
                              "s" : [ {
                                 "r" : "66",
                                 "s" : [ {
                                    "r" : "61",
                                    "s" : [ {
                                       "value" : [ "Global" ]
                                    } ]
                                 }, {
                                    "value" : [ "." ]
                                 }, {
                                    "r" : "66",
                                    "s" : [ {
                                       "value" : [ "\"CalendarAgeInYearsAt\"","(" ]
                                    }, {
                                       "r" : "63",
                                       "s" : [ {
                                          "r" : "62",
                                          "s" : [ {
                                             "value" : [ "BirthDate" ]
                                          } ]
                                       }, {
                                          "value" : [ "." ]
                                       }, {
                                          "r" : "63",
                                          "s" : [ {
                                             "value" : [ "birthDatetime" ]
                                          } ]
                                       } ]
                                    }, {
                                       "value" : [ ", " ]
                                    }, {
                                       "r" : "65",
                                       "s" : [ {
                                          "value" : [ "start of " ]
                                       }, {
                                          "r" : "64",
                                          "s" : [ {
                                             "value" : [ "\"Measurement Period\"" ]
                                          } ]
                                       } ]
                                    }, {
                                       "value" : [ ")" ]
                                    } ]
                                 } ]
                              }, {
                                 "value" : [ ">="," ","6" ]
                              } ]
                           }, {
                              "value" : [ "\n\t\t\t\tand " ]
                           }, {
                              "r" : "76",
                              "s" : [ {
                                 "r" : "74",
                                 "s" : [ {
                                    "r" : "69",
                                    "s" : [ {
                                       "value" : [ "Global" ]
                                    } ]
                                 }, {
                                    "value" : [ "." ]
                                 }, {
                                    "r" : "74",
                                    "s" : [ {
                                       "value" : [ "\"CalendarAgeInYearsAt\"","(" ]
                                    }, {
                                       "r" : "71",
                                       "s" : [ {
                                          "r" : "70",
                                          "s" : [ {
                                             "value" : [ "BirthDate" ]
                                          } ]
                                       }, {
                                          "value" : [ "." ]
                                       }, {
                                          "r" : "71",
                                          "s" : [ {
                                             "value" : [ "birthDatetime" ]
                                          } ]
                                       } ]
                                    }, {
                                       "value" : [ ", " ]
                                    }, {
                                       "r" : "73",
                                       "s" : [ {
                                          "value" : [ "start of " ]
                                       }, {
                                          "r" : "72",
                                          "s" : [ {
                                             "value" : [ "\"Measurement Period\"" ]
                                          } ]
                                       } ]
                                    }, {
                                       "value" : [ ")" ]
                                    } ]
                                 } ]
                              }, {
                                 "value" : [ "<"," ","17" ]
                              } ]
                           } ]
                        } ]
                     } ]
                  } ]
               }
            } ],
            "expression" : {
               "localId" : "79",
               "locator" : "57:2-60:97",
               "type" : "Query",
               "source" : [ {
                  "localId" : "58",
                  "locator" : "57:2-57:51",
                  "alias" : "MDDEncounter",
                  "expression" : {
                     "localId" : "57",
                     "locator" : "57:2-57:38",
                     "name" : "Major Depressive Disorder Encounter",
                     "type" : "ExpressionRef"
                  }
               } ],
               "relationship" : [ {
                  "localId" : "78",
                  "locator" : "58:3-60:97",
                  "alias" : "BirthDate",
                  "type" : "With",
                  "expression" : {
                     "localId" : "59",
                     "locator" : "58:8-58:43",
                     "dataType" : "{urn:healthit-gov:qdm:v5_3}PatientCharacteristicBirthdate",
                     "type" : "Retrieve"
                  },
                  "suchThat" : {
                     "localId" : "77",
                     "locator" : "59:14-60:97",
                     "type" : "And",
                     "operand" : [ {
                        "localId" : "68",
                        "locator" : "59:14-59:102",
                        "type" : "GreaterOrEqual",
                        "operand" : [ {
                           "localId" : "66",
                           "locator" : "59:14-59:98",
                           "name" : "CalendarAgeInYearsAt",
                           "libraryName" : "Global",
                           "type" : "FunctionRef",
                           "operand" : [ {
                              "localId" : "63",
                              "locator" : "59:44-59:66",
                              "path" : "birthDatetime",
                              "scope" : "BirthDate",
                              "type" : "Property"
                           }, {
                              "localId" : "65",
                              "locator" : "59:69-59:97",
                              "type" : "Start",
                              "operand" : {
                                 "localId" : "64",
                                 "locator" : "59:78-59:97",
                                 "name" : "Measurement Period",
                                 "type" : "ParameterRef"
                              }
                           } ]
                        }, {
                           "localId" : "67",
                           "locator" : "59:102",
                           "valueType" : "{urn:hl7-org:elm-types:r1}Integer",
                           "value" : "6",
                           "type" : "Literal"
                        } ]
                     }, {
                        "localId" : "76",
                        "locator" : "60:9-60:97",
                        "type" : "Less",
                        "operand" : [ {
                           "localId" : "74",
                           "locator" : "60:9-60:93",
                           "name" : "CalendarAgeInYearsAt",
                           "libraryName" : "Global",
                           "type" : "FunctionRef",
                           "operand" : [ {
                              "localId" : "71",
                              "locator" : "60:39-60:61",
                              "path" : "birthDatetime",
                              "scope" : "BirthDate",
                              "type" : "Property"
                           }, {
                              "localId" : "73",
                              "locator" : "60:64-60:92",
                              "type" : "Start",
                              "operand" : {
                                 "localId" : "72",
                                 "locator" : "60:73-60:92",
                                 "name" : "Measurement Period",
                                 "type" : "ParameterRef"
                              }
                           } ]
                        }, {
                           "localId" : "75",
                           "locator" : "60:96-60:97",
                           "valueType" : "{urn:hl7-org:elm-types:r1}Integer",
                           "value" : "17",
                           "type" : "Literal"
                        } ]
                     } ]
                  }
               } ]
            }
         }, {
            "localId" : "82",
            "locator" : "40:1-41:21",
            "name" : "Denominator",
            "context" : "Patient",
            "accessLevel" : "Public",
            "annotation" : [ {
               "type" : "Annotation",
               "s" : {
                  "r" : "82",
                  "s" : [ {
                     "value" : [ "define ","\"Denominator\"",":\n\t" ]
                  }, {
                     "r" : "81",
                     "s" : [ {
                        "value" : [ "\"Initial Population\"" ]
                     } ]
                  } ]
               }
            } ],
            "expression" : {
               "localId" : "81",
               "locator" : "41:2-41:21",
               "name" : "Initial Population",
               "type" : "ExpressionRef"
            }
         }, {
            "localId" : "94",
            "locator" : "62:1-65:84",
            "name" : "Numerator",
            "context" : "Patient",
            "accessLevel" : "Public",
            "annotation" : [ {
               "type" : "Annotation",
               "s" : {
                  "r" : "94",
                  "s" : [ {
                     "value" : [ "define ","\"Numerator\"",":\n\t" ]
                  }, {
                     "r" : "93",
                     "s" : [ {
                        "s" : [ {
                           "r" : "84",
                           "s" : [ {
                              "r" : "83",
                              "s" : [ {
                                 "s" : [ {
                                    "value" : [ "\"Major Depressive Disorder Encounter\"" ]
                                 } ]
                              } ]
                           }, {
                              "value" : [ " ","MDDEncounter" ]
                           } ]
                        } ]
                     }, {
                        "value" : [ "\n\t\t" ]
                     }, {
                        "r" : "92",
                        "s" : [ {
                           "value" : [ "with " ]
                        }, {
                           "r" : "86",
                           "s" : [ {
                              "r" : "85",
                              "s" : [ {
                                 "r" : "85",
                                 "s" : [ {
                                    "value" : [ "[","\"Intervention, Performed\"",": " ]
                                 }, {
                                    "s" : [ {
                                       "value" : [ "\"Suicide risk assessment (procedure)\"" ]
                                    } ]
                                 }, {
                                    "value" : [ "]" ]
                                 } ]
                              } ]
                           }, {
                              "value" : [ " ","SuicideRiskAssessment" ]
                           } ]
                        }, {
                           "value" : [ "\n\t\t\tsuch that " ]
                        }, {
                           "r" : "91",
                           "s" : [ {
                              "r" : "88",
                              "s" : [ {
                                 "r" : "87",
                                 "s" : [ {
                                    "value" : [ "SuicideRiskAssessment" ]
                                 } ]
                              }, {
                                 "value" : [ "." ]
                              }, {
                                 "r" : "88",
                                 "s" : [ {
                                    "value" : [ "relevantPeriod" ]
                                 } ]
                              } ]
                           }, {
                              "value" : [ " ","during"," " ]
                           }, {
                              "r" : "90",
                              "s" : [ {
                                 "r" : "89",
                                 "s" : [ {
                                    "value" : [ "MDDEncounter" ]
                                 } ]
                              }, {
                                 "value" : [ "." ]
                              }, {
                                 "r" : "90",
                                 "s" : [ {
                                    "value" : [ "relevantPeriod" ]
                                 } ]
                              } ]
                           } ]
                        } ]
                     } ]
                  } ]
               }
            } ],
            "expression" : {
               "localId" : "93",
               "locator" : "63:2-65:84",
               "type" : "Query",
               "source" : [ {
                  "localId" : "84",
                  "locator" : "63:2-63:51",
                  "alias" : "MDDEncounter",
                  "expression" : {
                     "localId" : "83",
                     "locator" : "63:2-63:38",
                     "name" : "Major Depressive Disorder Encounter",
                     "type" : "ExpressionRef"
                  }
               } ],
               "relationship" : [ {
                  "localId" : "92",
                  "locator" : "64:3-65:84",
                  "alias" : "SuicideRiskAssessment",
                  "type" : "With",
                  "expression" : {
                     "localId" : "85",
                     "locator" : "64:8-64:73",
                     "dataType" : "{urn:healthit-gov:qdm:v5_3}PositiveInterventionPerformed",
                     "templateId" : "PositiveInterventionPerformed",
                     "codeProperty" : "code",
                     "type" : "Retrieve",
                     "codes" : {
                        "type" : "ToList",
                        "operand" : {
                           "name" : "Suicide risk assessment (procedure)",
                           "type" : "CodeRef"
                        }
                     }
                  },
                  "suchThat" : {
                     "localId" : "91",
                     "locator" : "65:14-65:84",
                     "type" : "IncludedIn",
                     "operand" : [ {
                        "localId" : "88",
                        "locator" : "65:14-65:49",
                        "path" : "relevantPeriod",
                        "scope" : "SuicideRiskAssessment",
                        "type" : "Property"
                     }, {
                        "localId" : "90",
                        "locator" : "65:58-65:84",
                        "path" : "relevantPeriod",
                        "scope" : "MDDEncounter",
                        "type" : "Property"
                     } ]
                  }
               } ]
            }
         } ]
      }
   }
}