eventClass	id	resultdatetime	resultId	resultCodeSystem	LOINC	clinicalordertype	result	valueUnit	referenceRange	interpretationCode	interpretation
OrderResult	95005	202204161218	95005	2.16.840.1.113883.6.1	'8867-4'	Heart Rate	44	bpm
OrderResult	95005	202204161336	95005	2.16.840.1.113883.6.1	'8867-4'	Heart Rate	49	bpm
OrderResult	95006	201802221219	95006	2.16.840.1.113883.6.1	'8867-4'	Heart Rate	42	bpm
OrderResult	95006	201802221328	95006	2.16.840.1.113883.6.1	'8867-4'	Heart Rate	48	bpm
OrderResult	95007	201808200000	95007	2.16.840.1.113883.6.1	'30765-2'	Vital Sign	70	mmHg
OrderResult	95014	200512211236	95014	2.16.840.1.113883.6.1	'8867-4'	Heart Rate	34	bpm
OrderResult	95014	200512211305	95014	2.16.840.1.113883.6.1	'8867-4'	Heart Rate	29	bpm
OrderResult	95015	201808150000	95015	2.16.840.1.113883.6.1	'24941-7'	Vital Sign	41	mmHg
OrderResult	95020	201804141744	95020	2.16.840.1.113883.6.1	'8867-4'	Heart Rate	95	bpm
OrderResult	95021	201802121212	95021	2.16.840.1.113883.6.1	'8867-4'	Heart Rate	33	bpm
OrderResult	95021	201802121347	95021	2.16.840.1.113883.6.1	'8867-4'	Heart Rate	43	bpm
OrderResult	95022	201804031206	95022	2.16.840.1.113883.6.1	'8867-4'	Heart Rate	21	bpm
OrderResult	95022	201804031334	95022	2.16.840.1.113883.6.1	'8867-4'	Heart Rate	43	bpm
OrderResult	95023	201811230000	95023	2.16.840.1.113883.6.1	'37704-4'	Vital Sign	66	mmHg
OrderResult	95031	201807020000	95031	2.16.840.1.113883.6.1	'8295-8'	Vital Sign	43	mmHg
OrderResult	95038	200708271226	95038	2.16.840.1.113883.6.1	'8867-4'	Heart Rate	38	bpm
OrderResult	95038	200708271317	95038	2.16.840.1.113883.6.1	'8867-4'	Heart Rate	37	bpm
OrderResult	95039	197510291254	95039	2.16.840.1.113883.6.1	'8867-4'	Heart Rate	43	bpm
OrderResult	95039	197510291335	95039	2.16.840.1.113883.6.1	'8867-4'	Heart Rate	25	bpm
OrderResult	95039	201812010000	95039	2.16.840.1.113883.6.1	'37699-6'	Vital Sign	67	mmHg
OrderResult	95046	194311041245	95046	2.16.840.1.113883.6.1	'8867-4'	Heart Rate	45	bpm
OrderResult	95046	194311041322	95046	2.16.840.1.113883.6.1	'8867-4'	Heart Rate	42	bpm
OrderResult	95047	201803141202	95047	2.16.840.1.113883.6.1	'8867-4'	Heart Rate	41	bpm
OrderResult	95047	201803141340	95047	2.16.840.1.113883.6.1	'8867-4'	Heart Rate	44	bpm
OrderResult	95047	201808230000	95047	2.16.840.1.113883.6.1	'26117-2'	Vital Sign	44	mmHg
OrderResult	95055	201810160000	95055	2.16.840.1.113883.6.1	'36271-5'	Vital Sign	58	mmHg
OrderResult	95060	199204011211	95060	2.16.840.1.113883.6.1	'8867-4'	Heart Rate	50	bpm
OrderResult	95062	201801071216	95062	2.16.840.1.113883.6.1	'8867-4'	Heart Rate	24	bpm
OrderResult	95062	201801071307	95062	2.16.840.1.113883.6.1	'8867-4'	Heart Rate	47	bpm
OrderResult	95063	199209061200	95063	2.16.840.1.113883.6.1	'8867-4'	Heart Rate	24	bpm
OrderResult	95063	199209061329	95063	2.16.840.1.113883.6.1	'8867-4'	Heart Rate	42	bpm
OrderResult	95063	201809240000	95063	2.16.840.1.113883.6.1	'36983-5'	Vital Sign	42	mmHg
OrderResult	95069	201803271249	95069	2.16.840.1.113883.6.1	'8867-4'	Heart Rate	22	bpm
OrderResult	95069	201803271324	95069	2.16.840.1.113883.6.1	'8867-4'	Heart Rate	47	bpm
OrderResult	95071	201801151232	95071	2.16.840.1.113883.6.1	'8867-4'	Heart Rate	34	bpm
OrderResult	95071	201801151319	95071	2.16.840.1.113883.6.1	'8867-4'	Heart Rate	28	bpm
OrderResult	95071	201809180000	95071	2.16.840.1.113883.6.1	'37080-9'	Vital Sign	50	mmHg
OrderResult	95079	201808110000	95079	2.16.840.1.113883.6.1	'37625-1'	Vital Sign	89	mmHg
OrderResult	95087	201810080000	95087	2.16.840.1.113883.6.1	'42474-7'	Vital Sign	77	mmHg
OrderResult	95095	201811240000	95095	2.16.840.1.113883.6.1	'37700-2'	Vital Sign	74	mmHg
OrderResult	95100	201807311726	95100	2.16.840.1.113883.6.1	'8867-4'	Heart Rate	27	bpm
OrderResult	95103	201811090000	95103	2.16.840.1.113883.6.1	'69056-0'	Vital Sign	53	mmHg
OrderResult	95108	201802041243	95108	2.16.840.1.113883.6.1	'8867-4'	Heart Rate	44	bpm
OrderResult	95111	201809210000	95111	2.16.840.1.113883.6.1	'36890-2'	Vital Sign	51	mmHg
OrderResult	95119	201809160000	95119	2.16.840.1.113883.6.1	'37799-4'	Vital Sign	83	mmHg
OrderResult	95127	201812090000	95127	2.16.840.1.113883.6.1	'37850-5'	Vital Sign	51	mmHg
OrderResult	95132	194601151233	95132	2.16.840.1.113883.6.1	'8867-4'	Heart Rate	36	bpm
OrderResult	95135	198006201204	95135	2.16.840.1.113883.6.1	'8867-4'	Heart Rate	36	bpm
OrderResult	95135	198006201352	95135	2.16.840.1.113883.6.1	'8867-4'	Heart Rate	23	bpm
OrderResult	95135	201809050000	95135	2.16.840.1.113883.6.1	'43470-4'	Vital Sign	88	mmHg
OrderResult	95141	196309171235	95141	2.16.840.1.113883.6.1	'8867-4'	Heart Rate	49	bpm
OrderResult	95141	196309171321	95141	2.16.840.1.113883.6.1	'8867-4'	Heart Rate	44	bpm
OrderResult	95143	201807240000	95143	2.16.840.1.113883.6.1	'38120-2'	Vital Sign	68	mmHg
OrderResult	95151	201809100000	95151	2.16.840.1.113883.6.1	'38010-5'	Vital Sign	83	mmHg
OrderResult	95159	201811270000	95159	2.16.840.1.113883.6.1	'37426-4'	Vital Sign	42	mmHg
OrderResult	95164	196008031740	95164	2.16.840.1.113883.6.1	'8867-4'	Heart Rate	46	bpm
OrderResult	95167	201812020000	95167	2.16.840.1.113883.6.1	'37954-5'	Vital Sign	87	mmHg
OrderResult	95172	197901201758	95172	2.16.840.1.113883.6.1	'8867-4'	Heart Rate	50	bpm
OrderResult	95175	201809040000	95175	2.16.840.1.113883.6.1	'38813-2'	Vital Sign	80	mmHg
OrderResult	95180	201805151716	95180	2.16.840.1.113883.6.1	'8867-4'	Heart Rate	34	bpm
OrderResult	95183	199105301220	95183	2.16.840.1.113883.6.1	'8867-4'	Heart Rate	43	bpm
OrderResult	95183	199105301337	95183	2.16.840.1.113883.6.1	'8867-4'	Heart Rate	44	bpm
OrderResult	95183	201810220000	95183	2.16.840.1.113883.6.1	'69312-7'	Vital Sign	72	mmHg
OrderResult	95191	201809210000	95191	2.16.840.1.113883.6.1	'37091-6'	Vital Sign	58	mmHg
OrderResult	95199	201809150000	95199	2.16.840.1.113883.6.1	'37583-2'	Vital Sign	42	mmHg
OrderResult	95204	193012111258	95204	2.16.840.1.113883.6.1	'8867-4'	Heart Rate	47	bpm
OrderResult	95207	201811010000	95207	2.16.840.1.113883.6.1	'37999-0'	Vital Sign	47	mmHg
OrderResult	95212	201801021222	95212	2.16.840.1.113883.6.1	'8867-4'	Heart Rate	28	bpm
OrderResult	95214	201801061239	95214	2.16.840.1.113883.6.1	'8867-4'	Heart Rate	33	bpm
OrderResult	95214	201801061346	95214	2.16.840.1.113883.6.1	'8867-4'	Heart Rate	31	bpm
OrderResult	95215	201812190000	95215	2.16.840.1.113883.6.1	'36644-3'	Vital Sign	62	mmHg
OrderResult	95223	201812110000	95223	2.16.840.1.113883.6.1	'48464-2'	Vital Sign	70	mmHg
OrderResult	95231	201809250000	95231	2.16.840.1.113883.6.1	'47371-0'	Vital Sign	51	mmHg
OrderResult	95236	201803281713	95236	2.16.840.1.113883.6.1	'8867-4'	Heart Rate	145	bpm
OrderResult	95239	201808010000	95239	2.16.840.1.113883.6.1	'69136-0'	Vital Sign	53	mmHg
OrderResult	95245	201801161217	95245	2.16.840.1.113883.6.1	'8867-4'	Heart Rate	24	bpm
OrderResult	95245	201801161331	95245	2.16.840.1.113883.6.1	'8867-4'	Heart Rate	21	bpm
OrderResult	95247	201807030000	95247	2.16.840.1.113883.6.1	'69133-7'	Vital Sign	70	mmHg
OrderResult	95254	201801311205	95254	2.16.840.1.113883.6.1	'8867-4'	Heart Rate	50	bpm
OrderResult	95254	201801311312	95254	2.16.840.1.113883.6.1	'8867-4'	Heart Rate	26	bpm
OrderResult	95255	201807260000	95255	2.16.840.1.113883.6.1	'24651-2'	Vital Sign	68	mmHg
OrderResult	95263	201810170000	95263	2.16.840.1.113883.6.1	'36968-6'	Vital Sign	50	mmHg
OrderResult	95268	197512011702	95268	2.16.840.1.113883.6.1	'8867-4'	Heart Rate	46	bpm
OrderResult	95271	201810100000	95271	2.16.840.1.113883.6.1	'26161-0'	Vital Sign	46	mmHg
OrderResult	95276	192406301207	95276	2.16.840.1.113883.6.1	'8867-4'	Heart Rate	36	bpm
OrderResult	95278	201801301256	95278	2.16.840.1.113883.6.1	'8867-4'	Heart Rate	41	bpm
OrderResult	95278	201801301330	95278	2.16.840.1.113883.6.1	'8867-4'	Heart Rate	37	bpm
OrderResult	95279	201801291215	95279	2.16.840.1.113883.6.1	'8867-4'	Heart Rate	38	bpm
OrderResult	95279	201801291333	95279	2.16.840.1.113883.6.1	'8867-4'	Heart Rate	33	bpm
OrderResult	95279	201810180000	95279	2.16.840.1.113883.6.1	'26247-7'	Vital Sign	76	mmHg
OrderResult	95284	195602171252	95284	2.16.840.1.113883.6.1	'8867-4'	Heart Rate	42	bpm
OrderResult	95287	201809260000	95287	2.16.840.1.113883.6.1	'30745-4'	Vital Sign	85	mmHg
OrderResult	95295	192209161257	95295	2.16.840.1.113883.6.1	'8867-4'	Heart Rate	44	bpm
OrderResult	95295	192209161348	95295	2.16.840.1.113883.6.1	'8867-4'	Heart Rate	29	bpm
OrderResult	95295	201807120000	95295	2.16.840.1.113883.6.1	'43464-7'	Vital Sign	53	mmHg
OrderResult	95300	201801251227	95300	2.16.840.1.113883.6.1	'8867-4'	Heart Rate	20	bpm
OrderResult	95301	197606021218	95301	2.16.840.1.113883.6.1	'8867-4'	Heart Rate	29	bpm
OrderResult	95301	197606021339	95301	2.16.840.1.113883.6.1	'8867-4'	Heart Rate	42	bpm
OrderResult	95303	201812150000	95303	2.16.840.1.113883.6.1	'37154-2'	Vital Sign	76	mmHg
OrderResult	95311	201808200000	95311	2.16.840.1.113883.6.1	'38146-7'	Vital Sign	43	mmHg
OrderResult	95318	201801091219	95318	2.16.840.1.113883.6.1	'8867-4'	Heart Rate	28	bpm
OrderResult	95318	201801091357	95318	2.16.840.1.113883.6.1	'8867-4'	Heart Rate	23	bpm
OrderResult	95319	201807050000	95319	2.16.840.1.113883.6.1	'24698-3'	Vital Sign	84	mmHg
OrderResult	95325	193309021236	95325	2.16.840.1.113883.6.1	'8867-4'	Heart Rate	28	bpm
OrderResult	95325	193309021308	95325	2.16.840.1.113883.6.1	'8867-4'	Heart Rate	45	bpm
OrderResult	95327	200902181212	95327	2.16.840.1.113883.6.1	'8867-4'	Heart Rate	36	bpm
OrderResult	95327	200902181303	95327	2.16.840.1.113883.6.1	'8867-4'	Heart Rate	29	bpm
OrderResult	95327	201812010000	95327	2.16.840.1.113883.6.1	'38798-5'	Vital Sign	60	mmHg
OrderResult	95332	201804141206	95332	2.16.840.1.113883.6.1	'8867-4'	Heart Rate	30	bpm
OrderResult	95334	201804201226	95334	2.16.840.1.113883.6.1	'8867-4'	Heart Rate	20	bpm
OrderResult	95334	201804201354	95334	2.16.840.1.113883.6.1	'8867-4'	Heart Rate	41	bpm
OrderResult	95335	201812100000	95335	2.16.840.1.113883.6.1	'37138-5'	Vital Sign	66	mmHg
OrderResult	95341	195406051254	95341	2.16.840.1.113883.6.1	'8867-4'	Heart Rate	46	bpm
OrderResult	95341	195406051342	95341	2.16.840.1.113883.6.1	'8867-4'	Heart Rate	39	bpm
OrderResult	95343	192505161245	95343	2.16.840.1.113883.6.1	'8867-4'	Heart Rate	47	bpm
OrderResult	95343	192505161314	95343	2.16.840.1.113883.6.1	'8867-4'	Heart Rate	37	bpm
OrderResult	95343	201808160000	95343	2.16.840.1.113883.6.1	'35881-2'	Vital Sign	55	mmHg
OrderResult	95350	201804061202	95350	2.16.840.1.113883.6.1	'8867-4'	Heart Rate	22	bpm
OrderResult	95350	201804061309	95350	2.16.840.1.113883.6.1	'8867-4'	Heart Rate	40	bpm
OrderResult	95351	201807090000	95351	2.16.840.1.113883.6.1	'38771-2'	Vital Sign	64	mmHg
OrderResult	95358	201805111211	95358	2.16.840.1.113883.6.1	'8867-4'	Heart Rate	46	bpm
OrderResult	95358	201805111336	95358	2.16.840.1.113883.6.1	'8867-4'	Heart Rate	50	bpm
OrderResult	95359	201801201216	95359	2.16.840.1.113883.6.1	'8867-4'	Heart Rate	45	bpm
OrderResult	95359	201801201328	95359	2.16.840.1.113883.6.1	'8867-4'	Heart Rate	50	bpm
OrderResult	95359	201811090000	95359	2.16.840.1.113883.6.1	'37847-1'	Vital Sign	86	mmHg
OrderResult	95367	201803101200	95367	2.16.840.1.113883.6.1	'8867-4'	Heart Rate	21	bpm
OrderResult	95367	201803101305	95367	2.16.840.1.113883.6.1	'8867-4'	Heart Rate	20	bpm
OrderResult	95367	201810180000	95367	2.16.840.1.113883.6.1	'42304-6'	Vital Sign	74	mmHg
OrderResult	95372	201805121704	95372	2.16.840.1.113883.6.1	'8867-4'	Heart Rate	32	bpm
OrderResult	95375	201801151249	95375	2.16.840.1.113883.6.1	'8867-4'	Heart Rate	37	bpm
OrderResult	95375	201801151347	95375	2.16.840.1.113883.6.1	'8867-4'	Heart Rate	21	bpm
OrderResult	95375	201809250000	95375	2.16.840.1.113883.6.1	'69151-9'	Vital Sign	74	mmHg
OrderResult	95381	196906191232	95381	2.16.840.1.113883.6.1	'8867-4'	Heart Rate	20	bpm
OrderResult	95381	196906191334	95381	2.16.840.1.113883.6.1	'8867-4'	Heart Rate	41	bpm
OrderResult	95383	201803211243	95383	2.16.840.1.113883.6.1	'8867-4'	Heart Rate	33	bpm
OrderResult	95383	201803211317	95383	2.16.840.1.113883.6.1	'8867-4'	Heart Rate	50	bpm
OrderResult	95383	201810140000	95383	2.16.840.1.113883.6.1	'38009-7'	Vital Sign	80	mmHg
OrderResult	95391	201811040000	95391	2.16.840.1.113883.6.1	'26126-3'	Vital Sign	54	mmHg
OrderResult	95399	201808030000	95399	2.16.840.1.113883.6.1	'69148-5'	Vital Sign	56	mmHg
OrderResult	95406	201802071233	95406	2.16.840.1.113883.6.1	'8867-4'	Heart Rate	21	bpm
OrderResult	95406	201809221335	95406	2.16.840.1.113883.6.1	'8867-4'	Heart Rate	43	bpm
OrderResult	95407	201809260000	95407	2.16.840.1.113883.6.1	'25062-1'	Vital Sign	62	mmHg
OrderResult	95412	201803091204	95412	2.16.840.1.113883.6.1	'8867-4'	Heart Rate	25	bpm
OrderResult	95415	201810230000	95415	2.16.840.1.113883.6.1	'39053-4'	Vital Sign	81	mmHg
OrderResult	95421	201803201235	95421	2.16.840.1.113883.6.1	'8867-4'	Heart Rate	38	bpm
OrderResult	95421	201901191322	95421	2.16.840.1.113883.6.1	'8867-4'	Heart Rate	32	bpm
OrderResult	95423	201812020000	95423	2.16.840.1.113883.6.1	'44192-3'	Vital Sign	56	mmHg
OrderResult	95429	201804191220	95429	2.16.840.1.113883.6.1	'8867-4'	Heart Rate	49	bpm
OrderResult	95429	201804191340	95429	2.16.840.1.113883.6.1	'8867-4'	Heart Rate	44	bpm
OrderResult	95431	201809250000	95431	2.16.840.1.113883.6.1	'24993-8'	Vital Sign	56	mmHg
OrderResult	95436	200602221735	95436	2.16.840.1.113883.6.1	'8867-4'	Heart Rate	24	bpm
OrderResult	95439	201805141258	95439	2.16.840.1.113883.6.1	'8867-4'	Heart Rate	48	bpm
OrderResult	95439	201805141307	95439	2.16.840.1.113883.6.1	'8867-4'	Heart Rate	40	bpm
OrderResult	95439	201808030000	95439	2.16.840.1.113883.6.1	'62492-4'	Vital Sign	86	mmHg
OrderResult	95447	202304071222	95447	2.16.840.1.113883.6.1	'8867-4'	Heart Rate	20	bpm
OrderResult	95447	202304071329	95447	2.16.840.1.113883.6.1	'8867-4'	Heart Rate	37	bpm
OrderResult	95447	201809110000	95447	2.16.840.1.113883.6.1	'37382-9'	Vital Sign	64	mmHg
OrderResult	95454	201801111239	95454	2.16.840.1.113883.6.1	'8867-4'	Heart Rate	35	bpm
OrderResult	95454	201801111324	95454	2.16.840.1.113883.6.1	'8867-4'	Heart Rate	23	bpm
OrderResult	95455	193403261217	95455	2.16.840.1.113883.6.1	'8867-4'	Heart Rate	21	bpm
OrderResult	95455	193403261319	95455	2.16.840.1.113883.6.1	'8867-4'	Heart Rate	40	bpm
OrderResult	95455	201810270000	95455	2.16.840.1.113883.6.1	'44218-6'	Vital Sign	58	mmHg
OrderResult	95460	193201151756	95460	2.16.840.1.113883.6.1	'8867-4'	Heart Rate	44	bpm
OrderResult	95461	201801221205	95461	2.16.840.1.113883.6.1	'8867-4'	Heart Rate	45	bpm
OrderResult	95461	201801221352	95461	2.16.840.1.113883.6.1	'8867-4'	Heart Rate	44	bpm
OrderResult	95463	201810210000	95463	2.16.840.1.113883.6.1	'8296-6'	Vital Sign	59	mmHg
OrderResult	95471	201808290000	95471	2.16.840.1.113883.6.1	'26255-0'	Vital Sign	87	mmHg
OrderResult	95479	201811290000	95479	2.16.840.1.113883.6.1	'36604-7'	Vital Sign	57	mmHg
OrderResult	95485	194801231207	95485	2.16.840.1.113883.6.1	'8867-4'	Heart Rate	41	bpm
OrderResult	95487	201812300000	95487	2.16.840.1.113883.6.1	'37792-9'	Vital Sign	81	mmHg
OrderResult	95494	201803181256	95494	2.16.840.1.113883.6.1	'8867-4'	Heart Rate	22	bpm
OrderResult	95494	201803181321	95494	2.16.840.1.113883.6.1	'8867-4'	Heart Rate	22	bpm
OrderResult	95495	201809160000	95495	2.16.840.1.113883.6.1	'48695-1'	Vital Sign	67	mmHg
OrderResult	95500	200604171215	95500	2.16.840.1.113883.6.1	'8867-4'	Heart Rate	34	bpm
OrderResult	95503	201808250000	95503	2.16.840.1.113883.6.1	'37953-7'	Vital Sign	86	mmHg
OrderResult	95508	197602261252	95508	2.16.840.1.113883.6.1	'8867-4'	Heart Rate	24	bpm
OrderResult	95511	194212181257	95511	2.16.840.1.113883.6.1	'8867-4'	Heart Rate	37	bpm
OrderResult	95511	194212181337	95511	2.16.840.1.113883.6.1	'8867-4'	Heart Rate	45	bpm
OrderResult	95511	201808300000	95511	2.16.840.1.113883.6.1	'44217-8'	Vital Sign	60	mmHg
OrderResult	95519	201807200000	95519	2.16.840.1.113883.6.1	'26305-3'	Vital Sign	48	mmHg
OrderResult	95525	192207121227	95525	2.16.840.1.113883.6.1	'8867-4'	Heart Rate	21	bpm
OrderResult	95525	192207301346	95525	2.16.840.1.113883.6.1	'8867-4'	Heart Rate	48	bpm
OrderResult	95526	201408151218	95526	2.16.840.1.113883.6.1	'8867-4'	Heart Rate	35	bpm
OrderResult	95526	201502071331	95526	2.16.840.1.113883.6.1	'8867-4'	Heart Rate	108	bpm
OrderResult	95527	201102141219	95527	2.16.840.1.113883.6.1	'8867-4'	Heart Rate	40	bpm
OrderResult	95527	201102141312	95527	2.16.840.1.113883.6.1	'8867-4'	Heart Rate	50	bpm
OrderResult	95527	201807200000	95527	2.16.840.1.113883.6.1	'37455-3'	Vital Sign	49	mmHg
OrderResult	95535	201811130000	95535	2.16.840.1.113883.6.1	'69240-0'	Vital Sign	51	mmHg
OrderResult	95540	201901281754	95540	2.16.840.1.113883.6.1	'8867-4'	Heart Rate	36	bpm
OrderResult	95543	201807220000	95543	2.16.840.1.113883.6.1	'37711-9'	Vital Sign	56	mmHg
OrderResult	95551	201812050000	95551	2.16.840.1.113883.6.1	'44116-2'	Vital Sign	89	mmHg
OrderResult	95557	192202131236	95557	2.16.840.1.113883.6.1	'8867-4'	Heart Rate	27	bpm
OrderResult	95557	192202131330	95557	2.16.840.1.113883.6.1	'8867-4'	Heart Rate	26	bpm
OrderResult	95559	201809230000	95559	2.16.840.1.113883.6.1	'37790-3'	Vital Sign	73	mmHg
OrderResult	95564	196606021705	95564	2.16.840.1.113883.6.1	'8867-4'	Heart Rate	142	bpm
OrderResult	95567	201811230000	95567	2.16.840.1.113883.6.1	'24667-8'	Vital Sign	52	mmHg
OrderResult	95572	201803311753	95572	2.16.840.1.113883.6.1	'8867-4'	Heart Rate	23	bpm
OrderResult	95575	201810030000	95575	2.16.840.1.113883.6.1	'47374-4'	Vital Sign	44	mmHg
OrderResult	95580	201904281755	95580	2.16.840.1.113883.6.1	'8867-4'	Heart Rate	24	bpm
OrderResult	95583	201809250000	95583	2.16.840.1.113883.6.1	'37364-7'	Vital Sign	79	mmHg
OrderResult	95588	201809211724	95588	2.16.840.1.113883.6.1	'8867-4'	Heart Rate	41	bpm
OrderResult	95590	199804111212	95590	2.16.840.1.113883.6.1	'8867-4'	Heart Rate	47	bpm
OrderResult	95590	199804111333	95590	2.16.840.1.113883.6.1	'8867-4'	Heart Rate	48	bpm
OrderResult	95591	201811240000	95591	2.16.840.1.113883.6.1	'42400-2'	Vital Sign	63	mmHg
OrderResult	95599	201812290000	95599	2.16.840.1.113883.6.1	'37185-6'	Vital Sign	51	mmHg
OrderResult	95604	202001071729	95604	2.16.840.1.113883.6.1	'38097-2'	Vital Sign	20	bpm
OrderResult	95605	199610251206	95605	2.16.840.1.113883.6.1	'8867-4'	Heart Rate	50	bpm
OrderResult	95605	199610251348	95605	2.16.840.1.113883.6.1	'8867-4'	Heart Rate	32	bpm
OrderResult	95607	201811040000	95607	2.16.840.1.113883.6.1	'36856-3'	Vital Sign	47	mmHg
OrderResult	95612	194605231226	95612	2.16.840.1.113883.6.1	'8867-4'	Heart Rate	20	bpm
OrderResult	95614	195408191254	95614	2.16.840.1.113883.6.1	'8867-4'	Heart Rate	37	bpm
OrderResult	95614	195506211339	95614	2.16.840.1.113883.6.1	'8867-4'	Heart Rate	143	bpm
OrderResult	95615	201803301245	95615	2.16.840.1.113883.6.1	'8867-4'	Heart Rate	22	bpm
OrderResult	95615	201803301357	95615	2.16.840.1.113883.6.1	'8867-4'	Heart Rate	35	bpm
OrderResult	95615	201809130000	95615	2.16.840.1.113883.6.1	'36886-0'	Vital Sign	67	mmHg
OrderResult	95623	201811110000	95623	2.16.840.1.113883.6.1	'26374-9'	Vital Sign	54	mmHg
OrderResult	95628	201805131727	95628	2.16.840.1.113883.6.1	'37905-7'	Vital Sign	29	bpm
OrderResult	95631	201808040000	95631	2.16.840.1.113883.6.1	'26173-5'	Vital Sign	72	mmHg
OrderResult	95639	195102181202	95639	2.16.840.1.113883.6.1	'8867-4'	Heart Rate	32	bpm
OrderResult	95639	195102181308	95639	2.16.840.1.113883.6.1	'8867-4'	Heart Rate	42	bpm
OrderResult	95639	201812030000	95639	2.16.840.1.113883.6.1	'36309-3'	Vital Sign	85	mmHg
OrderResult	95645	196712221211	95645	2.16.840.1.113883.6.1	'8867-4'	Heart Rate	41	bpm
OrderResult	95645	196712221303	95645	2.16.840.1.113883.6.1	'8867-4'	Heart Rate	39	bpm
OrderResult	95647	201812090000	95647	2.16.840.1.113883.6.1	'37575-8'	Vital Sign	58	mmHg
OrderResult	95652	201801011216	95652	2.16.840.1.113883.6.1	'8867-4'	Heart Rate	40	bpm
OrderResult	95654	201804091200	95654	2.16.840.1.113883.6.1	'8867-4'	Heart Rate	41	bpm
OrderResult	95654	201804091354	95654	2.16.840.1.113883.6.1	'8867-4'	Heart Rate	45	bpm
OrderResult	95655	201811080000	95655	2.16.840.1.113883.6.1	'44134-5'	Vital Sign	52	mmHg
OrderResult	95663	201808120000	95663	2.16.840.1.113883.6.1	'42007-5'	Vital Sign	58	mmHg
OrderResult	95671	201810260000	95671	2.16.840.1.113883.6.1	'37003-1'	Vital Sign	88	mmHg
OrderResult	95678	196710121249	95678	2.16.840.1.113883.6.1	'8867-4'	Heart Rate	47	bpm
OrderResult	95678	196710121342	95678	2.16.840.1.113883.6.1	'8867-4'	Heart Rate	49	bpm
OrderResult	95679	201807130000	95679	2.16.840.1.113883.6.1	'37864-6'	Vital Sign	58	mmHg
OrderResult	95687	201811080000	95687	2.16.840.1.113883.6.1	'48481-6'	Vital Sign	45	mmHg
OrderResult	95694	192709151232	95694	2.16.840.1.113883.6.1	'8867-4'	Heart Rate	32	bpm
OrderResult	95695	201807290000	95695	2.16.840.1.113883.6.1	'37120-3'	Vital Sign	76	mmHg
OrderResult	95701	199401021243	95701	2.16.840.1.113883.6.1	'8867-4'	Heart Rate	30	bpm
OrderResult	95701	199401021314	95701	2.16.840.1.113883.6.1	'8867-4'	Heart Rate	31	bpm
OrderResult	95703	201812060000	95703	2.16.840.1.113883.6.1	'36937-1'	Vital Sign	73	mmHg
OrderResult	95709	201804101233	95709	2.16.840.1.113883.6.1	'8867-4'	Heart Rate	24	bpm
OrderResult	95709	201804101309	95709	2.16.840.1.113883.6.1	'8867-4'	Heart Rate	45	bpm
OrderResult	95711	201803231204	95711	2.16.840.1.113883.6.1	'8867-4'	Heart Rate	24	bpm
OrderResult	95711	201803231336	95711	2.16.840.1.113883.6.1	'8867-4'	Heart Rate	24	bpm
OrderResult	95711	201811160000	95711	2.16.840.1.113883.6.1	'43493-6'	Vital Sign	64	mmHg
OrderResult	95719	201807130000	95719	2.16.840.1.113883.6.1	'37579-0'	Vital Sign	41	mmHg
OrderResult	95727	201811210000	95727	2.16.840.1.113883.6.1	'38814-0'	Vital Sign	86	mmHg
OrderResult	95735	201807230000	95735	2.16.840.1.113883.6.1	'41778-2'	Vital Sign	49	mmHg
OrderResult	95743	201807060000	95743	2.16.840.1.113883.6.1	'36750-8'	Vital Sign	68	mmHg
OrderResult	95749	201802091235	95749	2.16.840.1.113883.6.1	'8867-4'	Heart Rate	47	bpm
OrderResult	95749	201802091328	95749	2.16.840.1.113883.6.1	'8867-4'	Heart Rate	35	bpm
OrderResult	95751	201811270000	95751	2.16.840.1.113883.6.1	'30723-1'	Vital Sign	88	mmHg
OrderResult	95758	192607141220	95758	2.16.840.1.113883.6.1	'8867-4'	Heart Rate	49	bpm
OrderResult	95758	192607141305	95758	2.16.840.1.113883.6.1	'8867-4'	Heart Rate	42	bpm
OrderResult	95759	200909041258	95759	2.16.840.1.113883.6.1	'8867-4'	Heart Rate	32	bpm
OrderResult	95759	201008291347	95759	2.16.840.1.113883.6.1	'8867-4'	Heart Rate	102	bpm
OrderResult	95759	201810310000	95759	2.16.840.1.113883.6.1	'37357-1'	Vital Sign	85	mmHg
OrderResult	95767	201809270000	95767	2.16.840.1.113883.6.1	'42395-4'	Vital Sign	55	mmHg
OrderResult	95772	201310281723	95772	2.16.840.1.113883.6.1	'8867-4'	Heart Rate	21	bpm
OrderResult	95775	201812200000	95775	2.16.840.1.113883.6.1	'43523-0'	Vital Sign	67	mmHg
OrderResult	95781	201802151222	95781	2.16.840.1.113883.6.1	'8867-4'	Heart Rate	41	bpm
OrderResult	95781	201802151334	95781	2.16.840.1.113883.6.1	'8867-4'	Heart Rate	42	bpm
OrderResult	95783	201810150000	95783	2.16.840.1.113883.6.1	'38156-6'	Vital Sign	72	mmHg
OrderResult	95791	201807190000	95791	2.16.840.1.113883.6.1	'37925-5'	Vital Sign	42	mmHg
OrderResult	95796	200412261239	95796	2.16.840.1.113883.6.1	'8867-4'	Heart Rate	23	bpm
OrderResult	95799	201803041217	95799	2.16.840.1.113883.6.1	'8867-4'	Heart Rate	39	bpm
OrderResult	95799	201803041317	95799	2.16.840.1.113883.6.1	'8867-4'	Heart Rate	36	bpm
OrderResult	95799	201811210000	95799	2.16.840.1.113883.6.1	'46312-5'	Vital Sign	81	mmHg
OrderResult	95804	194612051205	95804	2.16.840.1.113883.6.1	'8867-4'	Heart Rate	32	bpm
OrderResult	95805	201804271207	95805	2.16.840.1.113883.6.1	'8867-4'	Heart Rate	31	bpm
OrderResult	95805	201807291335	95805	2.16.840.1.113883.6.1	'8867-4'	Heart Rate	95	bpm
OrderResult	95807	198101181256	95807	2.16.840.1.113883.6.1	'8867-4'	Heart Rate	39	bpm
OrderResult	95807	198101181322	95807	2.16.840.1.113883.6.1	'8867-4'	Heart Rate	29	bpm
OrderResult	95807	201807170000	95807	2.16.840.1.113883.6.1	'37746-5'	Vital Sign	71	mmHg
OrderResult	95815	201809190000	95815	2.16.840.1.113883.6.1	'24716-3'	Vital Sign	67	mmHg
OrderResult	95823	201807280000	95823	2.16.840.1.113883.6.1	'36876-1'	Vital Sign	74	mmHg
OrderResult	95828	201703011746	95828	2.16.840.1.113883.6.1	'8867-4'	Heart Rate	40	bpm
OrderResult	95829	196902171215	95829	2.16.840.1.113883.6.1	'8867-4'	Heart Rate	50	bpm
OrderResult	95829	196902171340	95829	2.16.840.1.113883.6.1	'8867-4'	Heart Rate	39	bpm
OrderResult	95831	201812190000	95831	2.16.840.1.113883.6.1	'39144-1'	Vital Sign	52	mmHg
OrderResult	95839	201808280000	95839	2.16.840.1.113883.6.1	'43496-9'	Vital Sign	72	mmHg
OrderResult	95844	200212271714	95844	2.16.840.1.113883.6.1	'8867-4'	Heart Rate	23	bpm
OrderResult	95847	201809230000	95847	2.16.840.1.113883.6.1	'39070-8'	Vital Sign	42	mmHg
OrderResult	95852	201803131750	95852	2.16.840.1.113883.6.1	'8867-4'	Heart Rate	21	bpm
OrderResult	95854	194509201252	95854	2.16.840.1.113883.6.1	'8867-4'	Heart Rate	26	bpm
OrderResult	95854	194509201307	95854	2.16.840.1.113883.6.1	'8867-4'	Heart Rate	26	bpm
OrderResult	95855	198509191257	95855	2.16.840.1.113883.6.1	'8867-4'	Heart Rate	43	bpm
OrderResult	95855	198509191329	95855	2.16.840.1.113883.6.1	'8867-4'	Heart Rate	32	bpm
OrderResult	95855	201812040000	95855	2.16.840.1.113883.6.1	'24930-0'	Vital Sign	85	mmHg
OrderResult	95863	201807220000	95863	2.16.840.1.113883.6.1	'36949-6'	Vital Sign	45	mmHg
OrderResult	95871	201808100000	95871	2.16.840.1.113883.6.1	'39351-2'	Vital Sign	89	mmHg
OrderResult	95877	201801301227	95877	2.16.840.1.113883.6.1	'8867-4'	Heart Rate	33	bpm
OrderResult	95877	201801301324	95877	2.16.840.1.113883.6.1	'8867-4'	Heart Rate	45	bpm
OrderResult	95879	201812260000	95879	2.16.840.1.113883.6.1	'37621-0'	Vital Sign	75	mmHg
OrderResult	95885	201803041218	95885	2.16.840.1.113883.6.1	'8867-4'	Heart Rate	46	bpm
OrderResult	95885	201803041319	95885	2.16.840.1.113883.6.1	'8867-4'	Heart Rate	22	bpm
OrderResult	95887	201807110000	95887	2.16.840.1.113883.6.1	'30790-0'	Vital Sign	78	mmHg
OrderResult	95895	201810160000	95895	2.16.840.1.113883.6.1	'37048-6'	Vital Sign	86	mmHg
OrderResult	95900	193503311725	95900	2.16.840.1.113883.6.1	'8867-4'	Heart Rate	24	bpm
OrderResult	95901	201802041219	95901	2.16.840.1.113883.6.1	'8867-4'	Heart Rate	29	bpm
OrderResult	95901	201802041352	95901	2.16.840.1.113883.6.1	'8867-4'	Heart Rate	41	bpm
OrderResult	95903	201808230000	95903	2.16.840.1.113883.6.1	'36567-6'	Vital Sign	77	mmHg
OrderResult	95909	201801131236	95909	2.16.840.1.113883.6.1	'8867-4'	Heart Rate	28	bpm
OrderResult	95909	201801131321	95909	2.16.840.1.113883.6.1	'8867-4'	Heart Rate	47	bpm
OrderResult	95911	201811100000	95911	2.16.840.1.113883.6.1	'30847-8'	Vital Sign	46	mmHg
OrderResult	95916	200410051212	95916	2.16.840.1.113883.6.1	'8867-4'	Heart Rate	48	bpm
OrderResult	95919	201811070000	95919	2.16.840.1.113883.6.1	'38861-1'	Vital Sign	82	mmHg
OrderResult	95925	194502161206	95925	2.16.840.1.113883.6.1	'8867-4'	Heart Rate	26	bpm
OrderResult	95925	194502161337	95925	2.16.840.1.113883.6.1	'8867-4'	Heart Rate	37	bpm
OrderResult	95926	201801211226	95926	2.16.840.1.113883.6.1	'8867-4'	Heart Rate	22	bpm
OrderResult	95926	201801211346	95926	2.16.840.1.113883.6.1	'8867-4'	Heart Rate	35	bpm
OrderResult	95927	201807060000	95927	2.16.840.1.113883.6.1	'37660-8'	Vital Sign	44	mmHg
OrderResult	95932	198904221745	95932	2.16.840.1.113883.6.1	'37432-2'	Vital Sign	46	bpm
OrderResult	95935	201811260000	95935	2.16.840.1.113883.6.1	'42434-1'	Vital Sign	46	mmHg
OrderResult	95941	195501081254	95941	2.16.840.1.113883.6.1	'8867-4'	Heart Rate	31	bpm
OrderResult	95941	195501081331	95941	2.16.840.1.113883.6.1	'8867-4'	Heart Rate	23	bpm
OrderResult	95942	198302031741	95942	2.16.840.1.113883.6.1	'8867-4'	Heart Rate	43	bpm
OrderResult	95943	199803151245	95943	2.16.840.1.113883.6.1	'8867-4'	Heart Rate	50	bpm
OrderResult	95943	199803151312	95943	2.16.840.1.113883.6.1	'8867-4'	Heart Rate	46	bpm
OrderResult	95943	201808110000	95943	2.16.840.1.113883.6.1	'43791-3'	Vital Sign	69	mmHg
OrderResult	95949	201803241202	95949	2.16.840.1.113883.6.1	'8867-4'	Heart Rate	46	bpm
OrderResult	95949	201803241330	95949	2.16.840.1.113883.6.1	'8867-4'	Heart Rate	34	bpm
OrderResult	95951	201812160000	95951	2.16.840.1.113883.6.1	'24974-8'	Vital Sign	88	mmHg
OrderResult	95957	201804221211	95957	2.16.840.1.113883.6.1	'8867-4'	Heart Rate	40	bpm
OrderResult	95957	201804221333	95957	2.16.840.1.113883.6.1	'8867-4'	Heart Rate	48	bpm
OrderResult	95958	198807091216	95958	2.16.840.1.113883.6.1	'8867-4'	Heart Rate	36	bpm
OrderResult	95958	198807091348	95958	2.16.840.1.113883.6.1	'8867-4'	Heart Rate	32	bpm
OrderResult	95959	201808080000	95959	2.16.840.1.113883.6.1	'36617-9'	Vital Sign	46	mmHg
OrderResult	95967	201810260000	95967	2.16.840.1.113883.6.1	'30810-6'	Vital Sign	50	mmHg
OrderResult	95973	201805291200	95973	2.16.840.1.113883.6.1	'8867-4'	Heart Rate	31	bpm
OrderResult	95973	201805291339	95973	2.16.840.1.113883.6.1	'8867-4'	Heart Rate	38	bpm
OrderResult	95975	201805051249	95975	2.16.840.1.113883.6.1	'8867-4'	Heart Rate	38	bpm
OrderResult	95975	201805051357	95975	2.16.840.1.113883.6.1	'8867-4'	Heart Rate	42	bpm
OrderResult	95975	201809180000	95975	2.16.840.1.113883.6.1	'37743-2'	Vital Sign	61	mmHg
OrderResult	95982	192806271232	95982	2.16.840.1.113883.6.1	'8867-4'	Heart Rate	21	bpm
OrderResult	95982	192806271308	95982	2.16.840.1.113883.6.1	'8867-4'	Heart Rate	47	bpm
OrderResult	95983	201808090000	95983	2.16.840.1.113883.6.1	'37591-5'	Vital Sign	48	mmHg
OrderResult	95990	202308091243	95990	2.16.840.1.113883.6.1	'8867-4'	Heart Rate	37	bpm
OrderResult	95990	202308091303	95990	2.16.840.1.113883.6.1	'8867-4'	Heart Rate	30	bpm
OrderResult	95991	201808160000	95991	2.16.840.1.113883.6.1	'36637-7'	Vital Sign	58	mmHg
OrderResult	95996	195201021736	95996	2.16.840.1.113883.6.1	'8867-4'	Heart Rate	48	bpm
OrderResult	95999	201809010000	95999	2.16.840.1.113883.6.1	'37825-7'	Vital Sign	71	mmHg
OrderResult	96007	201808140000	96007	2.16.840.1.113883.6.1	'42438-2'	Vital Sign	61	mmHg
OrderResult	96014	201805091233	96014	2.16.840.1.113883.6.1	'8867-4'	Heart Rate	50	bpm
OrderResult	96014	201805091354	96014	2.16.840.1.113883.6.1	'8867-4'	Heart Rate	24	bpm
OrderResult	96015	201807310000	96015	2.16.840.1.113883.6.1	'24792-4'	Vital Sign	55	mmHg
OrderResult	96021	201805261204	96021	2.16.840.1.113883.6.1	'8867-4'	Heart Rate	20	bpm
OrderResult	96021	201805261342	96021	2.16.840.1.113883.6.1	'8867-4'	Heart Rate	32	bpm
OrderResult	96023	201810240000	96023	2.16.840.1.113883.6.1	'37910-7'	Vital Sign	67	mmHg
OrderResult	96029	201801041235	96029	2.16.840.1.113883.6.1	'8867-4'	Heart Rate	32	bpm
OrderResult	96029	201801041314	96029	2.16.840.1.113883.6.1	'8867-4'	Heart Rate	40	bpm
OrderResult	96030	201805311220	96030	2.16.840.1.113883.6.1	'8867-4'	Heart Rate	43	bpm
OrderResult	96030	201805311309	96030	2.16.840.1.113883.6.1	'8867-4'	Heart Rate	43	bpm
OrderResult	96031	201811060000	96031	2.16.840.1.113883.6.1	'36588-2'	Vital Sign	40	mmHg
OrderResult	96038	198705181258	96038	2.16.840.1.113883.6.1	'8867-4'	Heart Rate	42	bpm
OrderResult	96038	198705181336	96038	2.16.840.1.113883.6.1	'8867-4'	Heart Rate	43	bpm
OrderResult	96039	201810310000	96039	2.16.840.1.113883.6.1	'69309-3'	Vital Sign	75	mmHg
OrderResult	96046	200509091222	96046	2.16.840.1.113883.6.1	'8867-4'	Heart Rate	21	bpm
OrderResult	96046	200509091328	96046	2.16.840.1.113883.6.1	'8867-4'	Heart Rate	47	bpm
OrderResult	96047	201812150000	96047	2.16.840.1.113883.6.1	'69154-3'	Vital Sign	85	mmHg
OrderResult	96055	201810090000	96055	2.16.840.1.113883.6.1	'43518-0'	Vital Sign	71	mmHg
OrderResult	96060	201801031239	96060	2.16.840.1.113883.6.1	'8867-4'	Heart Rate	28	bpm
OrderResult	96063	201803211217	96063	2.16.840.1.113883.6.1	'8867-4'	Heart Rate	31	bpm
OrderResult	96063	201807101305	96063	2.16.840.1.113883.6.1	'8867-4'	Heart Rate	38	bpm
OrderResult	96063	201807110000	96063	2.16.840.1.113883.6.1	'26086-9'	Vital Sign	44	mmHg
OrderResult	96071	193408221205	96071	2.16.840.1.113883.6.1	'8867-4'	Heart Rate	20	bpm
OrderResult	96071	193408221347	96071	2.16.840.1.113883.6.1	'8867-4'	Heart Rate	34	bpm
OrderResult	96071	201810100000	96071	2.16.840.1.113883.6.1	'37626-9'	Vital Sign	55	mmHg
OrderResult	96079	201804181207	96079	2.16.840.1.113883.6.1	'8867-4'	Heart Rate	44	bpm
OrderResult	96079	201804181334	96079	2.16.840.1.113883.6.1	'8867-4'	Heart Rate	31	bpm
OrderResult	96079	201809190000	96079	2.16.840.1.113883.6.1	'30884-1'	Vital Sign	56	mmHg
OrderResult	96085	201612271256	96085	2.16.840.1.113883.6.1	'8867-4'	Heart Rate	38	bpm
OrderResult	96085	201612271317	96085	2.16.840.1.113883.6.1	'8867-4'	Heart Rate	39	bpm
OrderResult	96087	202302101215	96087	2.16.840.1.113883.6.1	'8867-4'	Heart Rate	27	bpm
OrderResult	96087	202302101335	96087	2.16.840.1.113883.6.1	'8867-4'	Heart Rate	49	bpm
OrderResult	96087	201809230000	96087	2.16.840.1.113883.6.1	'38003-0'	Vital Sign	55	mmHg
OrderResult	96092	198303261720	96092	2.16.840.1.113883.6.1	'8867-4'	Heart Rate	35	bpm
OrderResult	96095	201805271252	96095	2.16.840.1.113883.6.1	'8867-4'	Heart Rate	26	bpm
OrderResult	96095	201805271322	96095	2.16.840.1.113883.6.1	'8867-4'	Heart Rate	34	bpm
OrderResult	96095	201811150000	96095	2.16.840.1.113883.6.1	'36689-8'	Vital Sign	70	mmHg
OrderResult	96100	201803061706	96100	2.16.840.1.113883.6.1	'8867-4'	Heart Rate	33	bpm
OrderResult	96103	201811030000	96103	2.16.840.1.113883.6.1	'36104-8'	Vital Sign	52	mmHg
OrderResult	96108	195310271719	96108	2.16.840.1.113883.6.1	'8867-4'	Heart Rate	20	bpm
OrderResult	96109	200404291257	96109	2.16.840.1.113883.6.1	'8867-4'	Heart Rate	46	bpm
OrderResult	96109	200404291340	96109	2.16.840.1.113883.6.1	'8867-4'	Heart Rate	46	bpm
OrderResult	96111	194307051227	96111	2.16.840.1.113883.6.1	'8867-4'	Heart Rate	39	bpm
OrderResult	96111	194307051307	96111	2.16.840.1.113883.6.1	'8867-4'	Heart Rate	24	bpm
OrderResult	96111	201810260000	96111	2.16.840.1.113883.6.1	'36687-2'	Vital Sign	87	mmHg
OrderResult	96118	201804081218	96118	2.16.840.1.113883.6.1	'8867-4'	Heart Rate	47	bpm
OrderResult	96118	201804081329	96118	2.16.840.1.113883.6.1	'8867-4'	Heart Rate	45	bpm
OrderResult	96119	201810220000	96119	2.16.840.1.113883.6.1	'37403-3'	Vital Sign	43	mmHg
OrderResult	96124	201804291219	96124	2.16.840.1.113883.6.1	'8867-4'	Heart Rate	21	bpm
OrderResult	96127	201812190000	96127	2.16.840.1.113883.6.1	'35943-0'	Vital Sign	64	mmHg
OrderResult	96134	193708201236	96134	2.16.840.1.113883.6.1	'8867-4'	Heart Rate	34	bpm
OrderResult	96134	193708201324	96134	2.16.840.1.113883.6.1	'8867-4'	Heart Rate	48	bpm
OrderResult	96135	201811100000	96135	2.16.840.1.113883.6.1	'36001-6'	Vital Sign	56	mmHg
OrderResult	96143	201811120000	96143	2.16.840.1.113883.6.1	'37134-4'	Vital Sign	54	mmHg
OrderResult	96151	195209191212	96151	2.16.840.1.113883.6.1	'8867-4'	Heart Rate	50	bpm
OrderResult	96151	195209191319	96151	2.16.840.1.113883.6.1	'8867-4'	Heart Rate	28	bpm
OrderResult	96151	201810050000	96151	2.16.840.1.113883.6.1	'37834-9'	Vital Sign	57	mmHg
OrderResult	96159	201810080000	96159	2.16.840.1.113883.6.1	'43482-9'	Vital Sign	84	mmHg
OrderResult	96164	198710211206	96164	2.16.840.1.113883.6.1	'8867-4'	Heart Rate	40	bpm
OrderResult	96165	200301061226	96165	2.16.840.1.113883.6.1	'8867-4'	Heart Rate	48	bpm
OrderResult	96165	200301061352	96165	2.16.840.1.113883.6.1	'8867-4'	Heart Rate	31	bpm
OrderResult	96167	193801211254	96167	2.16.840.1.113883.6.1	'8867-4'	Heart Rate	22	bpm
OrderResult	96167	193801211321	96167	2.16.840.1.113883.6.1	'8867-4'	Heart Rate	20	bpm
OrderResult	96167	201812100000	96167	2.16.840.1.113883.6.1	'36987-6'	Vital Sign	71	mmHg
OrderResult	96172	194903311245	96172	2.16.840.1.113883.6.1	'8867-4'	Heart Rate	46	bpm
OrderResult	96175	201808170000	96175	2.16.840.1.113883.6.1	'69311-9'	Vital Sign	68	mmHg
OrderResult	96183	201805161202	96183	2.16.840.1.113883.6.1	'8867-4'	Heart Rate	48	bpm
OrderResult	96183	201805161337	96183	2.16.840.1.113883.6.1	'8867-4'	Heart Rate	36	bpm
OrderResult	96183	201807270000	96183	2.16.840.1.113883.6.1	'36783-9'	Vital Sign	57	mmHg
OrderResult	96188	196209171728	96188	2.16.840.1.113883.6.1	'8867-4'	Heart Rate	22	bpm
OrderResult	96191	201812120000	96191	2.16.840.1.113883.6.1	'37869-5'	Vital Sign	63	mmHg
OrderResult	96199	201809280000	96199	2.16.840.1.113883.6.1	'30849-4'	Vital Sign	78	mmHg
OrderResult	96207	201811230000	96207	2.16.840.1.113883.6.1	'36688-0'	Vital Sign	78	mmHg
OrderResult	96215	201805141211	96215	2.16.840.1.113883.6.1	'8867-4'	Heart Rate	26	bpm
OrderResult	96215	201805141346	96215	2.16.840.1.113883.6.1	'8867-4'	Heart Rate	23	bpm
OrderResult	96215	201811070000	96215	2.16.840.1.113883.6.1	'43561-0'	Vital Sign	51	mmHg
OrderResult	96220	196712061748	96220	2.16.840.1.113883.6.1	'8867-4'	Heart Rate	43	bpm
OrderResult	96223	201809060000	96223	2.16.840.1.113883.6.1	'24650-4'	Vital Sign	73	mmHg
OrderResult	96229	201802011216	96229	2.16.840.1.113883.6.1	'8867-4'	Heart Rate	42	bpm
OrderResult	96229	201802011331	96229	2.16.840.1.113883.6.1	'8867-4'	Heart Rate	31	bpm
OrderResult	96230	201802011200	96230	2.16.840.1.113883.6.1	'8867-4'	Heart Rate	27	bpm
OrderResult	96230	201802011312	96230	2.16.840.1.113883.6.1	'8867-4'	Heart Rate	40	bpm
OrderResult	96231	201803141249	96231	2.16.840.1.113883.6.1	'8867-4'	Heart Rate	45	bpm
OrderResult	96231	201803141330	96231	2.16.840.1.113883.6.1	'8867-4'	Heart Rate	27	bpm
OrderResult	96231	201810100000	96231	2.16.840.1.113883.6.1	'37523-8'	Vital Sign	75	mmHg
OrderResult	96239	201810080000	96239	2.16.840.1.113883.6.1	'39368-6'	Vital Sign	43	mmHg
OrderResult	96244	201802241232	96244	2.16.840.1.113883.6.1	'8867-4'	Heart Rate	45	bpm
OrderResult	96247	193003241243	96247	2.16.840.1.113883.6.1	'8867-4'	Heart Rate	37	bpm
OrderResult	96247	193003241333	96247	2.16.840.1.113883.6.1	'8867-4'	Heart Rate	44	bpm
OrderResult	96247	201809080000	96247	2.16.840.1.113883.6.1	'26109-9'	Vital Sign	61	mmHg
OrderResult	96254	195102131233	96254	2.16.840.1.113883.6.1	'8867-4'	Heart Rate	46	bpm
OrderResult	96254	195102131348	96254	2.16.840.1.113883.6.1	'8867-4'	Heart Rate	22	bpm
OrderResult	96255	201812110000	96255	2.16.840.1.113883.6.1	'64999-6'	Vital Sign	73	mmHg
OrderResult	96260	201802141744	96260	2.16.840.1.113883.6.1	'8867-4'	Heart Rate	87	bpm
OrderResult	96263	201807240000	96263	2.16.840.1.113883.6.1	'36561-9'	Vital Sign	67	mmHg
OrderResult	96271	201807100000	96271	2.16.840.1.113883.6.1	'37856-2'	Vital Sign	69	mmHg
OrderResult	96277	201805221204	96277	2.16.840.1.113883.6.1	'8867-4'	Heart Rate	41	bpm
OrderResult	96277	201805221339	96277	2.16.840.1.113883.6.1	'8867-4'	Heart Rate	25	bpm
OrderResult	96279	201809210000	96279	2.16.840.1.113883.6.1	'37518-8'	Vital Sign	70	mmHg
OrderResult	96284	201802161726	96284	2.16.840.1.113883.6.1	'8867-4'	Heart Rate	132	bpm
OrderResult	96285	201801301235	96285	2.16.840.1.113883.6.1	'8867-4'	Heart Rate	29	bpm
OrderResult	96285	201801301357	96285	2.16.840.1.113883.6.1	'8867-4'	Heart Rate	23	bpm
OrderResult	96286	201802031220	96286	2.16.840.1.113883.6.1	'8867-4'	Heart Rate	27	bpm
OrderResult	96286	201802031308	96286	2.16.840.1.113883.6.1	'8867-4'	Heart Rate	23	bpm
OrderResult	96287	201811050000	96287	2.16.840.1.113883.6.1	'37353-0'	Vital Sign	54	mmHg
OrderResult	96295	201810260000	96295	2.16.840.1.113883.6.1	'36639-3'	Vital Sign	50	mmHg
OrderResult	96301	200008261258	96301	2.16.840.1.113883.6.1	'8867-4'	Heart Rate	32	bpm
OrderResult	96301	200008261303	96301	2.16.840.1.113883.6.1	'8867-4'	Heart Rate	49	bpm
OrderResult	96302	201804071222	96302	2.16.840.1.113883.6.1	'8867-4'	Heart Rate	28	bpm
OrderResult	96302	201810231354	96302	2.16.840.1.113883.6.1	'8867-4'	Heart Rate	101	bpm
OrderResult	96303	201807050000	96303	2.16.840.1.113883.6.1	'38087-3'	Vital Sign	42	mmHg
OrderResult	96308	201804241239	96308	2.16.840.1.113883.6.1	'8867-4'	Heart Rate	46	bpm
OrderResult	96311	198408141217	96311	2.16.840.1.113883.6.1	'8867-4'	Heart Rate	35	bpm
OrderResult	96311	198507291342	96311	2.16.840.1.113883.6.1	'8867-4'	Heart Rate	39	bpm
OrderResult	96311	201812070000	96311	2.16.840.1.113883.6.1	'36804-3'	Vital Sign	65	mmHg
OrderResult	96319	201812090000	96319	2.16.840.1.113883.6.1	'30892-4'	Vital Sign	80	mmHg
OrderResult	96327	201810040000	96327	2.16.840.1.113883.6.1	'36632-8'	Vital Sign	45	mmHg
OrderResult	96335	201808070000	96335	2.16.840.1.113883.6.1	'42459-8'	Vital Sign	49	mmHg
OrderResult	96340	199306261205	96340	2.16.840.1.113883.6.1	'8867-4'	Heart Rate	46	bpm
OrderResult	96341	201805241207	96341	2.16.840.1.113883.6.1	'8867-4'	Heart Rate	40	bpm
OrderResult	96341	201805241314	96341	2.16.840.1.113883.6.1	'8867-4'	Heart Rate	40	bpm
OrderResult	96343	201808060000	96343	2.16.840.1.113883.6.1	'44195-6'	Vital Sign	47	mmHg
OrderResult	96348	201804161256	96348	2.16.840.1.113883.6.1	'8867-4'	Heart Rate	34	bpm
OrderResult	96350	197402251215	96350	2.16.840.1.113883.6.1	'8867-4'	Heart Rate	25	bpm
OrderResult	96350	197402251309	96350	2.16.840.1.113883.6.1	'8867-4'	Heart Rate	23	bpm
OrderResult	96351	201812140000	96351	2.16.840.1.113883.6.1	'39391-8'	Vital Sign	72	mmHg
OrderResult	96359	199601181252	96359	2.16.840.1.113883.6.1	'8867-4'	Heart Rate	41	bpm
OrderResult	96359	199601181336	96359	2.16.840.1.113883.6.1	'8867-4'	Heart Rate	44	bpm
OrderResult	96359	201811130000	96359	2.16.840.1.113883.6.1	'42295-6'	Vital Sign	66	mmHg
OrderResult	96364	201808101740	96364	2.16.840.1.113883.6.1	'8867-4'	Heart Rate	37	bpm
OrderResult	96366	201801271257	96366	2.16.840.1.113883.6.1	'8867-4'	Heart Rate	36	bpm
OrderResult	96366	201809041328	96366	2.16.840.1.113883.6.1	'8867-4'	Heart Rate	46	bpm
OrderResult	96367	201812290000	96367	2.16.840.1.113883.6.1	'37325-8'	Vital Sign	40	mmHg
OrderResult	96372	198102191758	96372	2.16.840.1.113883.6.1	'69306-9'	Vital Sign	25	bpm
OrderResult	96373	201802231227	96373	2.16.840.1.113883.6.1	'8867-4'	Heart Rate	20	bpm
OrderResult	96373	201802231305	96373	2.16.840.1.113883.6.1	'8867-4'	Heart Rate	35	bpm
OrderResult	96375	201807190000	96375	2.16.840.1.113883.6.1	'39493-2'	Vital Sign	40	mmHg
OrderResult	96381	201801261218	96381	2.16.840.1.113883.6.1	'8867-4'	Heart Rate	48	bpm
OrderResult	96381	201801261347	96381	2.16.840.1.113883.6.1	'8867-4'	Heart Rate	35	bpm
OrderResult	96383	201809260000	96383	2.16.840.1.113883.6.1	'42153-7'	Vital Sign	49	mmHg
OrderResult	96390	197406181219	96390	2.16.840.1.113883.6.1	'8867-4'	Heart Rate	27	bpm
OrderResult	96390	197408101334	96390	2.16.840.1.113883.6.1	'8867-4'	Heart Rate	47	bpm
OrderResult	96391	201810240000	96391	2.16.840.1.113883.6.1	'42422-6'	Vital Sign	54	mmHg
