code
R00
R00.0
R00.1
R00.2
R00.8
R01
R01.0
R01.1
R01.2
R03
R03.0
R03.1
R04
R04.0
R04.1
R04.2
R04.8
R04.9
R05
R06
R06.0
R06.1
R06.2
R06.3
R06.4
R06.5
R06.6
R06.7
R06.8
R07
R07.0
R07.1
R07.2
R07.3
R07.4
R09
R09.0
R09.1
R09.2
R09.3
R09.8
