patient_id|submission_id|event_class|payer_id|mood_code
95465|c931ee8677d54b238ad01738420863ea|Payer|08fc4986-d57e-4059-9a45-4f45320524dc|EVN
95303|88d7c8541bb746fc845d1fafeaa2882f|Payer|1b2fbe47-1a4c-41b3-9a4e-9e94a56b9ef7|EVN
95317|9e8ad563de9745fcaf335e6f0d42887c|Payer|18957630-19cb-4efb-b0be-66b5b5200f82|EVN
95471|aad7c560b20843af8a124bf353d79b7e|Payer|e65e99f7-25f2-4354-be33-b71a3f29e8ee|EVN
95459|b9d8f3cc031c4a86813fc439c654ec00|Payer|701fc136-2077-4174-a784-c44cdce2de44|EVN
95698|b8ff6b1bb9074b1f911054195b0d67d5|Payer|117d51ca-7422-4277-bf3d-71fa09db2901|EVN
95101|eea899a02fa4442796e753da10aa9138|Payer|d924efe2-15c5-48cc-87b8-bd26995ab58b|EVN
95667|c13204dae84d4e709bcff11ec5a15c7f|Payer|7be3bdec-a40f-4676-bc6d-b9dcb5e8f980|EVN
95673|bb3ef7f7e6194b3f81f87e71494126d7|Payer|73cdde7c-f0e1-461c-b067-5805f8c3cb2c|EVN
95115|e760dc5f6a4e4ba987a5190215adde66|Payer|4412b2ee-487f-4fa0-bbb0-838c6f8d6dad|EVN
95129|1d1ec59bb2584ce4bf825dc7e07a5faf|Payer|54b1b9c7-87e8-4f7e-b0ea-c3cc4dc26711|EVN
95075|0c6f8d51537649b2a39adb00c80537b6|Payer|38e33bfa-f663-44ff-a0b8-a525c5cd4eb7|EVN
95713|ef427a29be4e40b1b9fed2ab50d56417|Payer|c48f8b98-45e7-4d29-b0dd-67188cefaa87|EVN
95707|505d2e33f0e0474e9e941e95d58a8524|Payer|b994f8f3-5f9a-4452-bd18-a22a77701eec|EVN
95061|ed669c19b47448e282f448244105b635|Payer|3ce2b078-fe89-48e6-80cd-1fafecbaaaf7|EVN
95049|27d8d0e1faa146feb2c0e5a6d93fc729|Payer|2c1aa452-5354-4361-84be-7b27aca64e51|EVN
95288|bdcef6d828d5479a9454274e268dfe89|Payer|094dd908-1187-4e6e-bbe0-a8108659729d|EVN
95511|d5765cf2604644c8bc18239dda3f5c6f|Payer|407408e5-9c90-4703-80bb-e6535b844183|EVN
95277|e5907fc33e1748669212c2ede479c9c0|Payer|4d1941dd-f766-47c5-8bcf-660784151749|EVN
95263|fefffa0b00b140f8bf136a68d15f60db|Payer|1f8f0c57-d20a-439e-b264-787b2ca0581a|EVN
95505|1b5e96d4f26942b0ae93960fb4b74994|Payer|9db7e920-17e4-4088-82e8-2d05d3180862|EVN
95539|41e1b64c0c56450880c8c45f225b463c|Payer|d08c30f7-cf72-4f5e-90e7-d87529129bf1|EVN
95538|f3fef2329e7f4af7893b4d22fcdb8c89|Payer|a43c8c37-665a-429c-ac0f-780c4e28d315|EVN
95262|8a3c5240bfea4bdaa9a2816a27dbd0fa|Payer|e3a23930-d6d5-49b6-8dd4-1566c5ee3d57|EVN
95504|32a59e35348b467c981a7364f42c58a3|Payer|16c39276-f295-45ed-ab4a-0976832c5ee4|EVN
95510|9af46fd99f284decbcb9f251de513fe7|Payer|b13eb917-1e1a-4ad5-9098-49e3a0115de7|EVN
95276|1e4b1259ec8b46c3afea84e2c39c4183|Payer|c80af854-3724-4df8-bc0e-b26e1cfc2395|EVN
95289|e500b5a37e004983ac706088a0a732e0|Payer|39268313-eb17-43cb-b61b-487523280a52|EVN
95048|7ac647f6b2b0445c9ecf232ef50eb8dc|Payer|8908b2ae-b8d4-43b3-91c4-1c8443c1654d|EVN
95706|ad1b5f98a48246c8ae3503783b359abc|Payer|e9bfd210-b0c3-4912-92dd-be3116ebc5fb|EVN
95060|fa46d2bdee2144a290b405aa68663859|Payer|3bc44f0f-81de-4d9c-af9d-e5911feb6e31|EVN
95074|6b17fc94615a4ef794e3557f7a0cd03b|Payer|56fd6b02-cf3c-4076-aa08-d1ad59890bac|EVN
95712|f86ec146194343beba71a5f79a923d9d|Payer|c571a433-d514-4182-9c62-0cd3ab88a1a4|EVN
95128|c35352a31ad74aa5b685753116f7da36|Payer|f9f1fdb3-f9d3-4f73-a0ff-d7c4a8b5a90b|EVN
95672|e3552bed2c4f4852b6bd405c3957e7b9|Payer|b903ee26-e689-4f29-8abe-e57a2356fde6|EVN
95114|f69d901cdefe4c0abce553abf958147e|Payer|efa31820-3514-47ed-bc24-e7029ebdea48|EVN
95100|fa3c2da90ad04fb38140cf72d01261bf|Payer|095c8d88-6637-42cf-bb1f-b14f46e86488|EVN
95666|48099d73c5064b74bb34941485a9e82d|Payer|232981da-2eb4-4eab-9c26-c776cd7737f5|EVN
95699|815d0ff17f5a4b118bbdcf3e6fee9d84|Payer|00fa1b8e-379e-43b5-97d7-589e0c600e6c|EVN
95458|9dea39fd061b4e3fadc1ef6960279a7e|Payer|26fa81ff-11b9-4f9c-9620-f76f78efda85|EVN
95316|dc02ab5ea2b7440fbf80a254c3270215|Payer|ee1e909f-1fb1-4578-a40b-8c444f8a65cf|EVN
95470|45cfb7ed558e402ab5aaa89d5673c6e7|Payer|0b04bc52-f598-40b1-b825-8f21ceb184b5|EVN
95464|791cd2739d6947ee9a01ce450a51cfa6|Payer|fa169f9c-c1ae-438f-9f3b-e28c6f270f97|EVN
95302|05ec450c36644ca7a5853a308cde66c2|Payer|46480d3e-3098-4304-9368-5ccafd263ea6|EVN
95499|287fbae1c5574dcdabb98940003d1ffd|Payer|3d19b263-1ed3-4b7e-bc5a-726f92fd4bc7|EVN
95472|af1d3885dc144bae842c7167cef4c630|Payer|19975c0e-84d8-41ae-996c-694a8347902c|EVN
95314|9c474e88021b427faba8bc756beda140|Payer|881aa0a1-a0af-4ae9-9fe7-0c153a12fce8|EVN
95300|d5fac7ce03a84c519ca2c3dfee81e4bc|Payer|8644a598-72ae-40bf-9085-3960416338d5|EVN
95466|450fd8e7b26f444aa986000bf800dafe|Payer|6673d2ac-c5e5-4a05-abf1-9abe8296af1a|EVN
95328|c008162c08de48a289462dee587e945c|Payer|37b02863-f116-4815-a849-7ef24318905f|EVN
95116|21a885ee25b5432fa26ac770fcf7f5ea|Payer|0471a980-c2ab-4114-9825-b9035d254004|EVN
95670|d66ba6003d4d4506937a9396c584f29b|Payer|becd4a42-9ced-4223-825b-720b7163e69f|EVN
95664|e805b67687cc4dfda37e12e64189c974|Payer|63858ce3-a3db-47ec-9e85-eebd9fcc5999|EVN
95102|d5c1e3f197864219a1e0a56c5d8c8ab8|Payer|b56cf607-54cb-4526-8107-17e441ec6780|EVN
95658|ece6983879b44172bf88ac148f1d833f|Payer|3c74f11c-ca34-4430-8c67-664ae80135c6|EVN
95089|25aa3474726d412dba8fa5890b718432|Payer|0120b5e7-8e11-4bd7-b4d7-b029e68d23ca|EVN
95062|18a7223dd33a4b20888fa40c6bc979b0|Payer|3873bc55-4741-4e95-a3e4-ad59a88819ab|EVN
95704|05b16d304abe4aec8165bfe4ce4dae26|Payer|65fb85b8-913b-48e4-9bc0-614dd7eca820|EVN
95710|937fa90fb3444bbbac8844ee5dd13eb6|Payer|1bc697b5-8840-415a-a9de-8b0cc3060231|EVN
95076|d87fd368f2854fb8a623a049a1366a31|Payer|bfffb2a7-d69b-49a6-ba32-ca474730db6f|EVN
95738|32d5d73962694ef8a85ce7c12176e919|Payer|354006db-b18e-4066-9ffe-ae841b304200|EVN
95506|8510e2780f8b47c994b76827c30bc94f|Payer|13d57be1-2bc7-4fa2-b39f-cccbab1eb611|EVN
95260|4eef69e0c15849c789205d76dcf10d34|Payer|10d93e4a-9f3c-4e4b-910b-dbe082af9f35|EVN
95274|e3ba54e3aaf84ea4b2c2c90b6c0ce6d7|Payer|7f2d9304-e34a-41e1-a2a6-33edbc181595|EVN
95512|c793b03542424c078d87335e81f45fef|Payer|1ad10d3a-09b9-4e64-9bc8-711f0c94b16d|EVN
95248|06aa92fc30464be6bc041aeb21933ba3|Payer|481401ba-8e75-4571-abed-a847dcc9f9bd|EVN
95249|b0554bffbd23464186ba0e885658f2c3|Payer|5f1c4515-78bf-4aed-9793-f8bebf20aa71|EVN
95275|891e4350a9f74bfc89a64aee8b5601f2|Payer|720d52de-7c75-413f-9d4d-945ec9af3262|EVN
95513|294e830dbb454659acb1a8f1a2701e32|Payer|62d90368-22af-4b00-a74a-d73de3854d1c|EVN
95507|23ca4e7f0c8849309abad6e8373ec032|Payer|a2399614-a616-4f68-a79d-2837334fd34a|EVN
95261|ae519e48828d4c1f983477c071a2401a|Payer|2282538f-9dc3-448a-89fe-604423288970|EVN
95739|c32dc6d653d9455abeebba9281d8eedf|Payer|3b6a411a-4c83-479e-b463-ae5311e471f6|EVN
95711|5c323dc2e6c24f52a15d61a80c0c7089|Payer|5f09169d-e379-424c-8a2e-2948a6adbe2e|EVN
95077|585b2383ae3340518199fe70ec3d3931|Payer|92892487-7cb4-4d2a-ad28-8621598a7b7a|EVN
95063|874186cd476d4126abee65f766a29762|Payer|e223b59d-3e16-4d67-9e2d-54f73f450f5f|EVN
95705|cbc36f560b384d5e96ba6207ff3e7a6a|Payer|668f22e5-0a1b-47a5-bdf8-c0326179afcc|EVN
95088|e8256d6f303e43a6b4cb0f4a95f9b29a|Payer|c974897e-284a-40d6-babd-95262ef626bf|EVN
95659|0baf0570cb67444289420d008931dada|Payer|a5928645-8425-4b1f-84e0-c35c3bc8c0b3|EVN
95665|0a58549bc68342fdba4354d69bfce9a2|Payer|d2a4f92a-a1fa-4326-93b6-7f6649b4388b|EVN
95103|cf45030d351b4fb09bd5b1ac358eb8b9|Payer|1af94009-f65e-4eed-84bf-11ec5ef4eba8|EVN
95117|ad84dd0a5dec4060a01b0c0b91cbb3e4|Payer|e4e9c539-8895-41ce-a403-db7b8408d70a|EVN
95671|535d19fed7444456af02d5af3c3d80fe|Payer|0a9555b3-5bf6-4992-91b7-a5cf28dee33c|EVN
95329|322667328ea84f62859442a463dd1c8a|Payer|2555396b-f526-4443-b57d-7474b572ae94|EVN
95301|b05e8fbe9e6247a1bc1d18169ca12d48|Payer|1ae71f68-f4fd-43e3-9032-fe2d4b7a7c56|EVN
95467|e458d448098c4eb990f58a1eb17032e8|Payer|963fa93d-54fd-45e5-9cac-b5aec7f469b4|EVN
95473|3bc981ea0641478ea9cb0b00ce376ece|Payer|a7e7a812-09b6-43aa-b4e5-16cf4bb8d49a|EVN
95315|21898b2385b8467fb09550668da25b47|Payer|86e07397-9157-424d-ae35-e2c4c6523022|EVN
95498|1c9205d7c4d74c2ab529bbf94327db17|Payer|c7e16232-545c-4afa-b390-075ed03404e7|EVN
95488|27e20c46135b49db950f6edc6b4ac571|Payer|1ddb2d2e-51b0-42e6-a93a-c4ad7bc8d3ef|EVN
95339|d508eaa25b9a47ac99bb5fc7d13d2bdf|Payer|a3948bf9-4be4-4661-b42c-b7ea91128a75|EVN
95311|66b2db32b853487c9a5821ebe64115f5|Payer|deb96d7e-5148-4d2b-aa8f-e636e39f2fd9|EVN
95477|924705d97e6c4f7d9dab643727a6174a|Payer|79d15ea9-b85a-43d2-beb2-62c0597a7a2f|EVN
95463|afa53ca2445f49499e6606135fbf4888|Payer|ec1b5d57-04bc-4456-86c6-800bfe696c02|EVN
95305|d51a94c6b43d4252ad11d5c13e102cf4|Payer|b9886f08-23f8-4e7b-918c-2ee219035170|EVN
95649|2277e8bf03f94410b3d9c4fe42df4a9f|Payer|64698c10-ad91-4705-a51c-b1755b61386f|EVN
95675|07b32cb010454312b461c831db7c982d|Payer|95ddabcd-2f1e-43d4-89ee-1c0301ac70fe|EVN
95113|460655f403424af9b24e2cc9746c2aff|Payer|ad8e3dc8-ea08-4f84-9c52-667c7535ff03|EVN
95107|ee9df2952e46451782d537236b59d19f|Payer|7a8bd838-f55f-4b6c-81b8-45ed055fb66f|EVN
95661|ccc26b11964146d1a3bb59cc8bdb2bf6|Payer|dc5169f6-5ea1-4ced-8c42-4e177c2c3996|EVN
95098|2804dfbec25c405db28d833b147fd26c|Payer|78d22268-63dd-4a91-9276-5fdb8f30f42a|EVN
95729|a6217206472c408dae5b40f0f5fb1be4|Payer|3304ae47-6e83-4a2d-b19e-dbfb1e5af949|EVN
95701|5b1d0e3d0b8248a3bab40cab6384f4bd|Payer|7580b326-13ea-47ee-89be-79954fb7e8a3|EVN
95067|9aa85363003a4e268c183db1c4745b06|Payer|abcdd05f-97f2-48f9-9d10-1d3eda110805|EVN
95073|06c5bd37f0774e52915c4acc4b9d2fac|Payer|768867b9-6aa9-4d55-98cc-6005913d4240|EVN
95715|cc1148e7eba145cda6cbad09248e0a10|Payer|65d4058d-3613-4112-a7db-d6ee303b22b3|EVN
95259|e5db9afe346145e59179411893aa04c3|Payer|46503cf7-bdc1-4963-ad5d-2ee6e7c007fe|EVN
95265|5c41889dd4dc432099202e1c9142dab6|Payer|9f592467-d998-491d-919d-c8c7099c5c64|EVN
95503|0ca4723e5c284a0b831d7596fabf03f1|Payer|7a69c89e-c5d5-4474-8954-a15b0a630e1a|EVN
95517|2138217090e74f81a406bf244838c00c|Payer|0a9b76f5-60fd-473c-9c4f-64f7ada814ed|EVN
95271|a90314f6807245539e42dd7c3776c483|Payer|c3288c7f-3070-4309-a1a2-9decc060bea9|EVN
95516|a82dc0d452b7454682b53ad2c020e887|Payer|68ca776e-c154-4252-884f-90f6133a2411|EVN
95270|ce6b959cd7134bcc977998bb5bda000e|Payer|5c3a0911-20c1-4dcc-a13c-6a22bd70ee41|EVN
95264|37dd049c4d904b95b7da671bedc61c2f|Payer|4b051c6c-0391-4439-8d43-d42001a27b3a|EVN
95502|2c00b4a93f674f07a8fa52215ca1c758|Payer|fc8edf15-1ee4-4af4-8a56-d3c2880a1832|EVN
95258|ac8453bceaba4e379dcdacdde0d0e507|Payer|94f18bbc-31aa-4cdc-8ee1-326627edd758|EVN
95072|a7628f989c6c47b8b7f2c89bf27dab98|Payer|2d0f85d6-751b-4cb9-8722-80bbec45f198|EVN
95714|ab65596cf8f94732be9b40d8418ba690|Payer|138b55f4-5c7a-4a79-8d9a-6341dce81320|EVN
95700|738a8ace276c444abed2700f1c77cf9d|Payer|3feb7b27-5c37-46d4-9784-ebe662fa5cdf|EVN
95066|3029d355947e4bfa98630f49135f422d|Payer|ea8c922a-6427-4a4a-aeae-b2b40be43f28|EVN
95728|042e82597fe9480683f91b2f47a8bb4a|Payer|2ecfd59d-068a-45fd-ac24-43e7cda73d72|EVN
95099|ea189c3006ca4f079ff3158678e01874|Payer|d0a1c035-aa7b-4d3c-ad4f-089503e42973|EVN
95106|b2b31391506843de9516ada75881d16e|Payer|eaf698c1-78a4-4fb9-9aaa-83e96c382203|EVN
95660|0041afb2675649c69b90d616e9c450bf|Payer|1300b433-8856-47b2-a4f5-cfdc3dcec3bb|EVN
95674|0adf7f6b5e404037b453f22c361b1501|Payer|b8bf1f11-d36c-44ab-b26d-b8c0182ee50a|EVN
95112|6d3052a0aac4451391cc7457e9b1362c|Payer|0c638dd3-1cab-4872-8ccc-27debe18102d|EVN
95648|9a8bbe0e8e6048b5affab2877c8a4acb|Payer|a7aa3746-f022-40fa-af91-a10e5cb908a9|EVN
95462|24a456e799384615b3eb5386f2c7139e|Payer|24a77e68-e43b-4b50-a26c-2e8b473de210|EVN
95304|0dcb39c01e7946448925342e055b6437|Payer|f3c7aaf0-d5e3-4981-ba6e-6b99e42d36a1|EVN
95310|506c33f7417e47488310327f9a4b18a6|Payer|5cd745f1-10b8-4976-914e-aa4b813a1f17|EVN
95476|c8a02ee2f4d24296a5826b69fcbe6ead|Payer|074543e4-2a75-4931-aa43-6b6ff7f8ebcb|EVN
95338|f2b7f06929aa4805aaa20b9e07685151|Payer|dee927de-c7db-4d31-8644-7224be0f42f9|EVN
95489|36ed7e48493e46a7b44c8151c1d88977|Payer|b1590c67-a0fc-43a7-9375-d3f792f889a9|EVN
95448|d0c4e34c01134d429d6e3af98b8e7b11|Payer|763775e4-e7e0-4edf-9711-0f1390ffd74c|EVN
95306|f3390706e62c4908a5e9e87bbb7da3eb|Payer|7bc2207a-a68e-4b1e-a741-c3f556e9b129|EVN
95460|71ea8bc3628742e2a7533ba98a0a5a57|Payer|65c8fe23-17cd-4e26-9e99-9554648a439d|EVN
95474|f3263bad87d244c79bf98335265c2672|Payer|3f039da8-1264-43b6-bed9-1dbe3f8f4234|EVN
95312|22ac937eb8e54e9384a2a4bbda3acbd4|Payer|765e8aa7-57bc-47cd-bbfd-a52c28a5d701|EVN
95689|899f4ab8ae664893afecd2e6e3c61cda|Payer|fdfc44b4-7038-4371-a192-e9319273e603|EVN
95138|1c66973aa33c4f75863d4b0d01e60588|Payer|29dd7b13-b870-4b49-8082-1ea411e8fbab|EVN
95662|559653a8e0fd43bf87bce8b755312df6|Payer|04352702-16f4-4b7b-940b-0e499cba2192|EVN
95104|4a5c8395094644bbb1e34024bffa8e86|Payer|157be0e9-8584-4eaa-a136-4d5ee6a1e80d|EVN
95110|b96f4943c43d4770b1cdf36929563975|Payer|b0f0c1f6-4349-4915-8b84-ba450d5c34d7|EVN
95676|37bc91d49eea4ca4a6f9c4fca7ae7bf3|Payer|15e846e4-8aba-4813-a819-afd729f8712e|EVN
95058|6faec74f8b064926858e4f0c3fe2eab9|Payer|379d6bde-2b51-4226-9021-bd4fc12f2151|EVN
95716|5289922437b94aa49b7b020a8bcd3397|Payer|418ba519-6e82-4912-9394-ce95acd03b5a|EVN
95070|f30c687ae6ad41b9a2f95c2791719bf5|Payer|93077f05-2bd8-42fc-bc54-215762947f98|EVN
95064|030810b5a0a0471bbfb47f5fbdc813df|Payer|3e320938-baf8-4322-8a52-211286cb8e08|EVN
95702|fbec1c2109004abeb23421f55d8f9eec|Payer|bed475e3-b27a-47e1-afb2-ecac47e0e454|EVN
95299|58017f2aabf74e8d8173efcd2e7f2e14|Payer|14934410-8dbc-4910-9332-fb47ee9d7b1a|EVN
95528|c18f4138a82b4dae9ea28a4d2fad1da3|Payer|ba8a6cab-fea2-4707-99e3-ce0065bbacbb|EVN
95272|9d5a244be1194241bf04ead728f961b0|Payer|c136d7ad-cf66-446e-a6e1-e3774874aeaf|EVN
95514|e988e6e7695e4dbf8cbf5028938a5ede|Payer|3de407fb-3806-4259-a232-708643e43d90|EVN
95500|b0f829f504ba45b8ae3816e471be9819|Payer|5c3e0acd-56d0-46b6-848a-c81148e3c4ed|EVN
95266|d585a28c4898424d86a9d8bf9cdb9ec5|Payer|2fa1dbea-b1c0-4393-9bfd-fce5fc68cac8|EVN
95501|782b7e84af0144239d797e01772f89d6|Payer|cbfb6794-ba9c-49a5-9195-d9795e463b76|EVN
95267|f83f6e9fa2eb494a881ef0c07310a519|Payer|343bcac0-18eb-4c15-b798-c7f29017d528|EVN
95273|a0ab83cf6ce14898a033eb2fc1b23a78|Payer|2ab2c344-170e-4614-8ecb-23c3bfffbc84|EVN
95515|8b6095a18fd34574ada5713261965e30|Payer|6433594f-ddfc-4c37-b4ea-543d90d36872|EVN
95529|c43e41bcd5974a7ba29d1b2e77368f77|Payer|a8b9f080-8375-42a8-af31-80dfaecec857|EVN
95298|0eb61982ed934d9598f02a173272bb2d|Payer|2bfb18ea-6700-412e-92cb-4b0b533df87a|EVN
95065|899aeaa0a308462cad8352f6a2f92178|Payer|511d805c-f676-433c-85ac-6365c3ed58d3|EVN
95703|56b37874147e4af6b4403845965bd19d|Payer|86362780-3a1e-4350-a18c-cf7a9ca0062f|EVN
95717|c10469cf1f54493d9db6599d2493decb|Payer|c6fb0bed-cfd6-4431-bbcc-4272fe5aa55f|EVN
95071|073ac0db8eb24bff8d50389698135fe9|Payer|9e5bada4-081a-4bfc-b3ff-e6ebea255d27|EVN
95059|c7cf8d2b707e4e3dabcb728fa6ce34b4|Payer|bf3a8cbe-1a2f-4230-910a-e87ca9c116f9|EVN
95111|53234c8ff0f24bd29fe365f1549f6c56|Payer|90107aea-ab75-4b8d-8e03-be743953e9a4|EVN
95677|5a4cdb1cb5654191be10704bcbcbfbd9|Payer|b1ef9278-9c08-4923-b2b7-01af2ed4121e|EVN
95663|9cfe66f3ab044532b477084458e5a39c|Payer|67faafd7-a0aa-4edc-8c6c-4b7510161db8|EVN
95105|d9b3ae0838b74539aac41bbc0e2f572d|Payer|00fade07-4697-4ad4-a9d3-ecd6657ab988|EVN
95139|f25c34e8e2cb4d8894d9d6c80b2480ef|Payer|f5ac8d5e-4030-46ff-aed6-6eab16dc6d6f|EVN
95688|c0b2db27b6ec4c458d8c412d30847409|Payer|63ef62b5-ce37-43fe-be8b-667c10785dd6|EVN
95475|a0cde9022325490a82ca6990de9288d2|Payer|75753015-d9ba-475e-8ab7-d2da9a43b573|EVN
95313|4593f36d3bd34a65b44513fe3c985fcf|Payer|3e291fe0-77e7-4a7d-a915-5a05fa41bb7f|EVN
95307|4397e6488f2a4de2896552a52355f507|Payer|db4dde8f-1bad-4717-a4d7-bf9f29f7e567|EVN
95461|e6dea97e92664950a248c7b323346a6d|Payer|cea12b6d-d64f-442b-b150-19d13b468389|EVN
95449|0ca712c575a748f2b49d21052af140c0|Payer|7f5d6818-0f90-4c72-b54c-1ab961c675ae|EVN
95360|136e136ae7604ff18d7dff29ee5f9580|Payer|57c30e6c-b034-4365-88c1-3e09d2c22f14|EVN
95406|ebf37c151f8d4148899a2f7cc7adb224|Payer|6e5d014a-2df0-4de3-8c02-2c7025059e18|EVN
95412|57f48475dcce4bdfbfd71e5e6b59577c|Payer|425b6ad9-c916-4530-a633-184e803bf8d0|EVN
95374|2d7fc45063c942d090379affafe79ed1|Payer|0717ee19-62b9-4480-b7c8-d4060bf63fb9|EVN
95348|0ebbb2c869db426dab7594829c52ce73|Payer|f0239336-e99d-4fe3-974a-2d3377458a12|EVN
95823|5172731e3237492db9e9121f8607ff99|Payer|ca12a347-5904-440f-a40b-79a44f6f2415|EVN
95189|8825b26e73bc44d4bfb945ee683e9170|Payer|c714eff8-515f-4f49-929b-44aca64b8f9c|EVN
95604|bfbb7d05ac0745e79df8a0e2d8fb951a|Payer|d2fe329c-7cd7-42e4-9a73-912ed3943076|EVN
95162|761249342d33465dbeea123e7cb00f46|Payer|7b9392a1-d6b5-41b8-85dc-0c56d998877d|EVN
95176|c71b7066aa3f4fa28395b9931198d087|Payer|2a4e729b-a22e-4de8-920e-0e2c739c011d|EVN
95610|713d69dab35f45fc85de7c39345a74a3|Payer|07e0b7ca-49c0-4d49-889b-7959f04d5639|EVN
95638|be30c7d8c8b148d784714555b245e469|Payer|306d0d67-de5a-44de-8878-5516867ceefd|EVN
95770|4a490f6e078f4cdfbcf409a2274d3218|Payer|683b3cea-2109-41c6-9a4c-ac64993c5441|EVN
95016|84ad2464e74d40818442b94e70f9de09|Payer|a7a80449-e772-4c53-b545-54027b5e05b1|EVN
95002|a2e71e07cb0147e890fbbb184bc9b521|Payer|1639d617-d19e-4951-9296-54ca4e25a17a|EVN
95764|d34be09ecec146ee8277fd6e34d4b6e2|Payer|f13e4de7-2003-4896-9e91-0472b8a2ed2f|EVN
95758|d1ca96721dee43a1b0a22896203ee7b5|Payer|72e8322f-47ee-42e6-8546-fcf175a15339|EVN
95599|2cad94f49c654cb996c4fb2d33ec4493|Payer|2b91d125-4a99-465c-b260-434be04aae84|EVN
95214|8dc28452b8124fada6d061afa25732cd|Payer|5b8389a2-abe2-4024-a8f4-26f4a5b8153a|EVN
95572|b45985bce5564a57943c0858178ae7ff|Payer|5cbf0e3f-2ada-4cf4-ad9d-003879dca1ae|EVN
95566|e33b6a17560b45b5a4f5928fa37fdbbe|Payer|8cdb9c3f-dbf1-44b9-b78d-0587c0ee9bfb|EVN
95200|a7a762104f8e4b2b8f2d905d714c74db|Payer|897f6d09-c713-4c96-8650-273d04aec4ef|EVN
95228|483ac2a5e3fc4743b291e1747ffbf14f|Payer|2d84931d-8d93-4e8d-b4bb-f3f89009039a|EVN
95229|5caa6fb690ae4d49b85795dae022b930|Payer|c19715bc-056a-4080-8585-979774d2cdfe|EVN
95567|ae60cff0fccf481aa4b81012b16ebe67|Payer|9e66adda-9e92-4950-afa9-166a2eac37d5|EVN
95201|61bbf746ebda4750bda2be1db2b9781a|Payer|04817ffa-04d6-437d-8519-cdeebf41c3b7|EVN
95215|37566c409d3d4f4ba93fa40014a1af61|Payer|28230900-be82-47ab-a952-05700696d7f0|EVN
95573|677ae12098cb48c3800e5e6e281a26a3|Payer|a13ae7b1-e953-417e-b275-e24f40f8f7b4|EVN
95598|91fba90f704e40b7a5de51f0cb0b46fc|Payer|ee07ef66-2ce3-46c4-93af-12e274ae9559|EVN
95759|71f8a661a3d64cc7bdf913c4d2ac4b62|Payer|72de1ab9-bec8-4bbc-93ca-17c84884de2c|EVN
95003|a57a6f82add740658e29fb6279b7a598|Payer|a23531c7-a083-4c84-ae00-c2b19a3867ac|EVN
95765|4c7a0931b5bc4f4b86e905d708f787fa|Payer|b33e4f6f-0286-492c-919e-06a18762d024|EVN
95771|3e2f0b90291648b2b0088829225deddd|Payer|88c090cc-02b6-4cf7-a80f-14c8bbdee473|EVN
95017|a10bc409a751456fbbc6a80ba278acd6|Payer|013911fd-23dc-4d92-bb16-b8df4a87e856|EVN
95639|aebf769627b84cf4a6d21ddf8f81e029|Payer|00ab0d22-59eb-45dd-b9bc-1079bc581391|EVN
95177|571b8b47f2f24d69b104271213785af4|Payer|519c0275-7022-4775-8853-0dbcda4aeecf|EVN
95611|2507e93385ca4cc8bf3c5eb5476f6b88|Payer|b332e859-e119-4e91-b35b-b9ff33fee251|EVN
95605|e27e811595cf4a20bf3b87520885a14e|Payer|c1652676-ad45-41c9-acad-1833edf755f8|EVN
95163|6f3e236556fc45a08f01eedfa67271fd|Payer|fd8f0ba8-68d6-4a54-9450-e10de0c18c9f|EVN
95188|915af35056ee4445b003718978318237|Payer|c8825fef-c232-44f5-8ebd-402ff597f6fc|EVN
95822|985c3519e19d4fc18cb6c6a97f903ae7|Payer|f9e4d723-ea06-453c-9082-3318f4ac1fe6|EVN
95349|1da2e491c85f4b3caa90129d24065afc|Payer|10a05804-d1a2-463f-b081-b23df71fa838|EVN
95413|c0160da0353c4064880e1f76dbf76955|Payer|bb149270-4d5d-4fa0-9582-6ce26ad11c6d|EVN
95375|ddff7c86a5d142b5a827acbef4a7135d|Payer|727d7d1e-ace9-46d7-ad88-6a3f38cc3301|EVN
95361|412e90f9d96242c28a302c912f6da922|Payer|768b7b54-67b6-4b9e-88e0-b5e0edc3ef68|EVN
95407|afae87a297ab4e02aa1a019b914efa39|Payer|d69e3626-9094-477a-b8aa-0c6bde9ce7db|EVN
95388|d1391c6fa8194967a4a3776e2db1b9b1|Payer|1f592c0b-8dcf-4a99-8e92-5da08dfb54d2|EVN
95377|f21c55940bee4cfa823119e409f5c0ec|Payer|273b9101-1169-479e-bc58-2553a3d4a711|EVN
95411|3bf10aa32a534e3d91b4af4f6284a3cb|Payer|80e71a9e-6f69-47a9-b9b3-9194f831b981|EVN
95405|c78ff1a41caf46c6a6804fc0342dca7a|Payer|ced2d145-1a00-4d1a-919a-fd0583c87771|EVN
95363|d7aefa7337da402990196afd1dc46ebe|Payer|d76d43d7-f9ca-4ed4-9d91-fe6020c0944f|EVN
95439|cf5a133905e945e6b5f2fb20e057e030|Payer|bc533eee-29bb-44db-8749-3438a4f47f74|EVN
95808|ad35cbf3d8df437c8236aca8744457e9|Payer|74407ee9-59f1-4f29-a027-aeb9e0ba1cbb|EVN
95820|4e85459884044a7ab95321bf8e01d604|Payer|c45fade1-bcfe-41af-8da7-0b4126762a78|EVN
95613|c75dc7b015514f469346779400b23b82|Payer|ebec0738-9787-45aa-850d-599a10a4d017|EVN
95175|4280f1b65f0e4fd4b04bc54b391ad735|Payer|eb4db843-84a0-4e3d-aa6f-0cfe7f8f845e|EVN
95161|93b629e4237c47bfad447903d341358b|Payer|f099a949-9935-4016-bddf-b406174e1e82|EVN
95607|412bbacf205f464b84c9878292761934|Payer|e39c2270-61d5-483a-b1d3-a71c3b8a712b|EVN
95149|a53ed734c01444ffb4c7e9dee7eff72a|Payer|b7b9ed41-09db-43b7-8bba-b4aa4a69e5a6|EVN
95798|ebc5af001c0840ff929d499ede588bec|Payer|4d3ee61d-faa8-4835-aca2-8405efa10376|EVN
95767|8592c4dfd2be48618fe3c873a5a9dbec|Payer|83b65488-5103-4548-be9e-9090489305e0|EVN
95001|4ff221fae498465b8adfc726892fb75b|Payer|0d99cdf1-7c50-4864-86f7-6e6a39790323|EVN
95015|c2a898daf5c54d949bfe57b474a90428|Payer|9d85be11-36c2-496b-a179-f6245aea51d7|EVN
95773|78c992b081ea4fe4bbf6be59bfdf2606|Payer|5a99bbe0-d386-4169-9aa0-a144b7ae8575|EVN
95029|94d7bd707a69456892f674e17cc17244|Payer|2d5cf02a-6f52-4405-b94a-74fe60b9cc2d|EVN
95203|ea29b365b8ab4b42801891ef928666da|Payer|961725e4-4e47-48a1-9601-fef9ce158810|EVN
95565|7e1e0bc6e4d84786a3eabe56abc5c6ba|Payer|85616f88-d974-48a0-812f-c7ecefe07970|EVN
95571|b915ac789fdf4aeebb580cc8442e7ac0|Payer|a54a0fd4-72dc-4b7a-bcee-c974b93dbcfe|EVN
95217|4cc7393ea04d4d548d3cfa2c2e135701|Payer|8e1ac3dc-5965-406e-9e2b-39ec347f9c87|EVN
95559|0ebb4206107f4b2db7547a0798da84c6|Payer|eedce49a-293b-4be7-b6c7-ae926a6d861d|EVN
95558|ed765cfb5a0942b2b972ff3fa2f177a8|Payer|f47b2434-d383-42fe-87c6-2997b58c01cb|EVN
95570|c48869bf18784e56bb0ed04c39c0e1fe|Payer|e9569b5a-7d61-495a-a34a-64d3ba86f986|EVN
95216|97fb41c85578453083b35a63e67bdea8|Payer|e337a9cc-cf28-4058-92c0-3ee9e4a522d4|EVN
95202|cd47827e80744baf9ede03bf283f0261|Payer|b1fab22b-21ac-48cd-b1c1-6be9f52fec97|EVN
95564|56a0fd526a464254a5b326077bf36c94|Payer|285dcaf9-f8ec-4e09-93ae-6633ceb3c3cc|EVN
95028|b993da00b07749bf935ac7625ed28a44|Payer|82629809-e954-4ed2-ab2f-ac917c924e4f|EVN
95014|95da93b3338b421992a34ececd273a05|Payer|85afbfab-25ba-4706-a002-1cc9df4f56b6|EVN
95772|406ce0f39b354cb592644016709926ed|Payer|80e60928-8a38-42cc-a199-0cf3a5d69b01|EVN
95766|719a6e13e1db4ffe86f82e5be4c9872c|Payer|4dc85969-5213-422e-bb8c-b3fd9d8efd86|EVN
95000|7306854cbec14fe3bbee28b85e7a1f46|Payer|3d10434e-9d33-45e0-b524-742391eaae59|EVN
95799|44f7e9ea8e74468fb68e819d24c02b61|Payer|435a5f76-5f9a-416d-bb6b-529df3ab5926|EVN
95148|10c9e5acd84340308d3b9a37a3fb55ba|Payer|94242640-60b8-4bd2-b9a6-1504c81ffe97|EVN
95160|2ee577695c3b43feb89ea93f7fdcf792|Payer|f9a77fe2-a6a5-4176-8d15-e285f29bafa5|EVN
95606|f29ec8808f4e42248c32d760392ee9d6|Payer|10c774f9-c4f3-4ff8-bf21-9a356077c8fa|EVN
95612|3a34fb10b2de496caf8d8d2cd2e6623c|Payer|684d184c-835a-4ec6-9b27-55fcde9596ea|EVN
95174|b4f44a6eeb7c4e489ca3afd992d2aff1|Payer|a2e6d2d6-4ae6-40ad-ae4c-29fb5039fb1b|EVN
95821|7f50b840d1ff4a289159cfc2a582e236|Payer|20d4ba48-a86e-4f0e-8cb3-7244072a4cc3|EVN
95809|60a40fe2c78e48979500ce5f0405cef6|Payer|25b85dc2-3cda-4b39-b68a-5986a351e498|EVN
95438|3cdf36bd5bd345fab9af44ea42172c35|Payer|b6ba1f3f-a429-4d24-b6ce-2a6c74f63f57|EVN
95404|c94b091898f44fe9aa3eea22303585c7|Payer|a7743698-1af8-4ea5-9dbc-53c7054ebcd3|EVN
95362|80fabdc3633743938cac9c89720bd279|Payer|fb2ea070-a056-462b-9d5b-456cca970caf|EVN
95376|81d0fcf089594ee3845a64dbb064ba76|Payer|823304e8-eeef-41cd-a270-cc2e18e19e4a|EVN
95410|4ff3fd90f622464dab96e0ab30bfa1d1|Payer|be3e02e5-a9f7-440b-81f0-71e1d69c5bb8|EVN
95389|877cbc51704943d281501bc33ef25098|Payer|13187c52-29d7-4af4-b187-1e46e141d59a|EVN
95399|a60d14909ac64048a073b802a1f84475|Payer|f6e68e78-75db-413d-a3ed-4474837113b6|EVN
95428|089b93c573d54ceca0507a1895dee9bd|Payer|ff094dc6-0012-41aa-b36e-17206b481727|EVN
95414|7a8b0ddebebc467784e233e3b5dde53a|Payer|b854b4d9-546f-40e7-baf4-908073462c65|EVN
95372|7ff9ae10a3eb4ce88ac0d3176c0cf7e4|Payer|76b7809b-6201-4444-b1d1-5c04100b0f82|EVN
95366|6c0aadba1c2b452887556211438dd80a|Payer|ace64d16-90c9-4ce6-aa79-cfc4755d27f3|EVN
95400|78c1c0bf77ff4052baa2c09ac4743287|Payer|2357cc76-c688-4b8a-9f40-ac55b3f1fd6c|EVN
95825|492acd74ce844c6dbb05572544fa8d83|Payer|aba65039-8132-49ff-8803-5c6372760d90|EVN
95819|5abef4175e0049919e622681ab855910|Payer|e555a582-a608-472d-99da-747f160b3ad8|EVN
95158|cd9fffeac9d548bbb6f1821918b715eb|Payer|30225c66-abf7-4a35-835e-a866512717ec|EVN
95170|70d0e798c5c04c3aaf167d0ce9092a86|Payer|223ab720-586d-4b58-848a-37d151f7352a|EVN
95616|12f759bce80141b584e3bd21653ebc60|Payer|da545c12-7103-4148-9e85-cfc0c9a6be64|EVN
95602|1ad9beaa83fe4bcaa51b62d340b89f16|Payer|58ce86fe-f66d-4698-bc6e-8ae56ad323d4|EVN
95164|a07acb949bc648cb80b31053abcfaf50|Payer|f8d2915c-7711-47d5-b5e9-2f423e4bcea1|EVN
95789|8537ae9c8f52479689cbd6417ec6dd89|Payer|6d70c73b-ecbc-4f3b-b457-a8129372f6f3|EVN
95038|123d0916766541d78b1b90254e6a73df|Payer|323841c7-9824-4cfa-aaa0-eccb431506b8|EVN
95004|2f3f0f7a76014f5a947f1f2c448e0294|Payer|6f5e9a18-4089-40ce-8ba5-87f7506a1363|EVN
95762|a3d6e487970e46db8364adf34bc967d5|Payer|bf95c053-2087-49ce-9fc5-75fc60eecd50|EVN
95776|400b613fc8d840df9b91f9598c1bcc35|Payer|da5f8520-d9b6-463f-802a-3ee8ad310db5|EVN
95010|866e2d86906045918267fd6c86e60104|Payer|4bc50902-c89e-407e-ae54-be5aabf467e7|EVN
95548|0549289f211d43d4964d89d7edddb1f9|Payer|4260f945-daba-49c2-a5c4-f8bf9569fa34|EVN
95560|c3e6fa8e32f946f78d29eac1636a4e7f|Payer|81465e8a-4ea0-4bfb-9546-88ed0504921e|EVN
95206|bd1dfbd5597746d880557a7257e9f936|Payer|7d88cf57-6fdb-4bc7-b7a3-294a0af5481c|EVN
95212|d6d3e8efc8704d3191894a0e9226c1d3|Payer|fb140aae-8c37-43b5-90ed-569fc12f3596|EVN
95574|75162d61e8764692b6bb9bf9c1e188d2|Payer|da882f8c-4337-4659-acec-f9d60ff74b81|EVN
95213|7f191ac0b9cc410aaa799858e466d40c|Payer|4655e642-0dcc-4da8-95c0-6d2ec1b3322f|EVN
95575|2d0c86b279ee41b1a4a455b6183cdd8d|Payer|8a212ca0-ec70-4cec-9add-1c49e7e2c0dd|EVN
95561|c044e1c21a164a458fed67c3a6edffb0|Payer|a606e25d-11ab-4f4b-98dc-96da4f28784f|EVN
95207|35d81eea420e4e1f9a3ac0c6a50b5b18|Payer|7c9feb8e-3b53-4ed5-95f3-b3b5b5bd3544|EVN
95549|69a5850b63cf40bbab99328aebf3da01|Payer|7eb6720c-bb33-41ad-b584-cd75a4749558|EVN
95777|0a313b548a3e43eb8f543ac4eea13a2a|Payer|67b89720-ae02-4873-bc5a-7143c2140376|EVN
95011|6981b694f9e04a6aa79742497474befb|Payer|c803e422-b906-45ad-8c62-8186e6cea39b|EVN
95005|081d0f576f3d4bcbb007d45a67b05ab8|Payer|5bf9afc8-d773-4c2f-a5e3-f64971078a0b|EVN
95763|99614be163744fed936687d070fb5e0e|Payer|06c5f723-5e43-42e5-8e53-146718722366|EVN
95039|46bb607a087b4c0e94fc49c91dbffc92|Payer|29966a4e-b017-444a-9ac0-167cea813401|EVN
95788|bd79120ec07b4d70952f4564e62e0fd4|Payer|4e2bc575-1de6-49ba-9d44-c119cde32e0d|EVN
95603|fb1eb3ca26bc4b3695754a5d8f2daa43|Payer|e7c27f29-ec6f-4a65-8057-d257505d5413|EVN
95165|53339c3c9ef1417e9276845c25e848fd|Payer|472d9b51-7839-48bb-855a-ccbac3b153ee|EVN
95171|9dfad76261df4e2380fd71c4637c06f2|Payer|dd321773-28b1-4718-bd48-2dd669ef3100|EVN
95617|c760190759c3483da17a53951ba2a2ff|Payer|7b9b08de-468d-466b-962a-452981f02dc5|EVN
95159|581335fbe1c1457b9788a5be7f58ac0c|Payer|7d1ed13a-d242-4219-94f6-b13aa3cae741|EVN
95818|7c48baa9f5184fc48586d66ec9404a9d|Payer|2090c02b-e838-4ead-8bba-061856624462|EVN
95824|c261f386f30542e8bb93e8613600f0af|Payer|78d2f16d-1f31-43a2-adbd-5b9aa73b5846|EVN
95367|5183e5b1aa9149e8b16c4cd873d01bc4|Payer|49abab19-2ae9-4876-949b-b475588c417b|EVN
95401|27eb6e822abe4322b3698f0716bda03c|Payer|9370174a-f528-49e7-b757-4fc472a53520|EVN
95415|6139cd1cbd854d859d603f115a6ebcd8|Payer|28bce0de-ca73-426a-b032-fdc6f7ce2f7b|EVN
95373|18d9cc3ec8a64af8a43b7640c8533235|Payer|4780a190-1fe7-455c-8db1-6520324a8487|EVN
95429|22639749066d4b3f88a8d2e4174e7814|Payer|05f68b2c-a057-4979-8afc-f206760c4474|EVN
95398|a7e57b0a13bd4caaa14dd4e270294fc7|Payer|079fe7ce-1ccd-4c77-a1af-cb981f848a8e|EVN
95359|fe408281a27b449b9e5461e9b2afe3a5|Payer|3bbe006f-f881-46ad-b768-36c305fe5312|EVN
95403|c442a113dc2d4c44bf617a42bd2f5111|Payer|343015e4-40f1-455e-9337-493bb87e1f62|EVN
95365|94d677a13c0d4fc98c5290e645b2f8ba|Payer|54947315-f726-4466-8154-55f8dc6e52d0|EVN
95371|478e8c162acf4ffeade5e60743c8ba00|Payer|bcad3f92-8027-46a3-b966-ded2f735d459|EVN
95417|c84f389673834d71a53012589cfc1fa3|Payer|0ef18fe3-caaf-4771-9733-391db9e8790d|EVN
95198|2fab8344454943348ef266973e2a245a|Payer|868a1e3f-b7bc-4f2e-827a-5943b9bd1700|EVN
95826|156efaa9ad904f6dabd7ccf79b0c8103|Payer|bda8ab9f-f013-446d-9de7-87e5da360697|EVN
95629|1810c01308b14f5c84a14ae78bb13bdd|Payer|55c036f5-d7ca-4ecb-bea8-1a2020d99719|EVN
95167|551ccc8b577941c09db06a21a9d458c9|Payer|0d88a2b6-1119-46cd-a5d4-29e5312ef8c0|EVN
95601|fe244b5c428745259dcd0043d0890fa4|Payer|52e76956-8ad5-47d6-b392-646ae99b15f2|EVN
95615|6cf39d75011c49b69081162c3b18b00e|Payer|85fbb012-b471-4954-9c41-e0f2d6a601e7|EVN
95173|8f041af6bbaa41d29731246c584dce9a|Payer|1e27253a-e00b-4208-b783-a66f79c5d368|EVN
95749|4bd1549040d64ef3bf2aa289a0733adb|Payer|f06936ec-7959-4c40-9f26-9903e35c155d|EVN
95013|a891f119de8e49508035b4d8caeaa33b|Payer|44e66eb9-2772-4882-a6f5-3101e4996842|EVN
95775|bbdeb38d95f14d32b5c941d886ede0ce|Payer|843855b6-483f-4a45-a868-595b143e737b|EVN
95761|8159b59909b041fa8a5b1baa7d4703bf|Payer|bde5880d-7e2e-4a29-98f7-362d626af1e7|EVN
95007|b50caf32fbd54d0d834ce26c01d9f72b|Payer|18475a31-8f6f-4b5f-ba10-b52d741dda74|EVN
95588|85936ee027534541afea9c25a60c0e81|Payer|e3b3dae8-d7bb-4c84-8055-ab9059ae7407|EVN
95239|f846f80b6f034b2b980315cd6a867292|Payer|a65a4d93-9e0b-43ba-ab99-c48b13de7f3d|EVN
95577|f09a4d4ef98d4bd6bb35fe9ce6327112|Payer|3eac8aba-8d74-4f1c-a92d-c5ebe50336c3|EVN
95211|f92d9c6a28674e5d8019da44b9bcc94d|Payer|3e79056c-9da2-4ca9-96d2-db681a1e6692|EVN
95205|70d60d700fb54f1d9ff2afab05f69ae9|Payer|5158750a-4224-4710-a7f4-24018cae44bc|EVN
95563|a583c51c2a2049b39438e2f6894f3fad|Payer|eddd8f65-3cad-4c1f-b0c0-3d12e81c6aa6|EVN
95204|5ccf0d952aac4c2b8a33207a2eb3f779|Payer|b667c411-3853-46f1-b68e-1887b04838f6|EVN
95562|0e52d894095c4cae97ae7f6aff3ee275|Payer|c2b653a6-6d26-4dea-bd1b-7db2cb3d72f9|EVN
95576|126aeb0cac15420687be7727d01995a2|Payer|7f3eb173-1534-41a0-b9be-93a4be001efa|EVN
95210|e332e10017a84ccca95d425d2c75111d|Payer|c47b6858-4e0a-44bb-877f-2305590b65b3|EVN
95238|4e1d1cdc9764442586c9d53d36275318|Payer|8a2b43bb-6a59-44dc-81df-bf871679f220|EVN
95589|a35061af992a431dbb2bd12b519c48ef|Payer|6d330b08-71f4-43cd-ba78-43a2794d364e|EVN
95760|04b1e63c0b154002b2c2791f80a7db57|Payer|55d57a92-8bc2-4d65-9171-76e7dd775783|EVN
95006|70aeb65badc643d589bab5d298c85d4c|Payer|185600cb-dcc4-4fb8-85f6-443664877ec5|EVN
95012|d898e16429a74e89b8cbcc14bf9e3cde|Payer|e6ef0f64-19e4-4caa-ac4d-2f9cf676aae9|EVN
95774|9ad91bb389ee45419baa5905f30cb376|Payer|995d91bf-97eb-486b-81f6-d17b4acd1b02|EVN
95748|472e2d20c8684d5db74edf12df38a857|Payer|19342e3c-337f-49ed-ae17-3a614755238e|EVN
95614|ff52a269d6b04aeeac1a297f46afb6e3|Payer|f9c05296-5e7e-42a9-a19d-5f53e2b892fe|EVN
95172|0adaf69c33684d49b1435bf4f08cf59e|Payer|306bbbb6-5f51-4238-9e9d-b5b65ec355ea|EVN
95166|4d0c7623b10e44fdabc55242605d5176|Payer|c9911a75-8c27-4167-8021-96e541d702c0|EVN
95600|e4789542fa91424785d22b138e09f85a|Payer|0efa6f6a-844c-490a-92b2-7fdb9c96519c|EVN
95628|eac29e1ff54643f389bd205f3635689e|Payer|fc086a38-5e14-4c48-a48a-1e6eca52ac86|EVN
95199|24de0fce843f4bd085d5a65c3ef710b0|Payer|48671d30-c77e-42fc-b301-a9c95021c3fe|EVN
95827|c3ee9a2c5d8e40e1b2312e377025dfe5|Payer|c51b1066-8295-476c-8aff-d830a8f2eae3|EVN
95370|21ce6c78ae2842c9becc7dc8c70557bb|Payer|14b02ff5-1d34-474c-8fa8-4c2f11b97bf3|EVN
95416|cba06e01f9f84fcd8730dac3bc688431|Payer|1a5a6b59-32f4-441b-9399-5f6ecef9b987|EVN
95402|d96b6fd6e8564497a1aa1b7c9a24750b|Payer|e077cd11-5920-440b-aae9-a4abcc85988b|EVN
95364|f25fd1432be147608cb46e9168131b69|Payer|71f9604e-446d-4d89-a6cd-24c5f5bae945|EVN
95358|03de1478050d444198756627692b7883|Payer|029edbc7-73a9-4cbe-a532-f00af9db8369|EVN
95382|ed98c5e35c5d4495800009a7d8d8741a|Payer|3d5293a1-9c11-45d5-b8f0-90bde7d5817f|EVN
95396|7c2bda2e1aa64848be91ab28da3543f8|Payer|45f3342d-f015-4019-a492-b75ebeab4431|EVN
95341|949833190355479c902a064b068dd6c8|Payer|f49535b9-7b55-4233-b8e1-059cbcc9e6b2|EVN
95427|20f1c16e21cc4873a40580d99bb47c48|Payer|30eeb18c-4ffa-45f8-90cc-49ea794307fd|EVN
95433|8b1aed558b8844e2ae7ff35db42f8213|Payer|86708da3-8240-43d5-b0db-276afc304edd|EVN
95355|74ac40a7cd27480fb727fe761ad08e64|Payer|5238b8ca-25cb-44e5-8ec0-3a69005ce3ec|EVN
95369|37977e69084c4678b3329f1534199b81|Payer|466d6195-ba9d-46df-a853-632fd38b362b|EVN
95180|fde9c2ef539d4defa3493e9200511fa6|Payer|27fbaecf-0f50-4d9e-b179-3c82fab1a02d|EVN
95194|dc672680cf5647808e4c48c8728d51f2|Payer|973a80d4-1666-41b9-9923-9f0c914e1da3|EVN
95802|857f8634b746456f8244ba2543b8cdbf|Payer|fab20a37-b690-4ada-82c8-40a2faedea4f|EVN
95816|6744ee28db8b4814a7a88e7309916451|Payer|20dc8d6a-aff0-4e5b-8454-1d340668a6f1|EVN
95625|e4c2369ab9e04bdeb1a2f236d049246a|Payer|0b36a7c6-f6ed-498b-a5f2-c87765b31fcc|EVN
95143|0b70f211e7bb435b8c3dc00f01f4cfb0|Payer|67937745-742e-4f69-a03a-5b4c1b1f4812|EVN
95157|756403e42caf4d2a8e1545ec86a2ac7b|Payer|71caa596-cc84-48b6-b6a5-2e2b36c2429d|EVN
95631|5c63843f48d149e5aca203c1912e713e|Payer|51ad608b-7ba1-4fc2-aeac-53d2bb769c16|EVN
95619|33f921f505c74db78848f65b57117e86|Payer|a0c9edad-e541-4d45-b9d9-fa875541435a|EVN
95792|e1e64cbd4bd04739b6e5bb399e799288|Payer|df37ffcc-495f-4d0e-9a65-008addf1b0c4|EVN
95786|610851d1dac943399868a028a9113766|Payer|afe932df-3bb6-47a2-8bb5-73b2d1f1fae2|EVN
95751|d64fe6af312e4a9aa07ca5625c8a55c7|Payer|85b6e6bf-9f78-400c-ac02-6604d7b1ea0a|EVN
95037|c9c8e884ce31498599940960b05a8951|Payer|ce9dd78c-faad-435d-a118-3abff9b5d008|EVN
95023|214ce643bc4849f395eab95bb649d765|Payer|46ca907a-00a9-475f-84bd-e49316ded0a1|EVN
95745|a45521179cb346e1bd56fb032426f969|Payer|c9d42bda-d573-4efa-91c0-f19e50f628a2|EVN
95779|51ee5b8fd6bc486a8366290d28279946|Payer|ed3aeed9-9801-4376-a658-3bd79a3204ab|EVN
95590|ab250675bd1c4348b01ff328f5086499|Payer|01fd7cf7-11b4-473f-9558-fce485787991|EVN
95584|b1266222db5a400683c34ed1490fa38e|Payer|b2fab21f-2259-4126-a247-7f4904c2611b|EVN
95235|dbb580a4542b432dbe651103348ccb95|Payer|abace91b-2a96-4680-952d-5da1a5fd136b|EVN
95553|1a3bd26a0ebe46899aeaebccdb514c1e|Payer|905109a8-f572-48a2-b7bd-a010e7edf76d|EVN
95547|9b178fb7295c4d2aac517547763a88e8|Payer|751e6a89-fd67-4211-b2ad-0250840dc0ad|EVN
95221|79cf65f0947d488499ae0f9a029aea55|Payer|2b5c7c16-4fc9-42ac-9ef6-041a7c37aad0|EVN
95209|f07590bb1a134c34a83cbe4de5636b96|Payer|ed5ad03d-40f3-498c-9173-631e744288a4|EVN
95208|99efcac31fd54dd286198cf5e8440666|Payer|a37cfbdc-45fe-4416-ab06-6bfff0d5c0ea|EVN
95546|badb779582bc4f95b5490060a07e2040|Payer|1b69367c-0aaf-430f-b98a-a2749dc6f26b|EVN
95220|cbcfe63f774a4bd1b8c9687ac9da6bc2|Payer|084ea0e2-022b-42d0-b341-69b14a63d6dd|EVN
95234|56da348b69aa4bf9b0844104a8b20d8c|Payer|ab77a08b-acf5-485c-b9f9-34f7e530ba64|EVN
95552|ebb44b1f148d4e9ab8d4593ffd73d3b2|Payer|dee16fe5-325e-46c6-a70a-aed8d0633b6a|EVN
95585|c8937d4b169c4587844a7efa8bd92d5b|Payer|8633091f-36b7-49c0-93aa-08ff19143806|EVN
95591|268ade54e8414d6484123dceec038369|Payer|dd5cea37-3b90-4b1e-8eb2-f8a035b2dfc5|EVN
95778|e6c6e1d81c0b48b3a5d63c7dcd035467|Payer|c97ac0f1-865d-4088-aac7-12da90edcfc7|EVN
95022|c8f9a86439f8447880cce7ac648d1664|Payer|74083ce0-0c3c-4ef9-b239-a2a728c47a16|EVN
95744|971e603675374f20a659d5cf4d4a76af|Payer|d13d6453-f12b-46a3-a92c-a3ebc7ab3bc8|EVN
95750|0f73461df5c24300853011dc5da373d5|Payer|50e2c7ba-a72c-4c1d-81c3-cc8e3620955d|EVN
95036|5c2386fef74c4a3093616bccc66f2934|Payer|66202ac4-af37-4558-89aa-0b75473c1a62|EVN
95787|228edf73aea1455bb96558173e74c14e|Payer|bf2277cb-acd3-4952-9ea9-80ed45789238|EVN
95793|310acd699a1a45ef8fe47b1f74ad03a5|Payer|01a23537-44e4-48de-8f26-ff53ec392913|EVN
95618|dd280ca3486b4feab5aa343998bacbd6|Payer|57bc82e6-b7e3-43c5-8c98-6143b21f6ea6|EVN
95156|c1e89ae44d594cc0a6475ee19a51fc34|Payer|f701483c-8b57-4df3-80b4-caafbbe48a45|EVN
95630|f3b2162471cf4be79d86bdd0d4f7d53e|Payer|4d56e254-3379-484b-baee-d994caef0b40|EVN
95624|9f5e151a57594059a2a37a50d9ace7d3|Payer|170ea917-602f-42aa-806f-2094352feb91|EVN
95142|d32f21dcdf504329b64086ebec297894|Payer|78331499-7df2-4af7-8bfc-428d555ec9d8|EVN
95817|73797566f3b1485296c6e49ff17ce458|Payer|fa2f34a2-a8be-4e8f-ac78-7522c3a8e76b|EVN
95803|508f9333686846d4ad5692e02f0f8c5a|Payer|9fdf214f-1f31-4e5c-bffc-8babbd094bce|EVN
95195|c40240b230cf49c1bd0ad5c3efcd65da|Payer|357ac34a-2e20-4620-93a5-758afa9d192f|EVN
95181|4227045ab87b48cfbc6fb4202b17c7c7|Payer|a5855224-aa6a-4857-986d-8130a65eb31c|EVN
95368|117c2a6039fb47ae91816221732060ed|Payer|d249b2a7-c7c6-4845-ad62-465510c35759|EVN
95432|186d6f0041ec4339a9e452eaff673d17|Payer|9d1775a7-7583-4cb4-923e-c2b34a0eab9d|EVN
95354|4a4bb1b5897b4bd49062eef88803c30d|Payer|533454c2-e821-4a7d-971e-f48b012fe811|EVN
95340|8fbf716605be4f249d1c2941221126d6|Payer|1c351af0-29eb-481b-a003-e33c5278e9d5|EVN
95426|bee38d063c8545b791604e73dd29f461|Payer|f28dea24-cc67-4bc0-a33c-89f6c6815d3a|EVN
95397|864bf32ac0424f82b95578642e04a7fb|Payer|d660c3e2-af48-4b7f-a8b8-fdd8dd66290c|EVN
95383|65006cd668ea4bb6986531a106666154|Payer|c3c3f558-b104-45ac-bae6-91b9d0c6cc13|EVN
95395|4f76c8bfe0254ee68818174c24b04546|Payer|7568e1a2-3a89-482e-b34f-570b94bf7aee|EVN
95381|a0a4a7dd94644409a0a3e4ba5ad5c159|Payer|9369f9dc-be5e-46f4-9740-f062153bf189|EVN
95356|0dbb9cf242984054a84849ef9b90293d|Payer|82a1f9d2-1e6d-4e38-834e-bb88e3ec287f|EVN
95430|53e919ac738f491ca3c1478402807381|Payer|57ddd343-2b32-49aa-8ba8-01fdd0b2668d|EVN
95424|610d5ee549fb4851938a96fe793073ec|Payer|8b64e113-d2fd-4895-b9b8-b20dc2d4150b|EVN
95342|bcb95e5d356f4af986b3e452658b1c2a|Payer|7e36b54e-3835-4a2d-b2b3-f1099f106c9c|EVN
95418|efe6ab322acd4becb5fa80ed9167a63e|Payer|7b406d23-a0d1-4477-adfa-dafefe3aed58|EVN
95197|b49d54c8d8aa415996122d2c91a60b1e|Payer|175f1bdf-c9fd-43b0-8715-33e82ae1cbfb|EVN
95183|5d96835bc3b04819bd1cfc1fda8e5822|Payer|0b3391ab-b58a-4f78-aaee-4f8e25e65ba8|EVN
95815|d2860aac8f584e489e065dd7dea0bb5c|Payer|40851e9e-7558-49b5-a562-d765ea95c1d1|EVN
95801|2007bd18d0954c639ffd0f67a23bb075|Payer|cc8db269-443a-4e2e-901b-a8ee36d6288f|EVN
95632|3de85aee67cd437d861f1c27b6ef3bb1|Payer|8538af0b-611e-4e0b-9a48-861605059130|EVN
95154|624eb0fe9583470f80a9b7f969b629c9|Payer|8d695281-14d7-4002-802d-b79d632a6959|EVN
95140|c25eb902e7b544d3b89b7977a4466f93|Payer|c9d31b4d-32d0-43de-80e5-c1cb70650824|EVN
95626|4d222670204b4922ada1c946f68b6c30|Payer|70ddefe1-c619-405e-8328-62f609e0e3e6|EVN
95168|cd16955d0f7d4a6daecf0528660082b0|Payer|5ec2e190-4cb1-4ab7-a76f-02a869429466|EVN
95785|c7376f0a3c124f0a8b565f141ff7d0fd|Payer|1193505b-5a4e-4298-bee0-1f01f66146bb|EVN
95791|49a27efaa9a746fd8f2b0b71652bfa81|Payer|ed036002-71f3-45fd-9293-7757d43651bd|EVN
95746|fe387817a1a94c06a99103042084c9b1|Payer|72b6127b-cc95-4d86-b58c-d5003efcdf6c|EVN
95020|f008b2ccc1f64b429cb9b493e58ba651|Payer|eae085ef-f21d-4867-b558-f8227caf7ecf|EVN
95034|f64c8fdbe7154073b991f44d9ce699d8|Payer|752952ba-2366-4206-9986-b045f1026972|EVN
95752|6a38bb31b2d04d00ba1f592b13bc457c|Payer|b78085af-a14e-465e-8a09-927e498683d1|EVN
95008|30c39b41356e408ab60d27853e336da7|Payer|dbe190c1-c4b5-4d4e-82fd-0e8e623444e2|EVN
95587|59a12b5fd45f4c7eb76010e2b4211f59|Payer|6398f346-1d1e-43d6-b2cf-fdafc6ceea09|EVN
95593|af1b1d002822417f8e82857cba53da15|Payer|2d6fc9b5-b716-438c-8c5c-981cc8f3ea9a|EVN
95222|bc8e27c5ef5a49f0a75438fe81954aed|Payer|b8fed250-7db4-4cb0-8107-c3fdecaf6609|EVN
95544|a2af0dce940a460a98d52ea41892f8dc|Payer|d7840a8c-1466-476c-9e4a-281d37210b98|EVN
95550|52a25b34acfb4842bb7aed3c3047f172|Payer|8f1f4607-ea4b-44f5-8f07-d0b822ceeeb8|EVN
95236|351162f30dd94789be107598b87d8773|Payer|c8c34083-f39b-482c-b41f-d2110a5b9d87|EVN
95578|d2583f19beac4f93afa5a350d1c25bef|Payer|05d1fddd-f3cf-428a-b4f1-96053599c8cf|EVN
95579|66f26e79a2d74d638b930b4bc216e84a|Payer|11ad7b66-2ae3-44d9-8a25-9685b53a22b5|EVN
95551|d1cc1854ea124a52b396805c4d3029a5|Payer|cab1d647-1c82-49c9-9fa2-869834f39c0b|EVN
95237|67e4dc74a6554f7d89e72cc86d3ee26e|Payer|0400a268-2985-4c0e-94a6-67aa60f56d1f|EVN
95223|76ba1ba64e7142a5beec066bb0f2741f|Payer|9cef2df1-af7b-4965-a2ac-eaf385e4f70c|EVN
95545|0729e33a28fd4d5c9d34d772022aacf8|Payer|adc226b7-2115-41f8-8393-e2738fe9635c|EVN
95592|abf699e1b3084e1aa50b73a3a19795e1|Payer|ad16ba42-3822-4247-a6aa-d7142d22769c|EVN
95586|f2eb12a575994dc8966b7fcf841dc1b1|Payer|9ef30d34-b92e-444d-a142-b1af39e99bd3|EVN
95009|b1dd045f4ca74df28aa51fb9bd0c4dfb|Payer|4037804d-45ca-46b6-9532-b67b953c9649|EVN
95035|43c74d2947244b9ab13c5bd7c5a33772|Payer|17bb3f05-f92f-445f-ba76-9dd7747038eb|EVN
95753|8087bfa2c13748129930e19dc6159693|Payer|cd82a966-c197-404d-8a43-4176b9e986f8|EVN
95747|868776298ecf4080904456ac315a6420|Payer|76a6f6ae-e5a0-4d24-ae72-4d0afad7f849|EVN
95021|ebbf8096c956498f803dfbd4beed9e92|Payer|df8539bb-ddc1-4ee4-85d2-e7b280d938e6|EVN
95790|a8b2a0ab05ba45718a79161d8a75ec4f|Payer|de977952-8d8b-441a-bbb3-f751493e62f3|EVN
95784|ea40272b59e046068baf3b1371af2a66|Payer|ac78f492-c853-44fa-91e2-aee294702415|EVN
95169|d1e85bee5d82423eac3ddd77330d9df2|Payer|5cca435a-e3f2-42a4-83b3-692210b3f024|EVN
95141|7940bf0942ab4f0abc9a14addff9e153|Payer|e9e1e9dd-1786-4143-940d-9f53c3cd3354|EVN
95627|bdd05e1c904d41379ff1f4412dbe298d|Payer|05f79c41-b777-4342-804e-260c45d6aebc|EVN
95633|feee285e85b24baaac877c7e916e17b9|Payer|14b624a0-a9f2-4e8b-ad69-44329aa9f62b|EVN
95155|adf1453844d544ef9cebf5466a383099|Payer|0896844f-c627-44aa-aac6-903aa3ab1055|EVN
95800|a13aa7cf7a9c49c990656b3328d717ba|Payer|64da7cfe-87f0-45d9-bb53-238eecb6802d|EVN
95814|8f1c1712e1d246778b7256ff382e0341|Payer|6ef3c5af-a569-4514-926f-c9235e3700ea|EVN
95182|336b5805c1fa49bd8ce3781f7bd9cfc3|Payer|3175489d-4ee2-4a23-b653-441adde0b088|EVN
95196|7f791044a4784c00ba78d8c9b0e03f30|Payer|1499957e-2458-4030-a3ef-60d3f9e6d965|EVN
95419|92cf8fdc7dd64b10b4c01f76c982778b|Payer|c9d6fdd2-b0e3-4f11-a2d0-7feeba80deb5|EVN
95425|4c06efdc5a944b40b2da27711ecdfd1b|Payer|3bff396f-b645-4fd8-b6e8-0ec3d8c9be50|EVN
95343|c8735901daf244f7aae301e637d2c937|Payer|76c14de9-a0e5-4edf-9b4d-1632212be5cb|EVN
95357|f73b0ef5ed11424b93c4ed67dd08da41|Payer|50c546ad-7b96-4399-ba1a-eaf114f813fd|EVN
95431|315ff8817af94768b0d90354c615e435|Payer|59a13aaf-efdb-4aba-8972-f31ddce484e5|EVN
95380|139f047377eb42d3a098109eff185a56|Payer|7bf07dcf-af1a-460f-9a35-00e163ffd944|EVN
95394|b54f1169585043faaf7af52875245a4f|Payer|3a7176d1-7d8a-4359-82b2-406536e54231|EVN
95390|677c9b20ecbd461bb233bea68bcdf93d|Payer|798e89de-ebb6-4923-8972-842e40fec392|EVN
95384|3acb82ca91594c1dbeee63cf7d3d8b88|Payer|7e2199d8-7add-4939-8baa-a01550c88644|EVN
95409|60a1bf0d5211472a8bb4efb5d0ffe48a|Payer|25120593-c4e3-455a-8ba4-59adc7367fe4|EVN
95435|f46fffa73b8d4fc5ac5ef297e1cd17f6|Payer|ae17d2cc-d865-49fa-af61-44aa4dd2f3f7|EVN
95353|e4daaa46bd7b4f1dba4c08126bc5fd8d|Payer|d04656ae-6b24-4a91-86ed-943d43443a1d|EVN
95347|566b8d14c9e34a269572141ce778aa2f|Payer|4e4fde56-1e39-4e84-bd2c-7afe6f75b6b1|EVN
95421|aee1664a13da4dff839ec99e37ebd1b8|Payer|a6fc841a-75ed-46a5-a4c9-dffbf78f94d5|EVN
95810|265dbe46142843599acecf4f4f8f274e|Payer|0c791735-dbf1-4eef-81e9-331d772c98fc|EVN
95804|0ecd751889e040b6b612ec78fffc0d0a|Payer|042173dd-d664-4e91-b268-9ff5a0c9ccef|EVN
95192|25e117d7a2ef4a2792b62e1e31df50cb|Payer|2aa4b91c-6493-4cf6-a032-1d8944185645|EVN
95186|7a4151fd7bb543c5988ba70e690dbf9d|Payer|1c1bffe8-a37c-4372-befe-177c62488151|EVN
95179|9847ffe2f22b48d087e387224bdf8a86|Payer|da056893-58ee-4e64-8152-4fe9c9c0558e|EVN
95151|39740a46babb43d1b170ffc610a569ef|Payer|25b87157-e17c-4b7e-88e9-99077576a469|EVN
95637|5df4f78210064bedad9efdbc0babec7f|Payer|1990c07a-10a8-4764-80de-143b70688d6d|EVN
95623|23d2e9933482481b9543ed8158346315|Payer|0a217d4e-ec54-4f35-ad56-67a86328017b|EVN
95145|88539fe9d2854341ba8c1f03b56c8323|Payer|0d530dca-c68c-4f38-b280-364705ad6dd5|EVN
95780|3b2548a6fbf2440785a76ef7199b3469|Payer|d515757d-e642-485d-a38b-ec9cd9f10901|EVN
95794|25f6d812a19d4f64be5ab9bb28b76b06|Payer|64f15e94-70bb-4e2a-8fdb-4406a041643b|EVN
95019|251a262afa5f470785d2b8ed4f322ff1|Payer|0a9468f6-096c-4dae-bf9e-34fde04d5355|EVN
95025|cf9a643a90344277be0577ef38fd38ba|Payer|1c58fbaf-4458-4c6c-bd99-3e37975825ce|EVN
95743|5deb219408554e609ad0bbf2d41574e5|Payer|d771520a-d35a-44cc-9bdf-088a0e46d794|EVN
95757|0ef5c4a4c2254c228102e31876013bf0|Payer|0c996827-36cc-4173-806c-ac63e5d6618d|EVN
95031|f07ab85fc2494fdd80d7fd843201db17|Payer|759da727-a18b-423d-a0f6-ebb3b490e958|EVN
95582|07a58fd862ba4cc09b3e2f88f5ccf124|Payer|0d99fe31-7133-4e83-9f69-7049c111cd0e|EVN
95596|a7a6894b26fa41d4848a5099d7460d3a|Payer|3f088e94-f594-40e1-8241-8ffe92b9b1de|EVN
95569|9883c360337e474195624a687f93bf95|Payer|f74d3b17-7736-4f2e-a269-cfab8f384048|EVN
95541|e5128fce1a6a4e73bd6526e55e679ae6|Payer|273e0902-312d-4b84-828a-2ea0c401899a|EVN
95227|e215bcea00b841efaccfe5155e9b9f47|Payer|5136a76e-b8ee-4807-8d04-558810ac72eb|EVN
95233|53e4df21646247ea9b1f7f916062d650|Payer|d52356f6-8646-4716-8eb4-474dc3efe41b|EVN
95555|dbcb37b540854cd48cc4d10565a79e3b|Payer|cd6070d0-57fe-4b2f-a552-44d123d171b7|EVN
95232|3214f15d9f9a4e79b80ecf54db3be596|Payer|d9ed2d51-17ad-46cf-b53d-a9089b4137de|EVN
95554|78468fa43cbb4cb2a365014f91f896e9|Payer|771b9ed5-e777-46d2-bd6d-5cfbcabbafbf|EVN
95540|020cfef02f284619badbdc0cd26cd7b8|Payer|fca3472b-6c1c-4ad2-923e-2f026739f916|EVN
95226|f839712edc4c456a9c4873bb157867d4|Payer|adf3b9f2-ad99-4e3b-93ab-4bacfee84fdd|EVN
95568|5695ac8d04c241439e607dc65452fe83|Payer|4356af73-9423-4a39-afce-2a3824f517e2|EVN
95597|8ea04a78f4dc49c591845943f9b93043|Payer|2811740e-2097-48b8-a762-f1d98afacd19|EVN
95583|90097a009f7041609cb963c69cd45761|Payer|1e0d0561-fdab-43fb-86ed-c86470247175|EVN
95756|9cf1b07927b446a7ab38f8ea1761e934|Payer|c43a1e38-d420-4c3e-853f-eaa384c43d89|EVN
95030|73cbcb3ace3f48fc99ff4621b83f0332|Payer|26d6b4be-70c4-40af-8e7e-4907370b5a10|EVN
95024|9bce727d4e9348dabd7643e004c53a67|Payer|95aa3ca5-75bd-4f61-8b65-1ebffb8af762|EVN
95742|84243c48aeed4e119182acbe7f218ed5|Payer|b37addad-a427-4ad9-9e9b-6d49d0e8fa0c|EVN
95018|2ae0279be3224a0e9f51acc6a30efad2|Payer|0e72d615-fb90-4595-8a59-bacee8ca40f7|EVN
95795|4c6b21dff44f4717a7b88f3da42a037d|Payer|5e2a7f31-e2dc-4495-b7f2-12c01e6d3189|EVN
95781|54b9d9f5302a4e97bd947f9f32463fd1|Payer|78b96d31-3e88-40fd-96e5-bb00ea56ecaa|EVN
95622|9c8ad1ef6a54435b80c874107b51f6cf|Payer|2e61712f-c747-4ccd-bb7d-105cdfc92204|EVN
95144|d6f93e10de834a67b7f0c87e13ea747e|Payer|9f0fb308-bb4a-4ef9-886e-080d27e7b891|EVN
95150|a145adcbbddf4ebb99691c1d5074356e|Payer|30d58c94-0939-48f2-8290-092662bb91af|EVN
95636|f057e40c45014dfd88f43731b4bee8bd|Payer|c67a2d39-7ae2-4f30-af3a-2d9f24491df0|EVN
95178|420db3c70830442694e3587a42f59a8e|Payer|b7fbf39e-3a17-4c47-90eb-1d67e7dfd0ba|EVN
95187|012523d4d11340eaa42ad5b8ef4b3558|Payer|9a3ddea4-538a-4491-9183-9fa07aed2bf6|EVN
95193|a019a19df1444d73a4594ee3ca469f0c|Payer|11d1b8f0-381b-4a3d-bc2b-c4e275c1915f|EVN
95805|c87dfa78ee9b4524b55efd41e572fc35|Payer|4adbcdc5-53be-4e41-8834-663330c3f7a6|EVN
95811|7d440a37110d461e8644540763c2acce|Payer|b2282de5-522a-4dcf-8c7e-ada166d33c61|EVN
95346|fd8abbefb73746faa1958b4682319af3|Payer|5deb9e7d-d62a-43ef-b694-bf52726986f8|EVN
95420|60f2e88a20b44cb696d03d35e06863a5|Payer|ad8a5e77-8702-4d5b-821c-2ce577a1b6c7|EVN
95434|4253baf51cdf4e6a803c31f20872442f|Payer|58382cde-6ae2-4752-9067-a5ba9eb9b744|EVN
95352|075e60102fdf499ab506aa921668bf50|Payer|b34575b0-a4b5-458b-b489-af5d4b36f46f|EVN
95408|0945a89d392a44509e577e77e0a8360c|Payer|b7cc4aa5-2053-441b-9f2e-b52d66f10c69|EVN
95385|d3ec4db322f54f12b4f729baf3364fe2|Payer|5552c0c0-4ad1-4c49-b2d7-63d40ffa4b70|EVN
95391|b2578ae9c19649ddb5e878de672da659|Payer|ba0afb51-9f0b-46f2-bfdf-e5a2dcd7f2e8|EVN
95387|bc64d7122211427595a6d3da71c12d4f|Payer|debc95e5-874b-4bf4-909a-73ee496c3229|EVN
95393|97b21e2b49204e19941640c01fb315af|Payer|df0f787d-1ff0-4736-b332-226fbf624603|EVN
95378|08fd894268f74ad8aaafe06fd2d9b9ff|Payer|81e5295f-f48e-4390-ae51-ad5b9c05b30a|EVN
95422|42e006527f264008802e362ed6b15206|Payer|524b2ab3-2f5b-4545-ac9b-aeae0e74d7fb|EVN
95344|3533b6f424d44b6d9404ae0ca1459153|Payer|b807acce-9d37-4ec0-bf48-cdad34671b58|EVN
95350|85b24d00f1964a8ebb54bcd5a59d2c4d|Payer|76e57911-19e9-4a2d-aecb-03e7c2a6c150|EVN
95436|425bfea96ac5479a8b96ac44623e09ec|Payer|5a57c73e-72c0-46f1-b6f6-35f9d27f5e27|EVN
95807|3d489ca35cb14cf590be05233855a848|Payer|980fb84e-a492-45e1-9bee-e5b1c9b5170c|EVN
95813|4646a79becda4bbab775d24a304c4c6d|Payer|2626e84f-4339-486f-bc5b-aaca5bfc07f1|EVN
95185|c3a1ce5984cf4310a1383a8ea2201ebf|Payer|96842e94-bc7b-4a5e-8682-e819940bb683|EVN
95191|59dcd205b13645a9a8ceb3efd4fad8ff|Payer|3dcc8d02-f7b5-4bd6-8f91-f1c0d9901638|EVN
95608|48f8c6e832e64d79acf50ab47cb807e6|Payer|118f719d-bdba-40ba-a0fc-ed9b0baa6a44|EVN
95146|f40729c5da1442208bb69aba0c768ca8|Payer|9de0b131-2d51-49af-81b0-3404a7c5b49f|EVN
95620|20e909d7302c4085995d0a0d5d0264c6|Payer|f9af2ec0-8259-462a-b914-126a71105f67|EVN
95634|bf8a364707064375939eca756ed84a57|Payer|238f350a-00c4-458c-96a4-fbf86d460476|EVN
95152|db24a632367b4d41ac5c0b75c5d16352|Payer|55155081-b9ea-4413-b83d-94b7a8eae9de|EVN
95797|17dfe0b05a0c495eb106b57992e62faf|Payer|3241e947-6845-43f2-9d55-5b742f3663cd|EVN
95783|94cd657f968240f09fc21067333972bd|Payer|8e05329a-d69e-4122-87cb-eceb114cfd06|EVN
95768|8cf4843af2f04e54bcfe3a9ea299377a|Payer|6bc4e9cf-e8d2-4973-8361-bd36189421c5|EVN
95032|e2c9d5dfef624bd4a00e444b0e13e7bf|Payer|32631eb4-fa44-4f3b-a555-0d632f628266|EVN
95754|081aafd61bea4517995c93bb7d054db8|Payer|9e269580-16fc-4722-98dd-c5f99d960908|EVN
95740|41f7dbb9dfd7446d9de31be71f9ceef8|Payer|7d8cc7f2-4312-4578-ab02-89f6c019f6ef|EVN
95026|3706b614a6304cf68a0393787fd02357|Payer|61810d36-885f-4686-a368-df3852d35c64|EVN
95595|968293f0eb8241b8acd916e873520e7a|Payer|2ef0363e-d57b-4c87-a187-d777a0907780|EVN
95581|91c55b6df92249a3a871117961ae482f|Payer|dd13ce2d-9122-42c2-9fea-ba23867ca9d8|EVN
95218|f0279c1cf5a34851ae45b549d600433f|Payer|725faf14-d3be-4425-b4d0-ae9258c75442|EVN
95556|8f5b0173c23f4790b2a92e235dd2668c|Payer|d2033439-c879-464d-81e8-89fea961f06c|EVN
95230|ac0e4d82b98f4c18bd5287977e8b15cb|Payer|cc2cd449-698e-41dc-b407-b81b0dbe6387|EVN
95224|588bb216f03d470b938318d679f104b8|Payer|de5552cf-88a6-44db-a0c2-99f822ae3102|EVN
95542|24c0a40d36b147febc73dcc99de81143|Payer|d9b76b41-2c01-4b75-ab3c-2e0964d9ba5b|EVN
95225|0606edbe16a344d7a5f09ec127e00999|Payer|19c24a16-1929-443c-9491-8dac148d77d1|EVN
95543|97baa4e21aaa401aa9469c01cea825d6|Payer|314f82fc-00ca-4c8f-8fb7-a8f6d039ee40|EVN
95557|31ca648f040a445682ba9ceaacbcf79f|Payer|2d6d966b-b0ee-474a-bcb8-ae75e58ed2a4|EVN
95231|4d7ffad5d5e34137918cdee95c6ed90b|Payer|03666884-799e-4b63-9d0b-6777bda4c15d|EVN
95219|7f4e975d309440e3ae3e99667c4b2866|Payer|db712491-4151-4a1f-a299-40850bcafece|EVN
95580|933c4cf6de054ad88d8f5fadbca7ba69|Payer|e61740fb-3234-4920-9e6e-3fa0a31d7626|EVN
95594|ff09c5894cd74f459c6d36e4be641370|Payer|d3ee9b41-d82f-4711-9ac1-56ae110b7bd8|EVN
95741|8fb8bef256264fccb5000696b453fd3b|Payer|70c2e061-08bb-4198-910f-cba9a14df0b3|EVN
95027|c388f117902d47dd9d7e1fe219847032|Payer|47f955b6-f4d7-4969-b685-9dabb15fc6cc|EVN
95033|38b9eee1fff046138341e9e37add9c44|Payer|8d26fd7d-6bc7-4bcb-8dd7-ba2aed14b9f8|EVN
95755|d3e3917a3a044831962633d0717a9649|Payer|59a0f351-fc32-4d52-9fef-37d37b0b33e4|EVN
95769|f95ace52d71e484e9a8d4b9263a68bbf|Payer|de2c7755-1365-43ff-a849-b28ef3752fce|EVN
95782|fb970bfc44264e65a3bdd94128b62002|Payer|4d912ec3-b355-42c3-8597-9836fb81d8f8|EVN
95796|39ae20edc15e4ae1a9909ce19bca1c18|Payer|2835546c-4b20-4fc5-9bab-cfb43e7e861b|EVN
95635|b80a40fac5b6462c89967af682b963c0|Payer|0f0fbd1a-e81a-4147-b633-aedc471d8024|EVN
95153|a90a796ae57240dea7a1f25cf173ccba|Payer|ae07871f-d775-444e-8c2e-ca2234a613ed|EVN
95147|983d7a62594d424a998ccbbd2c06c30b|Payer|ae4dfd74-d8ba-4313-9811-41a0bc238812|EVN
95621|7930cc1d2bdc4b9a9e0b051143af594b|Payer|6d3a998b-ff32-4912-8b04-e0e4e11be200|EVN
95609|191a8efc43444725a50d27462bad28fa|Payer|258b8c14-58fa-44ba-83da-e2716cef8bb7|EVN
95190|01583643f31749f58c5cd8173391b7ba|Payer|c731a006-5fe5-46bc-af45-a58a0c58589e|EVN
95184|a5a25401c91a44d682cc7b91c94b7908|Payer|b2162311-702b-4027-8118-17e643cc162e|EVN
95812|f3270af26ad749cfa5a4606f157462c1|Payer|67914e3c-db11-42e8-8a2f-40e0d6651ca4|EVN
95806|e33e853d7dca4c12a3852691df10f78f|Payer|3b6cc1d8-2aa3-4cb2-883e-80a949472386|EVN
95351|1c7ff493892f4ecc84fb88764c7514c0|Payer|e58035f1-7f01-4257-87ef-6fe9f6407d30|EVN
95437|663f47fca9ea4efc976f13a31e4e396a|Payer|62b2f3e2-9140-4a16-a5a7-8a6176a641b2|EVN
95423|9180536e10484d0092893fbbe7806c50|Payer|f1fe9dbb-8c83-41b4-b968-776f48b6bb0d|EVN
95345|a840e0e78aa9468fb68e4a32057c937c|Payer|9360ef33-7898-49c1-9858-acbf748e3c77|EVN
95379|37418c9b898540f8ba41a46744048158|Payer|68a4e7cb-ad55-4705-b667-ce2b3e77684f|EVN
95392|9125a49c58d44bbfa043d3e7243b7dd3|Payer|c7ae42fd-2de1-4c65-b0e7-fd026bb7ff52|EVN
95386|6bf226cf82b146688e57ec6765fe9c87|Payer|367adb42-eb73-44ae-9723-8d10820b006e|EVN
95487|524f88cdd5574011b643784ff6f0db6d|Payer|cf9b5f2a-f954-4d17-9d9c-f7cb9f9bd4dc|EVN
95493|7facab713f3c49c3b706a2cabcfa0377|Payer|addc9f17-0940-4299-809a-14454adae39a|EVN
95444|878744acc83f4076ba40d4ac4748625a|Payer|f39f8ea2-93a8-40e7-b6a1-496f2c1fce48|EVN
95322|487a9ca2e8cc465681990fba9d937a19|Payer|20767ad7-4d95-4efb-bd1d-c86cc0175b29|EVN
95336|706b95048766478ebbee5334ef8b985f|Payer|e0671f77-4d2a-4f30-8c77-74e1a4f3cf0d|EVN
95450|6fed9bb9273e483a9499668c946efb90|Payer|fb07cb75-41c0-4774-bf14-90572c96c002|EVN
95478|fafa8e0945fc43c187c3b6d4aff20596|Payer|9fc71d2a-75ea-4a2d-8411-34a76112a912|EVN
95685|28cb144b271b45dabb59585fa24e4cee|Payer|2c7d884e-52d9-4610-b06f-8b0dee249f14|EVN
95691|cb160590f3cd4536967860fa8705bb9d|Payer|33bca0fe-3688-48fc-8264-ca9f06a66854|EVN
95120|c929690d26bd4b279cc8d3a9d40dcfe0|Payer|5ffc0e6d-63e0-4dee-8212-8f0b193b3fca|EVN
95646|c70ee52b896c426e86e1648d4778b63f|Payer|eec44d7d-1f3c-4748-a048-0214ecc9705d|EVN
95652|3d73641cd1a3439fb5b1283e315a547d|Payer|86391781-17d9-4982-8815-758d437e9fe7|EVN
95134|e43d993d96c6401f9b8030fa569c1080|Payer|f854cad3-243f-47f7-befd-1a0fddbb60bb|EVN
95108|02445cf934214c4e8ce283cad4057f17|Payer|6779dbe5-dcbf-46f3-9a73-91cf482eef88|EVN
95097|4c3d49d1891b4fa2a1cf693310f59621|Payer|9b723559-2347-4f57-ac35-abd8a0dae949|EVN
95083|a4c45bc589f449e996fc57e19a6c09c7|Payer|cf89179b-fcfe-426e-8f72-9c19b8641fe2|EVN
95054|090642d4bce44672b8301880be902f9c|Payer|81df733e-d488-408c-a9e4-fb8522880aea|EVN
95732|53abbda19d644cda910e8de42da60909|Payer|90992d03-c995-4b8b-8855-4a64737fb3bc|EVN
95726|007969d70e2e44d58e605637b02c73cc|Payer|ee83977e-6c4f-4928-8d91-c207eea17662|EVN
95040|1c4973a9e0144d2e90d3c3815ccd62b5|Payer|4797d0be-8c07-4ebd-9c87-3a47942e19ac|EVN
95068|8d23561512784975a48f913236e4ad6a|Payer|3e08ec5e-fd38-434f-ad22-53bc1df05211|EVN
95295|07b492fc0ad04eb9ae0e15132b1d036e|Payer|c008e7b1-a9c4-43a7-b91f-27191be1a604|EVN
95281|90181a5190a04521b06813b07ae76bee|Payer|a2886be9-2936-418f-8c08-e1347724fe1b|EVN
95530|9715f60d3e7a4e40bce5b6fa9dafc5d6|Payer|3b940c87-4656-4c54-b872-6646034a57f5|EVN
95256|c4d662f2ed304af6a9c6791fe115c425|Payer|7d243524-8a6a-41dd-8fd2-7f0750f34431|EVN
95242|489ff4d267474db4bf45535c45dc71e6|Payer|105bea1f-520e-45aa-83b0-042931d1ff1e|EVN
95524|b17e1491763c4d14aaae079e1aec93d2|Payer|e66633b1-bb96-405b-abbb-2438ad5e2e86|EVN
95518|9ce96ba73c0e4e469257eaf7f24295c7|Payer|a1a8604a-34fc-420a-a33d-b6ca4a14583e|EVN
95519|36b86eb2f48a49529be92f795eb1c195|Payer|a127311b-f7f8-4e0c-8ba3-bd82b22a0e64|EVN
95243|c89da8e11971420884e12a49b21556a2|Payer|554ac7eb-20d8-46d9-87e0-9f4da3eeb8e6|EVN
95525|76ef5dbf12804de2b2a54af5295da2a0|Payer|528ef9cb-884b-45c0-9bab-a6414837fa6f|EVN
95531|fc7bcc004e844a3380daafc34bdbb4f2|Payer|0acac3c5-8e8c-4fea-be27-8c48b3c840ea|EVN
95257|7c447a6368484fa3b6944811f2c89ce7|Payer|24b99eed-fed0-42f2-92b6-e74129dbb9ef|EVN
95280|d3658806a7f54641851b903804b46e0b|Payer|762159e6-5306-4c45-9706-ac3c61634d1a|EVN
95294|1ee701145efe403d8b64a406aaab2905|Payer|b2f0877f-0ce8-4500-935c-a57880715a71|EVN
95069|73008b9c677845a0a7d819ac8ef53f76|Payer|e1bc268f-edca-43e3-9043-3c1d99c48e98|EVN
95727|b53f0fb7aa094aa0a251d96ea8c9cbb7|Payer|aa481290-f29f-4779-b240-846fca01906b|EVN
95041|9d9d856201c149869bf10ea554cd57b0|Payer|cbfacc5b-0ceb-4805-ad41-082caed243a1|EVN
95055|050ed4b863af4cd494738645af40d624|Payer|ded746fd-48b6-409c-b89d-2c6ef050b0d2|EVN
95733|5ab1b81bb0de4ab38f732611bbd3e602|Payer|d9a9b45c-342c-4001-9b2b-9a7c28d8f764|EVN
95082|39e59fdaceba41ed833df8e97b5a0232|Payer|1886a594-70ef-4c5e-9ef3-4f90c0e477b3|EVN
95096|567bced919884ada885ec99a1991987e|Payer|9260333b-35c8-4d31-ba4e-c5e61d4bb0fd|EVN
95109|f39ca8c781054fe0b70d071a4b88d8ea|Payer|db2cdb9a-4c8e-4e2f-9d07-20ff894d4219|EVN
95653|a6f3e3c2eb1d42269b297cada2ba68b4|Payer|09446c5c-53fa-4383-a758-fbab4c7c61c9|EVN
95135|733bbb84fd40445899b82eaff8849da3|Payer|f4fc8bd6-0cc2-4c6f-8808-5aed947b5012|EVN
95121|2a8245cb1ca349068d5536dbc52d4dce|Payer|d7da4614-5f9f-4a6f-8cf4-876ec397c6e3|EVN
95647|cfde03e8a7414aa6b764b5975f6c15ba|Payer|3cdb4101-ba30-44bb-8825-0280d9709fbc|EVN
95690|95d06a094b2d47d79e4cfe782bc961fa|Payer|16768100-499d-4847-921c-d4713845df26|EVN
95684|e986df8572744baeb259584360c231ca|Payer|652eb067-1aae-46f5-8b58-75c08bc1d700|EVN
95479|9b49b42484c046cf8f4b0bc1094dadc0|Payer|188e4152-e9e5-4784-afe4-90289b6b7078|EVN
95337|749d574e17d84f81bea14e8dd239cd97|Payer|73613b11-890f-4eb5-9bf3-6807656bbd01|EVN
95451|e842450d24d64a79bac64641f5442a28|Payer|f491b08b-15b5-4a6e-b653-334635b517a4|EVN
95445|f9771879271845eaa154f1daa0208f6e|Payer|9a1b25ce-4280-491b-a236-45c101a24196|EVN
95323|acb1455aafd54702af9cafb38db02631|Payer|664f8902-46f5-4641-9ee0-1485166ee108|EVN
95492|41fe6a2c11f64029bf544908b250add6|Payer|a21b4dfa-acd6-4044-a0bf-4d33057179fc|EVN
95486|5e629e09500543da83c4da56052740b0|Payer|d9356314-79be-432e-9681-22af1478e691|EVN
95490|21523ba5deb6465eb428850d6d7f38f0|Payer|32b70cb9-0c5c-4f13-ae66-4de06240cb3b|EVN
95484|9a4a80a56e0e46c1849d535b94c8f758|Payer|851d7e08-03e9-4921-8bd4-89397ba2b733|EVN
95453|4a8c2ebaec904395a0b58a06593a82f6|Payer|5aa12e73-35e8-4dbd-a483-8ec0b9b425a6|EVN
95335|49d9d4d3f3ef4ba3b931a70a8905c2f9|Payer|8c15ad88-1526-4da8-afbc-d0455eea52e5|EVN
95321|277cbd1ca9124f5a81f8ae2930b779fa|Payer|8fa8a641-493e-4de5-b4b4-48c2dbd0a0a9|EVN
95447|998911153aa14c3db97c71fc63cb0c2e|Payer|1af5a817-2382-496c-808e-5e939bc4528f|EVN
95309|d8674704fd3e401a9c24fa9f8a39fafa|Payer|c78c285a-d88c-4f7a-895f-a32a01aa9181|EVN
95692|3afddcf4f0734b02abf9aa31ba4d0b9a|Payer|e268b9ec-e43c-44b7-831e-6e8b534757e1|EVN
95686|2cc59f2686f94a1e8b393ae6c5cad700|Payer|606b8f5c-56e0-4fe7-88e5-470f3147a00c|EVN
95137|3435c71a2e864a2c978c75dc72249611|Payer|ca9dcdd3-10d1-4734-b19d-cf09584b2f3e|EVN
95651|d42b0d48c4094f76b640572ea74594ad|Payer|fcfc55ac-ab19-473c-bb52-c99c6876000e|EVN
95645|181e80bd28ca48218f27682d47cd7fc4|Payer|2df6fadd-079d-4015-a66d-c50df0065a9b|EVN
95123|caa4c769bc6e4d55b1bae83bcb404f77|Payer|362de8eb-2fd4-48fe-a27e-d9a5de9633d9|EVN
95679|309b271345364f53811ff15d5cdeecb9|Payer|64373786-46fe-48d4-9a8b-f15889fec847|EVN
95080|4610013f3ac447d283094ba3986f23d1|Payer|2e1d97ea-032a-4d86-a927-cb50fe6f5f35|EVN
95094|6909795d3ac04bd9942118a1d36c0bca|Payer|a46ed406-3743-40fc-a586-34292f756098|EVN
95043|31ee7a41129c4d328849b050cebdd8b4|Payer|bdaf6034-1407-433a-9f8a-822838686eb2|EVN
95725|516671f3504b4a5e869a5b24f7a20faf|Payer|4e3d31b3-4587-46b0-94b7-4b401433085e|EVN
95731|437dfae54359464992ad836d751e6838|Payer|df7da64a-4736-42be-88e0-4f314419b840|EVN
95057|7ffb41b426b94ebe8cb6d10f285e5d16|Payer|67771e6b-2bf2-413c-ad84-686215e1d075|EVN
95719|db697fc80a7d4897996699eb69743c54|Payer|a0b8a5f2-d8c7-400e-8796-6c89f888d7f6|EVN
95282|0bdeb0867cca4ef0b8dd0e551cd7ea57|Payer|7f09f421-4ddb-489b-84e1-7d6cd621905e|EVN
95296|8c7394108dde4be98453c91c4b3d5960|Payer|aad6ee37-5960-4d6e-93d0-2cd0c22cc36f|EVN
95527|fc7a7da19e0d4784b2cc5fb91bdf5f05|Payer|4b58c708-56ff-48c2-b216-48351c7ad180|EVN
95241|3a1da962212345c6b9c790b35613675e|Payer|f36666db-a4fc-403d-b66f-223bdbf7e79f|EVN
95255|3bb21cfa209043b1b236d6c11ca7f72e|Payer|ffcbd76d-4f14-4e20-9d45-9b4a42b66c27|EVN
95533|42069eab3c5142f2abb2ad6273fd9157|Payer|d4cfeeb6-7bc8-4a11-859a-b65e9712dc60|EVN
95269|4c33d5fbefa146758c9c186030dff753|Payer|1cbe5aee-c825-408f-8bb7-87c0244f9ac2|EVN
95268|95b05a3bdf36487285f811f563eb2178|Payer|b24afee6-e42a-4571-9fb7-1173c853b2d4|EVN
95254|468f34de38194e30a8d481e3efa62114|Payer|f865add7-880a-4acd-9c2a-54dd9dc4822c|EVN
95532|c02df3d9d2af47fa82215680ea77d86e|Payer|609b6e56-f8f4-43b2-92f4-0e11997bea22|EVN
95526|3343c4d1c67a41a1b00f9ebd678f37e1|Payer|5bda3062-6f93-4b15-a605-226459114e2c|EVN
95240|c679ee6d55cf40338ed6996619d08783|Payer|a9099c7c-20a6-4e5f-ab40-7c3766850f70|EVN
95297|24ef2cd87eb34bb292f7bbe1eda3d853|Payer|add0e102-eeff-441d-9605-da5cc481810f|EVN
95283|4fd1193f40854c20b3f8a2229aed54ab|Payer|9eb4400f-34dc-4f8a-b541-bc3244b6150c|EVN
95718|6808898386a94f60b0e7be23096c1944|Payer|a1bed8f6-0ba9-4e5d-a659-4299903db70b|EVN
95730|cad0aeec83d144bb8d44f6f228c9599c|Payer|43503bb2-733b-46a7-ae39-23f6d60bd599|EVN
95056|761538b145d744e19f973f8037f564d2|Payer|5fabf7cf-f671-4f8b-9f50-92fe855974bd|EVN
95042|b87d1baa89364511a71de8810a00c193|Payer|e933a386-07c0-41e6-a2dc-6e78207f3544|EVN
95724|e9ef0cedf5724fc88177bb374f2aa336|Payer|24caa735-6189-413c-a954-f5f62c5e0933|EVN
95095|5879f3bc3e8844068a233766657b1952|Payer|295f5172-11b4-45a4-afc2-ba50ad288644|EVN
95081|5bb5fb940bd24624a1443aeaf9dffd43|Payer|aaa96fb1-cd58-481c-815e-db2d22627bac|EVN
95678|496c32aec7c843f3ad0edb1f918cfed6|Payer|d986337f-3210-4ee4-a01d-9e4990edbbfa|EVN
95644|7d85e896262e401ca302084429c7ac7c|Payer|b8c6acec-a599-4587-a63d-dde005b6f00d|EVN
95122|e25481138b67433a88a9fe466c73fef3|Payer|80f2af65-59e5-45ea-8634-2c3769308876|EVN
95136|7623fb87b57e400393a81166c6e3ef4e|Payer|fab1a8b4-5018-4b2c-9885-2ef237ffffa0|EVN
95650|d1a2e45470574b47bc54ecc0822aac8d|Payer|65ae3ae9-2037-43ce-880f-cbd1fda7af15|EVN
95687|8a77f3624953403caefe4084c0d89d1a|Payer|383a5450-5aa6-49e0-9d00-de8e3903fc84|EVN
95693|2e1e1b3f96674cc29fdc1489d7436d6d|Payer|a465fd75-8d59-4c5e-b9a7-e2a1cfce34f7|EVN
95308|5d5e5ace29f74d9e8dfdb12e094577d9|Payer|d67a7410-cb49-4b8c-b963-090531328d47|EVN
95320|9befb397a59b4703b3b03b1f2cfee920|Payer|6c672643-e9f5-4186-b443-70875fdf583a|EVN
95446|bef6d7b1bca04560a9c07581d98c0606|Payer|be0c08a2-62d5-4850-9530-739f0852dafa|EVN
95452|b15ca2027da64b83a429ac64a651a4ad|Payer|24284c77-b3ba-4376-8739-4b35a3b40477|EVN
95334|aa79b7d45a65406a9a4154cca4f91331|Payer|bbe47e27-0532-45f6-b7b8-ba2a9b2551e2|EVN
95485|f2f0bfb1b6a347598a63d897303ebca7|Payer|df279d50-2b3a-4dfb-808e-b2b5fa9ffcec|EVN
95491|2190b79589a94229af6e63239792ad34|Payer|634d9d3f-b536-4dea-9d0f-28ac07e8a32f|EVN
95495|7bf13eeb21ac4e278b16de9637b719a3|Payer|a047a83c-fece-4ec0-92b5-19dd6fa7198e|EVN
95481|15ec36e4407e41e9ab08b188712d62cf|Payer|b6223c30-e394-4f17-bb26-0bd481d66fb4|EVN
95318|d73bcfce6c1547e79f44f131cd59edd4|Payer|ad38abc9-65e9-4b11-9a0f-d8eb666eec44|EVN
95330|9a84410d9d3341f3b76521f642c16b2f|Payer|74d53c3d-092b-4755-8795-9b960f26eeb9|EVN
95456|c37cc0afe7b54ee7841e4edd815ad155|Payer|fbe0ee43-e93d-469b-baa7-104babcb71ff|EVN
95442|03deb85230594c4697808147cb231926|Payer|48e6fce2-f42a-4f75-945c-970163864eda|EVN
95324|5532854534ae4926af8ce91bbefa574d|Payer|5dc4ab24-7a2d-48b7-8ebf-b21fdfef7367|EVN
95697|fd6acc7810e642c190fed533b40cfd24|Payer|1c634fb8-9e71-422e-b310-83ab415c29b2|EVN
95683|26a774fb0d4543b6a1705d2ca8bd4d5a|Payer|22994cb3-33c9-493a-b586-876a9207f17e|EVN
95668|23ad3ed3de604b09983e686edf4b7855|Payer|923acae3-7e11-49da-b0ef-4516289323e4|EVN
95654|62dd849d77f94631845e5f97570582ec|Payer|8b483655-889b-4a1d-ab3a-dde0c25c85f8|EVN
95132|7ae67b035c004bb6a7f4c18d8df18cf4|Payer|cf05e29d-405e-4787-8282-d2340987ce85|EVN
95126|6c6add5ef0ab423aaee4af7b207bfb10|Payer|fe5c24ef-5d1c-449b-85ee-5a630616843c|EVN
95640|b3b97807aa2844099f09e5b7271cf9a1|Payer|dddddc2a-83a4-4c46-ab48-77c13da72c49|EVN
95085|78d66a7c1cf443de846385ac727cc248|Payer|91b32677-0ecd-4a2a-9809-72e9ed3f88c1|EVN
95091|52e76a5e16164b22a806f1431dc207de|Payer|194edf1b-df59-4155-8bb6-8496053896a8|EVN
95708|a5d73c2629d546bb999ea550f9a9e20e|Payer|83435d18-56c7-4447-887c-e9f6787887d6|EVN
95720|f77d0cff7aa346ae93e74c7cdeccb410|Payer|5ff60293-de41-4e81-9765-2eaaaf82afe6|EVN
95046|f55bb82ba6b643a2996b5fbef71a6e12|Payer|308b6439-e2b7-4f31-b44e-6ae484ec6d30|EVN
95052|fa425dd255d64e05b1d6f17cbb7604ac|Payer|409167a5-bf65-4067-a555-54739f5c7d94|EVN
95734|14bf8f7b7df1447ebb9eb1f3b84e24ec|Payer|b915129e-5719-4f62-bfa9-e929c9b03a38|EVN
95287|e8fccb8927f74bce9cfa92327389c4ec|Payer|d3eaa12b-b9c6-4a27-a1d0-ef523b076ad8|EVN
95293|44041bf060654e4784671f3173ae7c1f|Payer|a2d1593d-2f3f-472a-a679-901d20e113c3|EVN
95278|ceb82e5808824b2b9db720ced3e5f2da|Payer|b97f6390-d6ee-478d-87bb-e81854e68ee3|EVN
95244|d361b1438c734743bcb6abe4f24b3e10|Payer|97b2f1dd-0c28-4aff-9c29-351d6265be08|EVN
95522|df98ba7cf5d1497591c34006c3863d8e|Payer|d5abb861-08da-4bda-9b97-592ce35ef850|EVN
95536|089107f526ff4ed286ca0192ad973318|Payer|b2d4bd43-f06a-4930-9f39-614ef2dbfb4f|EVN
95250|f6e907f1f5e348bb8d272adb6af2679b|Payer|1cd2717c-c8ab-4f14-aa98-215ffe5369af|EVN
95537|bc133da2d6b94548b4fe12aea9210102|Payer|d93f8674-1103-4401-99e9-cc2c6956ede8|EVN
95251|4c7e2751299a425c84e7286cd3703362|Payer|7a887311-455f-444a-873d-b045f53dad47|EVN
95245|e4e8deac14e7485fa7e249e4da8ffa81|Payer|5a7d994d-3267-41ff-b733-80d765fc8f12|EVN
95523|278f23c0a6344293884d15746a5f09e4|Payer|cef7bf07-e0ce-41ed-99a2-f693847f9549|EVN
95279|4a276e62ef644a168a0a696b466cf1f0|Payer|04b5c96e-4455-499a-9226-b88f22d6f42e|EVN
95292|7ae41a02c140490296229685a35d51a7|Payer|da891c15-5a24-41cb-91ae-c9258b9161c2|EVN
95286|bb7c7188aeb84e0f80ab4d21129d3b38|Payer|457d1284-cdcf-49dd-b7d0-373a8f8e6c5b|EVN
95053|71f4c5d3bad94221af446624aadce0e0|Payer|327c043a-0431-4719-a4c5-958da574142f|EVN
95735|c6513b90773349b7970416cb9c68b959|Payer|b6286758-e086-46b6-8198-ad7e6135e003|EVN
95721|26114769274548c1a6aaf1bbd8baf804|Payer|07907ea4-07e5-4467-8195-48a3b713d84e|EVN
95047|404537919c824402b19b7a6335d4b0c5|Payer|9d2686e6-179b-4f59-a087-d334febae071|EVN
95709|92c9efa8ffcf4684be74337a068a8180|Payer|aa4d35f2-e559-4ed8-a670-c817ee5ee297|EVN
95090|c1c9dbb06e1b4582ad10061f4ee3324d|Payer|a7a487b8-ae06-4a53-80aa-c38e08ec8cd2|EVN
95084|06c213c7ee4446e0a5df93c04e017010|Payer|b81dac11-e11f-4489-84a1-3d6dd9544619|EVN
95127|a1fc69c412214f299069daa14f66eb12|Payer|5aa8a899-6a06-431a-acda-13f5a1c03b9b|EVN
95641|a05228ae27ab4d12a9ef60e0c81f9a2c|Payer|04b4b5e9-5134-464c-a52f-8591b0faa21c|EVN
95655|81b8b0ff4d5f4184abfa7249f3d53ced|Payer|3c3cb01a-c79f-4c6c-966a-b1e97cb0d584|EVN
95133|dabc0eee4e4e40c6b7cd7f3a6362bc4a|Payer|cc378f3d-6cf8-4788-8159-7f67f83cf9b1|EVN
95669|3daade832c4f491c97c8df2cf3a5153e|Payer|cc49d08e-cb65-4e27-bf27-8ac4d6c596d3|EVN
95682|2dce0b6d111c412184a55dd092800ebb|Payer|e6ad44f5-cfb6-445f-baee-9f771b0a34e6|EVN
95696|e433c6643005452f8763eca148d0700d|Payer|165ae24e-ab37-424d-8b80-e81be4f1a1f7|EVN
95443|d81d7e9efa5043c68fb6b4e293e78c09|Payer|44385b5e-23db-441e-876a-1df05ba54cb3|EVN
95325|586ba740eea24a4baae1772e538ed44b|Payer|43e8e6ea-545a-402c-b997-cf1681b488b3|EVN
95331|79b7a015f1064594b6c746f8b1e09348|Payer|3c6222a8-a4a8-42de-8536-1c676c37b83b|EVN
95457|ccf15bd3c8c24512aa58975059d44e59|Payer|5ed103db-1c18-40be-9098-bec2c42bcc90|EVN
95319|390fde0103884691b4152b062be71236|Payer|4e8e52f6-82b8-4847-aaa6-7b5c45910776|EVN
95480|cabe1752c36643dfa45033b2e90b02c7|Payer|703dd406-422e-4c0d-a53f-d83c6f9ee636|EVN
95494|ba9ad847b56d4da9993872ffdbe11de0|Payer|3c13bf2b-4028-4ea5-9409-3d4a99414dfa|EVN
95482|d9bb8bb1e9d149d1a73dbb1c46ee4b1b|Payer|12e4401e-39a6-4056-b9eb-f84ef264aa27|EVN
95496|3576e24ade2a4f479fd6270a28f2b4a1|Payer|5e3e10d9-8dbc-493a-b54a-3637e14cec0b|EVN
95469|2c3f07311b8241009a8bc907465e6a68|Payer|bcaa9d9d-21a6-4800-9cef-972dd251b556|EVN
95327|03fa1b86c23b4f7e8baf13bae2b806ad|Payer|79c46c67-bedc-4504-8fa7-0cd765fdec23|EVN
95441|73ed9e57a59a465c8f6c0aa65db343d2|Payer|dc5423f6-a741-47cc-8372-2247e4a46c0b|EVN
95455|ce0ccb0087c241ae9628f4bc0b50addb|Payer|45078822-ccc6-4e07-a62f-278c113cae38|EVN
95333|d24f2c6b680c47869f12cfaa43239ced|Payer|3448fc10-2c08-47b0-b866-9669030e25e0|EVN
95680|a130beafdfcc44d39dffb4e0fb40f953|Payer|78897ae9-301d-482b-9988-985677813566|EVN
95694|1e6e9dd7ef604a959f2123fb68149624|Payer|985dab3d-596f-423a-b9cc-4a2463964246|EVN
95119|b1ab7f551af04795bed8f79a13da5156|Payer|08938868-4d0a-4745-8f0c-c0a7e0f42542|EVN
95643|6fada843455f44e491336022e0d2bc0c|Payer|38bbbea1-6bcb-4b4d-a816-413fd050375f|EVN
95125|c4aa6926c1f1414e92a053c358a8dabb|Payer|17f28654-f29e-4869-aadf-5e027aa78acc|EVN
95131|25016e0182a148fb9f92e883d15945ff|Payer|6202ae34-6fc8-4852-a81c-e64a85f06f2a|EVN
95657|5102945304db48d8ba28f3235b5d2e8a|Payer|ea70c2a6-fd66-43e9-906e-0fcf3a124844|EVN
95092|8699c64e2b354857b8872f1cc7a3bead|Payer|af1c6245-cbd7-4aae-8dd5-2c476e199082|EVN
95086|b00fe47aade94d1a92763b48f66d01fa|Payer|2e5f4bc7-c771-41b0-9e0a-e30db415319b|EVN
95079|2ca77ddf31f84ca2bb48f16490f9584d|Payer|0d08331a-64fa-4668-a020-3278c3125710|EVN
95737|72f059ccc0264bda9a8686e5fd71fae1|Payer|38fcbc67-30a2-4b5d-a215-7fc9e1778afb|EVN
95051|535e5a2ec33e4bcda382597f537af0be|Payer|fb27e248-9598-4073-9211-66bcf1739fc6|EVN
95045|7fdc545e4eae4c55b75eb00aafa609cc|Payer|94b76911-a6b1-408a-a3da-2e3b1e56b6b9|EVN
95723|0f74cf0915e74cc398da8ef4a88c05ae|Payer|41742a96-ea5b-4ad2-ba96-f9dd979804c6|EVN
95290|1c884f090e7642e9a2f815410d6b3f49|Payer|685298bb-ea21-444b-b81c-320b6bbf84d7|EVN
95284|c7de2caa84134e8fb947d1beebe8927c|Payer|43305b8e-a51e-486f-a96a-967240cee0fb|EVN
95509|f19ea236bf6e4d8997418a9d77a8c0d6|Payer|bd3364aa-0aec-4c11-9549-74e195349f37|EVN
95253|188eba5aa96b4d869b10f0ba9ec0f1c2|Payer|c229ea7b-6468-4b31-a223-64ac093cb8fe|EVN
95535|ab44dc5a70df4720b7a727e2ae4aba39|Payer|f2ffea03-68e0-4454-a701-d58374aad4ce|EVN
95521|2262351c74f54fd59e1bc3c742e90130|Payer|ef7f30af-219f-4767-95f3-e4975c82d0c0|EVN
95247|8c41b1d70ba0470990b822af2b92b762|Payer|10d89134-410b-45cc-8f13-0d17ddced94c|EVN
95520|d2cbbc3d70aa4f6b89960033f2f7ba2e|Payer|135b578e-c1a8-4571-aef4-75a1e5a3d0b5|EVN
95246|0012c7dbba514a91b82f5dfb5c3e8e20|Payer|700eb511-aba4-40ea-b286-0dd46ff5cc7b|EVN
95252|9d684cb604f744a082ded69cf1586670|Payer|6d88342a-cc21-47be-878f-aac20d9d6f8e|EVN
95534|cf6231fd5ab14e008726d0993d6b5c14|Payer|fd27fa46-b482-450e-9abc-fc652b84179d|EVN
95508|cf4bec19db0a457a854a5d61b1ac2ca1|Payer|32b72d28-0993-497c-82f9-05b6940cfe4b|EVN
95285|972ea42f2b0f4cf6a3f1b649bd82f52b|Payer|4faf0f34-bbc7-4eab-995f-166b603a8f8e|EVN
95291|f084925f6d0a41a2be0ff16d0eccd8f5|Payer|91e76ec0-077c-4e5f-8961-13187e9722e4|EVN
95044|9d084823a50441e993538cbb233f1905|Payer|e37c415f-3ee7-484d-a6a3-f7ce4310d875|EVN
95722|cb2aba532c5e4c38bf4ad78c4a2f5940|Payer|dec473b3-102e-44e4-b259-935070048c96|EVN
95736|9ac12d50314b4b62a7efef5f507ad3ba|Payer|49d9fde0-4c7c-4a37-ac8a-82bc9f044727|EVN
95050|2fda5f1d0688408f9c348c0cbd39f7fc|Payer|4526e303-bd22-4412-9806-52a3633e773c|EVN
95078|57e74980b1634bc6877e3ae311490122|Payer|765c0855-6c80-48f5-9397-36b42eca7aaf|EVN
95087|af29dfa7f69040158cae638a9142c5ef|Payer|f82ff18e-28e6-496a-b1f5-c4c6de2b6afc|EVN
95093|ffbd9937f50b43959b4c4ea565eb25d5|Payer|dc0e8be2-4d3c-4914-9fc4-bee256540d52|EVN
95130|520cdf8ee6324619b62a59ebdfb396bb|Payer|36533642-f898-4190-83ba-bca46159f9d5|EVN
95656|90abbc4027404abb99c0672d5fe5e21d|Payer|28dc0860-442b-44b0-b510-10ccc4da98d7|EVN
95642|5bf82df6300147e09e0e9206f258af9c|Payer|e6d4e9e9-4645-47c9-99ff-52bc838b3de3|EVN
95124|7621d43583474605acb20738e8eb6d9a|Payer|131302e6-a488-4597-9528-75e366ec5596|EVN
95118|3dba98a8dc6b4c32bffb5fb040c849f0|Payer|acd8e224-22d2-4483-af17-075aff34569c|EVN
95695|b8b30144e4494137a556b7833adde30a|Payer|213585ef-4835-4212-b05d-bee4deecd54d|EVN
95681|06326840a713475c94f0f64939ea4a45|Payer|d2ff74f4-fbf4-4b5f-ac45-e2f94c616b7a|EVN
95454|1cec7108b0e74f45883e85a34cf566b7|Payer|e8c62d9b-2e8d-402f-b534-a85183233b2e|EVN
95332|4dd7f5b288ed4171b9cb57f6e2e806cd|Payer|5beea26e-bb77-4e02-b0b4-3794d0b2e761|EVN
95326|3466c5c5a66344c7a074f7a9b0c2bd22|Payer|2018f5cb-c991-4a00-90ca-12c5c71aee3b|EVN
95440|0ba57f751cbe4277adbec94d775403e8|Payer|7c719ed8-0708-4e4d-ad54-ed4a26054341|EVN
95468|341e756bac504604908c5624cfd9cf3d|Payer|8ad36ec3-e3f7-435c-a622-87d376cfb005|EVN
95497|31b0fdf8278e44f091531b5910313c63|Payer|48ba278a-5172-4536-9579-3b2535bbcbdd|EVN
95483|53c1dd877c2a41eb94671ba4126ef48a|Payer|7ce38640-46f5-4f0d-9cf5-f543bd90ce11|EVN
